<?xml version="1.0" encoding="UTF-8" standalone="no"?>
<svg
   xmlns:dc="http://purl.org/dc/elements/1.1/"
   xmlns:cc="http://creativecommons.org/ns#"
   xmlns:rdf="http://www.w3.org/1999/02/22-rdf-syntax-ns#"
   xmlns:svg="http://www.w3.org/2000/svg"
   xmlns="http://www.w3.org/2000/svg"
   xmlns:sodipodi="http://sodipodi.sourceforge.net/DTD/sodipodi-0.dtd"
   xmlns:inkscape="http://www.inkscape.org/namespaces/inkscape"
   width="141px"
   height="156px"
   viewBox="0 0 141 156"
   version="1.1"
   id="svg273"
   sodipodi:docname="meiko-face-pizza2.svg"
   inkscape:version="0.92.4 (f8dce91, 2019-08-02)">
  <metadata
     id="metadata277">
    <rdf:RDF>
      <cc:Work
         rdf:about="">
        <dc:format>image/svg+xml</dc:format>
        <dc:type
           rdf:resource="http://purl.org/dc/dcmitype/StillImage" />
      </cc:Work>
    </rdf:RDF>
  </metadata>
  <sodipodi:namedview
     pagecolor="#ffffff"
     bordercolor="#666666"
     borderopacity="1"
     objecttolerance="10"
     gridtolerance="10"
     guidetolerance="10"
     inkscape:pageopacity="0"
     inkscape:pageshadow="2"
     inkscape:window-width="1853"
     inkscape:window-height="1025"
     id="namedview275"
     showgrid="false"
     inkscape:zoom="1.5128205"
     inkscape:cx="70.5"
     inkscape:cy="78"
     inkscape:window-x="67"
     inkscape:window-y="27"
     inkscape:window-maximized="1"
     inkscape:current-layer="svg273" />
  <!-- Generator: Sketch 39.1 (31720) - http://www.bohemiancoding.com/sketch -->
  <title
     id="title2">Group</title>
  <desc
     id="desc4">Created with Sketch.</desc>
  <defs
     id="defs6" />
  <g
     id="Page-1"
     transform="matrix(0.91939297,0,0,0.91939297,0.10458682,0.03943578)"
     style="fill:none;fill-rule:evenodd;stroke:none;stroke-width:1">
    <g
       id="g270"
       transform="translate(2,2)">
      <path
         d="m 27.574,82.848 c -1.746667,6.447333 -3.76,14.278 -6.04,23.492 0.34,0.122 0.68,0.24167 1.02,0.359 -0.03933,0.15867 -0.07867,0.318 -0.118,0.478 0.709333,0.25467 1.42,0.49933 2.132,0.734 0.554,5.685 2.113,10.454 4.281,13.304 v 0 c -0.006,0.082 -0.011,0.164 -0.016,0.247 -0.125,0.816 -0.185,1.639 -0.176,2.464 0.006,1.045 0.08,2.088 0.221,3.122 0.14,1.024 0.322,2.042 0.55,3.052 0.22,0.975 0.468,1.944 0.747,2.902 0.139,0.473 0.282,0.945 0.432,1.414 v 0 0 0 0 c -10.239333,0.468 -17.583333,1.445 -22.032,2.931 -4.8726667,1.62733 -7.4663333,4.74333 -7.781,9.348 2.1086667,-3.55267 4.4043333,-5.566 6.887,-6.04 -2.312,0.70133 -4.0743333,3.032 -5.287,6.992 0.125,-0.548 2.516,-2.692 3.24,-3.24 1.2746667,-0.96467 2.7526667,-1.47633 4.434,-1.535 -3.3593333,1.90933 -5.2603333,3.796 -5.703,5.66 1.7746667,-1.08267 4.1496667,-2.179 7.125,-3.289 7.414,-2.76667 15.215,-4.60867 23.403,-5.526 4.831333,0.068 6.845333,-1.154 6.042,-3.666 -0.226,-0.708 -0.768667,-1.22433 -1.628,-1.549 l -0.534,-1.545 v 0 c -0.257,-0.743 -0.495,-1.492 -0.715,-2.247 -0.231,-0.797 -0.439,-1.601 -0.619,-2.41 -0.177,-0.782 -0.318,-1.57 -0.425,-2.364 -0.097,-0.686 -0.146,-1.375 -0.15,-2.067 -0.003,-0.317 0.016,-0.633 0.051,-0.948 2.563,-1.919 4.757,-6.007 6.096,-11.281 2.133333,0.172 4.279667,0.258 6.439,0.258 2.257333,0 4.564333,-0.12633 6.921,-0.379 1.337,5.332 3.545,9.468 6.127,11.402 0.035,0.315 0.053,0.631 0.049,0.948 -0.002,0.692 -0.051,1.381 -0.147,2.067 -0.107,0.794 -0.249,1.582 -0.425,2.364 -0.181,0.809 -0.388,1.613 -0.62,2.41 -0.22,0.755 -0.458,1.504 -0.714,2.247 l -0.534,1.545 v 0 0 c -0.86,0.324 -1.403,0.84033 -1.629,1.549 -0.803333,2.512 1.211,3.734 6.043,3.666 8.188,0.91733 15.988667,2.75933 23.402,5.526 2.975333,1.11 5.350333,2.20633 7.125,3.289 -0.442667,-1.864 -2.343667,-3.75067 -5.703,-5.66 1.681333,0.0587 3.159333,0.57033 4.434,1.535 0.724,0.548 3.115,2.692 3.24,3.24 -1.212667,-3.96 -2.975,-6.29067 -5.287,-6.992 2.482667,0.474 4.778333,2.48733 6.887,6.04 -0.314667,-4.60467 -2.908333,-7.72067 -7.781,-9.348 -4.448667,-1.486 -11.793,-2.463 -22.033,-2.931 0.15,-0.469 0.294,-0.941 0.431,-1.414 0.281,-0.958 0.53,-1.927 0.749,-2.902 0.226,-1.01 0.411,-2.028 0.548,-3.052 0.144,-1.034 0.218,-2.077 0.224,-3.122 0.008,-0.825 -0.051,-1.648 -0.177,-2.462 -0.004,-0.082 -0.01,-0.164 -0.018,-0.246 v 0 c 0.302,-0.379 0.588,-0.808 0.862,-1.271 v 0 c 1.584667,0.90067 3.254333,1.93233 5.009,3.095 0.496667,0.34867 0.998667,0.68733 1.506,1.016 0.536667,0.368 1.080667,0.74767 1.632,1.139 l 0.248,0.021 c 5.492667,3.22133 11.559333,5.34267 18.2,6.364 8.539,1.314 15.576,3.418 21.11,6.313 5.96133,3.118 10.18033,7.153 12.657,12.105 9.55,-20.46467 6.48033,-37.17733 -9.209,-50.138 -12.517,-10.339 -25.612,-9.681 -38.054,-8.799 -1.698,0.08133 -3.305333,0.191667 -4.822,0.331 -1.408,0.088 -2.806,0.159 -4.189,0.191 -0.874,-2.603 -1.827,-5.367 -2.808,-8.134 v 0 c 1.2,-0.21 2.456667,-0.549333 3.77,-1.018 0.606,-0.217 1.158,-0.433 1.657,-0.65 3.035333,-1.320667 4.064,-2.646 3.086,-3.976 10.178,-1.983 16.654,-4.96 16.654,-8.286 0,-2.184 -2.792,-4.218 -7.624,-5.912 -0.522,-0.754 -1.26,-1.462 -2.292,-2.041 -2.276,-1.278 -4.781,-2.339 -7.756,-3.199 v 0 0 0 0 0 0 0 0 0 0 0 0 0 0 0 0 0 0 0 0 0 0 0 0 0 0 0 0 0 0 0 0 0 0 0 0 c -0.163,-0.38 -0.328,-0.759 -0.507,-1.132 -0.347,-0.722 -0.739,-1.422 -1.172,-2.098 -0.443,-0.689 -0.921,-1.354 -1.434,-1.992 -0.53,-0.659 -1.088,-1.295 -1.675,-1.905 -0.612,-0.636 -1.246,-1.25 -1.905,-1.839 -0.689,-0.618 -1.402,-1.213 -2.13,-1.785 -0.413,-0.325 -0.831,-0.645 -1.254,-0.957 -0.456,-0.334 -0.918,-0.665 -1.381,-0.987 l -8.514,-2.192 0.093,0.687 v 0 h -0.072 c -0.04267,-0.276 -0.08567,-0.555 -0.129,-0.837 h -2.801 c -0.038,0.500667 -0.09133,0.981333 -0.16,1.442 v 0 0 0 0 0 0 c -0.072,-0.376667 -0.137667,-0.760333 -0.197,-1.151 -0.0047,-0.728 0.01533,-1.423667 0.06,-2.087 0.0033,-0.04733 0.0063,-0.09433 0.009,-0.141 2.786,-0.208667 5.386333,-0.776333 7.801,-1.703 l 0.043,0.021 0.001,-0.038 c 0.57,-0.22 1.129667,-0.46 1.679,-0.72 l 3.696,0.907 -0.505,-1.803 c 0.918,-0.073 1.483,-0.087 1.677,-0.491 0.115,-0.025 -0.365,-0.858 -0.762,-1.527 l 1.43,0.383 -0.505,-1.021 c 0.854,0.212 1.333,0.452 1.936,-0.103 -0.277333,-0.444667 -0.541667,-0.888 -0.793,-1.33 l 1.174,0.032 -0.863,-0.811 c 0.79,0.08 1.925,0.253 1.846,0.098 -0.27,-0.532 -2.617,-2.28 -3.495,-3.185 l 2.637,-0.606 c -2.012667,-1.206667 -3.669667,-3.078667 -4.971,-5.616 0.026,-0.283 0.045,-0.569 0.058,-0.856 0.006,-0.117 0.01,-0.234 0.013,-0.352 0.053,-1.906 -0.175,-3.756 -0.645,-5.509 v 0 C 71.492,11.160333 72.809333,6.373 72.434,2.803 72.115333,-0.23033333 68.055333,0.822 60.254,5.96 57.423,4.152 54.081,3.064 50.482,2.965 c -3.6,-0.1 -6.997,0.8 -9.924,2.448 -7.504,-5.562 -11.499333,-6.8376667 -11.986,-3.827 -0.572667,3.544 0.477333,8.3973333 3.15,14.56 v 0 c -0.567,1.724 -0.897,3.558 -0.95,5.464 -0.003,0.118 -0.005,0.235 -0.006,0.353 -0.003,0.287 0,0.573 0.01,0.857 -1.439333,2.461333 -3.197333,4.238667 -5.274,5.332 l 2.599,0.752 c -0.927,0.854 -3.367,2.469 -3.666,2.986 -0.087,0.15 1.056,0.04 1.848,0.004 l -0.906,0.762 1.174,0.033 c -0.276,0.428 -0.564333,0.856 -0.865,1.284 0.571,0.587 1.062,0.375 1.926,0.21 l -0.56,0.991 1.449,-0.302 c -0.434,0.646 -0.96,1.45 -0.846,1.482 0.172,0.414 0.735,0.459 1.648,0.583 l -0.604,1.773 3.74,-0.701 c 0.534,0.29 1.079333,0.560333 1.636,0.811 l -0.001,0.039 0.044,-0.019 c 2.517333,1.13 5.268,1.863667 8.252,2.201 0.0033,0.158 0.01067,0.323 0.022,0.495 0.06533,0.972667 0.07767,2.015333 0.037,3.128 -0.02933,-0.162667 -0.05767,-0.327667 -0.085,-0.495 h -0.752 c -0.05267,-0.272 -0.102667,-0.551 -0.15,-0.837 H 38.67 v 0 l 0.007,-0.055 -4.964,0.615 c -1.119,0.663 -4.768,2.268 -5.837,3.007 -0.913,0.632 -1.798,1.301 -2.652,2.009 -0.273,0.226 -0.544,0.456 -0.808,0.69 -0.255,0.224 -0.505,0.452 -0.752,0.684 -0.691,0.65 -1.35,1.334 -1.97,2.052 -0.562,0.648 -1.084,1.332 -1.562,2.044 -0.139,0.209 -0.275,0.421 -0.406,0.634 -0.129,0.21 -0.255,0.421 -0.374,0.636 -0.158,0.28 -0.305,0.561 -0.447,0.848 -0.14,0.281 -0.269,0.567 -0.392,0.856 -0.328,0.776 -0.593,1.578 -0.79,2.397 -0.018,0.073 -0.035,0.145 -0.05,0.219 -1.785,0.739 -5.326,2.389 -5.837,3.887 -4.407,1.644 -6.937,3.587 -6.937,5.666 0,3.726 8.13,7.015 20.489,8.958 -1.691333,1.462667 -0.962667,2.919 2.186,4.369 z m 8.513,-26.832 c 0.256,-0.845 0.459,-1.625 0.64,-2.391 v 0 h -0.338 c -0.911,0.54 -1.804,1.112 -2.676,1.716 -0.442,0.305 -0.874,0.622 -1.297,0.951 1.067,-0.099 2.282,-0.193 3.671,-0.276 v 0 0 0 0 0 0 0 0 0 0 0 0 0 0 0 0 0 0 0 0 0 0 0 0 0 0 0 0 0 0 0 0 0 0 0 0 0 z M 63.02,55.818 c -0.08533,-0.43 -0.171667,-0.874333 -0.259,-1.333 v 0 0 c 0.526,0.144 1.07,0.29 1.269,0.437 0.339,0.248 0.674,0.505 1.004,0.763 0.124,0.098 0.247,0.196 0.369,0.297 -0.771,-0.06 -1.565,-0.114 -2.383,-0.164 v 0 0 0 0 0 0 0 0 0 0 0 0 0 0 0 0 0 0 0 0 0 0 0 0 0 0 0 0 0 0 0 0 0 0 0 0 0 z"
         id="Shape"
         inkscape:connector-curvature="0"
         style="stroke:#9ba6c6;stroke-width:3" />
      <g
         id="g268">
        <g
           id="g171">
          <g
             transform="translate(54,86)"
             id="g15">
            <path
               d="m 3.091,13.862 c 9.55,18.418 23.192667,28.991333 40.928,31.72 8.539,1.314 15.576,3.418 21.11,6.313 C 71.090333,55.013 75.309333,59.048 77.786,64 87.336,43.535333 84.266333,26.822667 68.577,13.862 45.043,-5.579 19.462,13.862 0.021,0.56 l 3.07,13.302 z"
               id="path9"
               inkscape:connector-curvature="0"
               style="fill:#464646" />
            <path
               d="m 62.682,46.35 4.721,1.436 -2.274,-4.31 4.531,1.437 -1.231,-4.515 4.515,3.078 -1.847,-5.541 4.72,3.694 -1.436,-5.541 4.31,4.31 -0.905,-6.157 4.188,4.72 C 82.866,29.263 76.777333,19.753667 63.708,10.433 l 1.421,4.31 -4.704,-0.881 2.257,3.96 h -5.131 l 1.847,3.899 -4.515,-1.026 2.668,4.72 -4.515,-1.847 1.847,4.516 h -4.72 l 2.873,4.72 -5.747,-0.821 2.874,4.105 -5.131,-0.821 3.694,3.694 h -5.541 l 4.104,2.668 h -5.951 l 3.694,3.284 c 8.416667,1.646 14.642,3.698333 18.676,6.157 l -1.026,-4.72 z"
               id="path11"
               inkscape:connector-curvature="0"
               style="fill:#ebebeb" />
            <path
               d="m 12.361,27.403 -4.295,-2.429 4.69,-1.325 -4.165,-2.291 4.12,-2.221 -5.343,-1.148 5.287,-2.483 -5.93,-0.872 C 7.079,8.11 17.658667,4.8626667 38.464,4.892 l -5.439,2.842 3.538,3.717 -4.098,1.35 3.856,2.563 -5.259,1.322 4.451,1.997 -4.544,1.775 3.255,3.42 -5.4,1.173 4.556,3.596 -4.954,0.749 4.132,3.151 -5.223,-0.129 3.821,4.014 -4.763,-1.134 4.104,4.311 -4.926,-0.412 C 18.575667,34.235667 12.797,31.141333 8.235,29.914 l 4.126,-2.511 z"
               id="path13"
               inkscape:connector-curvature="0"
               style="fill:#a3a3a3" />
          </g>
          <g
             transform="translate(0,79)"
             id="g33">
            <g
               id="g23">
              <path
                 d="m 38.773,53.957 1.34,3.879 -7.76,2.68 -1.34,-3.879 c -0.302,-0.872 -0.579,-1.75 -0.838,-2.635 -0.279,-0.958 -0.527,-1.927 -0.747,-2.902 -0.228,-1.01 -0.41,-2.028 -0.55,-3.052 -0.141,-1.034 -0.215,-2.077 -0.221,-3.122 -0.009,-0.825 0.051,-1.648 0.176,-2.464 0.014,-0.261 0.037,-0.522 0.066,-0.782 0.041,-0.386 0.092,-0.77 0.154,-1.154 0.045,-0.269 0.092,-0.54 0.143,-0.808 0.058,-0.296 0.119,-0.592 0.185,-0.887 0.183,-0.827 0.394,-1.648 0.63,-2.461 0.308,-1.061 0.64,-2.112 0.998,-3.156 l 1.325,-3.886 7.771,2.654 -1.328,3.885 c -0.316,0.924 -0.61,1.854 -0.883,2.792 -0.186,0.646 -0.353,1.299 -0.5,1.955 -0.048,0.22 -0.095,0.44 -0.138,0.661 -0.035,0.185 -0.068,0.37 -0.096,0.554 -0.039,0.245 -0.072,0.489 -0.099,0.735 -0.029,0.257 -0.043,0.513 -0.047,0.77 -0.103,0.505 -0.154,1.02 -0.15,1.535 0.004,0.692 0.053,1.381 0.15,2.067 0.107,0.794 0.248,1.582 0.425,2.364 0.18,0.809 0.388,1.613 0.619,2.41 0.22,0.755 0.458,1.504 0.715,2.247 z"
                 id="path17"
                 inkscape:connector-curvature="0"
                 style="fill:#464646" />
              <path
                 d="M 33.475,45.11 C 27.962,44.888 23.89,34.63 24.388,22.216 24.886,9.802 29.766,-0.097 35.279,0.124 40.792,0.345 44.864,10.603 44.366,23.017 43.868,35.431 38.988,45.331 33.475,45.11 Z"
                 id="path19"
                 inkscape:connector-curvature="0"
                 style="fill:#ebebeb" />
              <path
                 d="m 33.613,55.296 c 4.328667,-0.559333 6.769333,0.02567 7.322,1.755 0.803333,2.512 -1.210667,3.734 -6.042,3.666 -8.188,0.917333 -15.989,2.759333 -23.403,5.526 -2.9753333,1.11 -5.3503333,2.206333 -7.125,3.289 0.4426667,-1.864 2.3436667,-3.750667 5.703,-5.66 -1.6813333,0.05867 -3.1593333,0.570333 -4.434,1.535 -0.724,0.548 -3.115,2.692 -3.24,3.24 1.2126667,-3.96 2.975,-6.290667 5.287,-6.992 -2.4826667,0.474 -4.7783333,2.487333 -6.887,6.04 0.3146667,-4.604667 2.9083333,-7.720667 7.781,-9.348 4.872667,-1.627333 13.218667,-2.644333 25.038,-3.051 z"
                 id="path21"
                 inkscape:connector-curvature="0"
                 style="fill:#464646" />
            </g>
            <g
               transform="translate(55)"
               id="g31">
              <path
                 d="m 5.637,35.867 -1.328,-3.885 7.768,-2.654 1.328,3.886 c 0.281,0.818 0.546,1.646 0.796,2.475 0.205,0.675 0.394,1.356 0.569,2.042 0.236,0.928 0.433,1.863 0.593,2.807 0.106,0.639 0.18,1.281 0.217,1.926 0.126,0.814 0.185,1.637 0.177,2.462 -0.006,1.045 -0.08,2.088 -0.224,3.122 -0.137,1.024 -0.322,2.042 -0.548,3.052 -0.219,0.975 -0.468,1.944 -0.749,2.902 -0.257,0.885 -0.536,1.763 -0.835,2.635 l -1.34,3.879 -7.76,-2.68 1.34,-3.879 C 5.897,53.214 6.135,52.465 6.355,51.71 6.587,50.913 6.794,50.109 6.975,49.3 7.151,48.518 7.293,47.73 7.4,46.936 7.496,46.25 7.545,45.561 7.547,44.869 7.554,44.356 7.502,43.843 7.4,43.338 7.391,42.858 7.348,42.379 7.268,41.905 7.145,41.181 6.993,40.463 6.813,39.75 6.669,39.186 6.513,38.624 6.345,38.065 6.121,37.329 5.885,36.596 5.637,35.867 Z"
                 id="path25"
                 inkscape:connector-curvature="0"
                 style="fill:#464646" />
              <path
                 d="M 10.938,45.11 C 16.451,44.888 20.523,34.63 20.025,22.216 19.528,9.802 14.647,-0.097 9.134,0.124 3.621,0.345 -0.451,10.603 0.047,23.017 0.545,35.431 5.425,45.331 10.938,45.11 Z"
                 id="path27"
                 inkscape:connector-curvature="0"
                 style="fill:#ebebeb" />
              <path
                 d="m 10.8,55.296 c -4.3286667,-0.559333 -6.7693333,0.02567 -7.322,1.755 -0.8033333,2.512 1.211,3.734 6.043,3.666 8.188,0.917333 15.988667,2.759333 23.402,5.526 2.975333,1.11 5.350333,2.206333 7.125,3.289 -0.442667,-1.864 -2.343667,-3.750667 -5.703,-5.66 1.681333,0.05867 3.159333,0.570333 4.434,1.535 0.724,0.548 3.115,2.692 3.24,3.24 -1.212667,-3.96 -2.975,-6.290667 -5.287,-6.992 2.482667,0.474 4.778333,2.487333 6.887,6.04 C 43.304333,63.090333 40.710667,59.974333 35.838,58.347 30.966,56.719667 22.62,55.702667 10.8,55.296 Z"
                 id="path29"
                 inkscape:connector-curvature="0"
                 style="fill:#464646" />
            </g>
          </g>
          <g
             transform="translate(28,38)"
             id="g47">
            <g
               id="g39"
               style="fill:#d1d1d1">
              <path
                 d="M 21.757,3.536 V 72.633 C 9.817,72.822333 2.943,67.973333 1.135,58.086 -0.374,49.839 8.642,32.521 11.937,21.399 13.873667,13.968333 14.692,8.014 14.392,3.536 c -0.3,-4.47866667 2.155,-4.47866667 7.365,0 z"
                 id="path35"
                 inkscape:connector-curvature="0" />
              <path
                 d="M 21.656,3.536 V 72.633 C 33.596,72.822333 40.470333,67.973333 42.279,58.086 43.787,49.839 34.771,32.521 31.476,21.399 29.539333,13.968333 28.721,8.014 29.021,3.536 c 0.3,-4.47866667 -2.155,-4.47866667 -7.365,0 z"
                 id="path37"
                 inkscape:connector-curvature="0" />
            </g>
            <g
               transform="translate(6,3)"
               id="g45"
               style="fill:#e8e8e8">
              <path
                 d="m 15.744,3.079 v 51.27 C 6.8846667,54.489 1.784,50.891 0.442,43.555 -0.677,37.436 6.013,24.586 8.458,16.334 9.8946667,10.820667 10.501667,6.4023333 10.279,3.079 c -0.222667,-3.32266667 1.599,-3.32266667 5.465,0 z"
                 id="path41"
                 inkscape:connector-curvature="0" />
              <path
                 d="m 15.669,3.079 v 51.27 c 8.859333,0.14 13.96,-3.458 15.302,-10.794 C 32.09,37.436 25.4,24.586 22.956,16.334 21.518667,10.820667 20.911333,6.4023333 21.134,3.079 c 0.222667,-3.32266667 -1.599,-3.32266667 -5.465,0 z"
                 id="path43"
                 inkscape:connector-curvature="0" />
            </g>
          </g>
          <g
             transform="translate(21,43)"
             id="g71">
            <path
               d="M 28.45,68.898 C 19.201333,68.898 10.196667,67.324333 1.436,64.177 6.9846667,41.753 10.952333,27.523333 13.339,21.488 16.92,12.435 17.126,9.26 18.47,1.169 h 2.874 c 1.033333,6.2706667 3.402,9.417667 7.106,9.441 5.363333,0.034 8.286667,-3.113 8.77,-9.441 h 2.8 c 1.682667,10.968 3.119333,17.741 4.31,20.319 4.561,9.874 13.714,36.702 14.367,41.047 -10.916667,4.242 -20.999,6.363 -30.247,6.363 z"
               id="path49"
               inkscape:connector-curvature="0"
               style="fill:#a3a3a3;fill-opacity:0.5" />
            <path
               d="M 27.548,68.06 C 18.3,68.06 9.2953333,66.486667 0.534,63.34 6.0833333,40.916 10.051333,26.686333 12.438,20.651 16.018,11.597 16.225,8.423 17.569,0.332 h 2.873 c 1.034,6.2706667 3.402667,9.4176667 7.106,9.441 5.364,0.034 8.287333,-3.113 8.77,-9.441 h 2.801 c 1.682667,10.968 3.119333,17.741 4.31,20.319 4.561,9.874 13.713,36.702 14.366,41.047 -10.916,4.241333 -20.998333,6.362 -30.247,6.362 z"
               id="path51"
               inkscape:connector-curvature="0"
               style="fill:#ffffff" />
            <path
               d="m 40.145,31.118 c -9.334667,2.037333 -17.202,1.763667 -23.602,-0.821 -1.900667,10.52 -2.927,16.882333 -3.079,19.087 11.462667,4.545333 21.314,4.819 29.554,0.821 C 41.346,39.517667 40.388333,33.155333 40.145,31.118 Z"
               id="path53"
               inkscape:connector-curvature="0"
               style="fill:#d1d1d1" />
            <path
               d="M 39.452,30.502 C 30.117333,32.539333 22.25,32.265667 15.85,29.681 13.949333,40.201667 12.923,46.564 12.771,48.768 24.233667,53.314 34.085,53.587667 42.325,49.589 40.653,38.901667 39.695333,32.539333 39.452,30.502 Z"
               id="path55"
               inkscape:connector-curvature="0"
               style="fill:#ffffff" />
            <g
               transform="translate(20,30)"
               id="g69">
              <path
                 d="m 1.185,3.025 c 0,0 4.638,-0.896 8.186,3.509 C 2.822,8.443 1.185,3.025 1.185,3.025 Z M 7.382,0.297 c 0,0 -1.636,4.015 1.989,6.237 C 11.905,2.011 7.382,0.297 7.382,0.297 Z"
                 id="path57"
                 inkscape:connector-curvature="0"
                 style="fill:#33691e" />
              <path
                 d="m 1.185,3.025 c 0,0 4.405,2.379 8.186,3.509 C 2.822,8.443 1.185,3.025 1.185,3.025 Z M 7.382,0.297 c 0,0 -1.636,4.015 1.989,6.237 0,-2.574 -1.989,-6.237 -1.989,-6.237 z"
                 id="path59"
                 inkscape:connector-curvature="0"
                 style="fill:#558b2f" />
              <path
                 d="M 6.37,8.599 6.954,9.145 C 8.085,7.938 9.293,7.158 10.423,6.65 9.995,7.353 10.267,8.015 10.306,8.053 l 0.741,-0.35 c 0,0 -0.194,-0.935 0.935,-1.637 1.209,-0.312 2.066,-0.312 2.066,-0.312 v -0.78 c -0.155,0 -4.327,-0.039 -7.678,3.625 z"
                 id="path61"
                 inkscape:connector-curvature="0"
                 style="fill:#6d4c41" />
              <path
                 d="M 3.836,15.889 C 3.251,15.889 2.705,15.733 2.2,15.421 0.601,14.37 0.288,11.913 1.575,9.925 2.277,8.833 3.289,8.053 4.421,7.82 5.278,7.625 6.097,7.781 6.759,8.21 c 1.598,1.052 1.91,3.508 0.623,5.495 -0.7,1.092 -1.714,1.871 -2.844,2.106 -0.195,0.038 -0.469,0.078 -0.702,0.078 v 0 z m 8.341,-0.78 c -1.559,0 -3.041,-1.325 -3.469,-3.196 -0.272,-1.131 -0.077,-2.301 0.508,-3.196 0.427,-0.702 1.09,-1.169 1.831,-1.326 1.755,-0.39 3.586,1.014 4.054,3.158 0.272,1.129 0.077,2.299 -0.507,3.196 -0.428,0.701 -1.09,1.169 -1.832,1.324 -0.195,0 -0.39,0.04 -0.585,0.04 v 0 z"
                 id="path63"
                 inkscape:connector-curvature="0"
                 style="fill:#9e9d24" />
              <path
                 d="m 5.863,14.329 c 0,0.235 -0.155,0.39 -0.39,0.39 -0.235,0 -0.39,-0.155 -0.39,-0.39 0,-0.234 0.155,-0.389 0.39,-0.389 0.235,0 0.39,0.155 0.39,0.389 z m -1.949,0 c -0.235,0 -0.39,0.156 -0.39,0.39 0,0.235 0.155,0.39 0.39,0.39 0.234,0 0.39,-0.155 0.39,-0.39 0,-0.234 -0.156,-0.39 -0.39,-0.39 z m 0.39,-1.559 c -0.235,0 -0.39,0.155 -0.39,0.39 0,0.235 0.155,0.39 0.39,0.39 0.234,0 0.389,-0.155 0.389,-0.39 0,-0.235 -0.155,-0.39 -0.389,-0.39 z m 8.185,0.78 c -0.234,0 -0.39,0.155 -0.39,0.39 0,0.234 0.156,0.389 0.39,0.389 0.235,0 0.39,-0.155 0.39,-0.389 0,-0.235 -0.155,-0.39 -0.39,-0.39 z m 1.17,-1.17 c -0.235,0 -0.39,0.156 -0.39,0.39 0,0.235 0.155,0.39 0.39,0.39 0.234,0 0.389,-0.155 0.389,-0.39 0,-0.234 -0.155,-0.39 -0.389,-0.39 z m -1.56,-0.389 c -0.234,0 -0.389,0.155 -0.389,0.389 0,0.235 0.155,0.39 0.389,0.39 0.235,0 0.39,-0.155 0.39,-0.39 0,-0.234 -0.155,-0.389 -0.39,-0.389 z"
                 id="path65"
                 inkscape:connector-curvature="0"
                 style="fill:#827717" />
              <path
                 d="M 10.151,11.211 C 9.526,9.652 10.93,8.872 10.93,8.872 m -5.067,0.39 c 0,0 -1.52,-0.819 -2.729,1.169"
                 id="path67"
                 inkscape:connector-curvature="0"
                 style="stroke:#c0ca33;stroke-width:2" />
            </g>
          </g>
          <path
             d="m 41.986,38.758 6.671,4.36 c 2.275,1.392 6.545,2.668 8.77,2.907 -0.559333,-2.328667 -0.847667,-4.944667 -0.865,-7.848 l -14.576,0.581 z"
             id="path73"
             inkscape:connector-curvature="0"
             style="fill:#5d5d5d;fill-opacity:0.5" />
          <g
             transform="translate(24)"
             id="g165">
            <g
               transform="translate(1,20)"
               id="g79"
               style="fill:#8b8b8b">
              <path
                 d="M 6.349,1.772 C 4.8116667,4.7826667 2.8626667,6.9093333 0.502,8.152 l 3.894,1.126 -4.019,3.378 3.051,0.085 -1.376,2.433 3.071,-0.641 -1.424,4.177 5.407,-1.014 -0.032,1.163 1.618,-0.682 C 9.334,4.2296667 7.8863333,-1.2386667 6.349,1.772 Z"
                 id="path75"
                 inkscape:connector-curvature="0" />
              <path
                 d="m 43.542,2.803 c 1.368,3.0913333 3.196333,5.323 5.485,6.695 l -3.951,0.908 3.826,3.596 -3.051,-0.085 1.239,2.507 -3.031,-0.811 1.191,4.249 -5.343,-1.311 -0.033,1.162 -1.578,-0.771 C 40.425333,5.0913333 42.174,-0.28833333 43.542,2.803 Z"
                 id="path77"
                 inkscape:connector-curvature="0" />
            </g>
            <g
               transform="translate(4)"
               id="g93">
              <g
                 id="g85">
                <path
                   d="M 3.771,16.258 C 1.0616667,10.042 -0.00466667,5.1513333 0.572,1.586 1.148,-1.9793333 6.644,0.466 17.06,8.922 L 3.771,16.258 Z"
                   id="path81"
                   inkscape:connector-curvature="0"
                   style="fill:#ebebeb" />
                <path
                   d="M 5.872,19.161 C 3.1626667,12.945 2.096,8.0543333 2.672,4.489 3.248,0.92366667 8.7443333,3.369 19.161,11.825 L 5.872,19.161 Z"
                   id="path83"
                   inkscape:connector-curvature="0"
                   style="fill:#464646" />
              </g>
              <g
                 transform="translate(25,1)"
                 id="g91">
                <path
                   d="M 15.427,16.275 C 18.476333,10.218333 19.812,5.3943333 19.434,1.803 19.056667,-1.789 13.433333,0.34766667 2.564,8.213 l 12.863,8.062 z"
                   id="path87"
                   inkscape:connector-curvature="0"
                   style="fill:#ebebeb" />
                <path
                   d="M 13.168,19.057 C 16.218,13.000333 17.554,8.1763333 17.176,4.585 16.798667,0.993 11.175333,3.1296667 0.306,10.995 l 12.862,8.062 z"
                   id="path89"
                   inkscape:connector-curvature="0"
                   style="fill:#464646" />
              </g>
            </g>
            <g
               transform="translate(0,2)"
               id="g103"
               style="fill:#ebebeb">
              <path
                 d="M 6.772,19.61 C 7.066,9.026 15.897,0.671 26.482,0.965 37.066,1.258 45.421,10.09 45.127,20.674 44.834,31.259 36.002,39.613 25.418,39.32 14.833,39.026 6.479,30.195 6.772,19.61 Z"
                 id="path95"
                 inkscape:connector-curvature="0" />
              <g
                 transform="translate(0,17)"
                 id="g101">
                <path
                   d="M 25.04,22.164 C 18.085333,22.629333 12.159667,21.350333 7.263,18.327 5.185,17.74 3.927,18.011 3.655,17.354 3.464,17.301 5.082,15.061 5.027,15.066 3.17,15.001 2.511,15.822 1.686,14.973 2.158,14.301667 2.5986667,13.631 3.008,12.961 3.151,12.727 0.299,13.124 0.435,12.89 0.789,12.279 4.133,10.134 4.435,9.524 6.091,6.177 6.94,3.75 7.032,0.437"
                   id="path97"
                   inkscape:connector-curvature="0" />
                <path
                   d="m 25.803,22.185 c 6.918667,0.85 12.906333,-0.09867 17.963,-2.846 2.107,-0.471 3.348,-0.13 3.656,-0.771 0.194,-0.043 -1.297,-2.369 -1.243,-2.361 1.858,0.038 2.471,0.895 3.342,0.093 -0.434,-0.696667 -0.837,-1.390667 -1.209,-2.082 -0.13,-0.242 2.695,0.313 2.573,0.071 C 50.566,13.66 47.346,11.333 47.078,10.707 45.609,7.274 44.896,4.803 44.988,1.489"
                   id="path99"
                   inkscape:connector-curvature="0" />
              </g>
            </g>
            <path
               d="m 27.655,28.296 c -3.125,-2.655 1.186,-11.308 5.544,-11.187 4.359,0.121 12.044,6.78 10.728,11.638 -0.817,3.014 -3.873,3.334 -6.772,3.011 -2.899,-0.322 -6.375,-0.806 -9.5,-3.462 z"
               id="path105"
               inkscape:connector-curvature="0"
               style="fill:#464646" />
            <g
               transform="translate(7,16)"
               id="g115">
              <path
                 d="M 17.015,12.195 C 20.282,9.717 16.458,0.839 12.099,0.718 7.741,0.597 -0.302,6.82 0.743,11.744 c 0.648,3.054 3.682,3.543 6.595,3.381 2.912,-0.161 6.41,-0.452 9.677,-2.93 z"
                 id="path107"
                 inkscape:connector-curvature="0"
                 style="fill:#464646" />
              <path
                 d="m 8.608,8.763 c 0.054,-1.924 1.66,-3.443 3.584,-3.39 1.924,0.054 3.443,1.659 3.39,3.584 -0.053,1.924 -1.659,3.443 -3.583,3.39 C 10.074,12.293 8.555,10.688 8.608,8.763 Z"
                 id="path109"
                 inkscape:connector-curvature="0"
                 style="fill:#ffffff" />
              <path
                 d="M 10.009,9.093 C 10.05,7.65 11.254,6.51 12.697,6.55 14.14,6.59 15.28,7.795 15.24,9.238 15.2,10.681 13.995,11.821 12.552,11.781 11.109,11.741 9.969,10.536 10.009,9.093 Z"
                 id="path111"
                 inkscape:connector-curvature="0"
                 style="fill:#000000" />
              <path
                 d="M 12.991,8.012 C 13.004,7.531 12.625,7.13 12.144,7.117 11.662,7.103 11.261,7.483 11.248,7.964 c -0.014,0.481 0.366,0.883 0.847,0.896 0.481,0.013 0.883,-0.366 0.896,-0.848 z"
                 id="path113"
                 inkscape:connector-curvature="0"
                 style="fill:#ffffff" />
            </g>
            <g
               transform="translate(20,13)"
               id="g121"
               style="fill:#464646">
              <path
                 d="M 0.342,4.043 C 1.712,4.077 2.6616667,3.0373333 3.191,0.924 3.513,3.496 3.178,5.086 2.186,5.694 L 0.342,4.043 Z"
                 id="path117"
                 inkscape:connector-curvature="0" />
              <path
                 d="M 11.831,4.362 C 10.461667,4.32 9.5713333,3.229 9.16,1.089 8.696,3.6396667 8.942,5.246 9.898,5.908 l 1.933,-1.546 z"
                 id="path119"
                 inkscape:connector-curvature="0" />
            </g>
            <path
               d="m 36.239,25.336 c 0.053,-1.925 -1.466,-3.531 -3.39,-3.584 -1.925,-0.053 -3.53,1.466 -3.584,3.39 -0.053,1.925 1.466,3.53 3.39,3.584 1.925,0.053 3.53,-1.466 3.584,-3.39 z"
               id="path123"
               inkscape:connector-curvature="0"
               style="fill:#ffffff" />
            <path
               d="m 34.822,25.587 c 0.04,-1.443 -1.1,-2.648 -2.543,-2.688 -1.443,-0.04 -2.648,1.1 -2.688,2.543 -0.04,1.443 1.1,2.648 2.543,2.688 1.443,0.04 2.648,-1.1 2.688,-2.543 z"
               id="path125"
               inkscape:connector-curvature="0"
               style="fill:#000000" />
            <path
               d="m 31.904,24.343 c 0.014,-0.481 0.415,-0.861 0.896,-0.848 0.481,0.014 0.861,0.415 0.848,0.896 -0.013,0.481 -0.415,0.861 -0.896,0.848 -0.481,-0.014 -0.861,-0.415 -0.848,-0.896 z"
               id="path127"
               inkscape:connector-curvature="0"
               style="fill:#ffffff" />
            <g
               transform="translate(22,33)"
               id="g133">
              <path
                 d="M 0.728,3.084 C 0.776,1.36 2.084,-0.005 3.647,0.039 5.211,0.082 6.442,1.517 6.394,3.241 6.346,4.965 5.038,6.329 3.474,6.286 1.911,6.242 0.68,4.808 0.728,3.084 Z"
                 id="path129"
                 inkscape:connector-curvature="0"
                 style="fill:#f9a9a9" />
              <path
                 d="M 3.502,5.269 3.611,1.346"
                 id="path131"
                 inkscape:connector-curvature="0"
                 style="fill:#000000;stroke:#f98383;stroke-width:5" />
            </g>
            <g
               transform="translate(15,31)"
               id="g139"
               style="fill:#d1d1d1">
              <path
                 d="M 9.979,3.853 C 10.031,1.992 12.384,0.546 15.23,0.625 18.077,0.704 20.346,2.278 20.294,4.139 20.243,5.999 17.89,7.446 15.043,7.367 12.197,7.288 9.928,5.713 9.979,3.853 Z"
                 id="path135"
                 inkscape:connector-curvature="0" />
              <path
                 d="M 0.899,3.601 C 0.951,1.74 3.303,0.294 6.15,0.373 8.997,0.452 11.266,2.027 11.214,3.887 11.163,5.747 8.81,7.194 5.963,7.115 3.116,7.036 0.847,5.461 0.899,3.601 Z"
                 id="path137"
                 inkscape:connector-curvature="0" />
            </g>
            <g
               transform="translate(15,32)"
               id="g145"
               style="stroke:#000000;stroke-width:0.42899999">
              <path
                 d="M 0.897,2.658 C 1.6636667,4.904 3.3676667,6.0176667 6.009,5.999 8.6503333,5.9803333 10.172333,5.1986667 10.575,3.654 L 10.66,0.603"
                 id="path141"
                 inkscape:connector-curvature="0" />
              <path
                 d="M 20.293,3.196 C 19.403,5.396 17.64,6.4133333 15.004,6.248 12.368,6.0833333 10.891667,5.2186667 10.575,3.654 L 10.66,0.603"
                 id="path143"
                 inkscape:connector-curvature="0" />
            </g>
            <g
               transform="translate(22,28)"
               id="g163">
              <path
                 d="M 0.374,2.476 C 0.406,1.353 1.928,0.484 3.772,0.535 5.617,0.586 7.089,1.539 7.058,2.661 7.026,3.784 5.504,4.654 3.66,4.603 1.815,4.552 0.343,3.599 0.374,2.476 Z"
                 id="path147"
                 inkscape:connector-curvature="0"
                 style="fill:#464646" />
              <g
                 transform="translate(1,2)"
                 id="g161"
                 style="stroke:#000000">
                <g
                   id="g153">
                  <path
                     d="M 2.587,2.601 2.611,1.729 C 2.619,1.1476667 2.3366667,0.849 1.764,0.833 1.1906667,0.817 0.89333333,1.051 0.872,1.535 1.026,1.8063333 1.3136667,1.9113333 1.735,1.85"
                     id="path149"
                     inkscape:connector-curvature="0" />
                  <path
                     d="M 0.872,1.535 C 0.878,1.295 1.144,1.107 1.465,1.116 1.786,1.125 2.041,1.327 2.034,1.568 2.027,1.808 1.762,1.996 1.441,1.987 1.12,1.978 0.865,1.776 0.872,1.535 Z"
                     id="path151"
                     inkscape:connector-curvature="0"
                     style="fill:#000000" />
                </g>
                <g
                   transform="translate(2)"
                   id="g159">
                  <path
                     d="M 0.732,2.605 0.756,1.733 C 0.78066667,1.1523333 1.0793333,0.86966667 1.652,0.885 2.2253333,0.901 2.5093333,1.1513333 2.504,1.636 2.3353333,1.898 2.042,1.9866667 1.624,1.902"
                     id="path155"
                     inkscape:connector-curvature="0" />
                  <path
                     d="M 2.504,1.636 C 2.511,1.396 2.256,1.193 1.935,1.184 1.614,1.175 1.348,1.363 1.342,1.604 1.335,1.844 1.59,2.047 1.911,2.056 2.231,2.065 2.497,1.877 2.504,1.636 Z"
                     id="path157"
                     inkscape:connector-curvature="0"
                     style="fill:#000000" />
                </g>
              </g>
            </g>
          </g>
          <path
             d="m 61.664,54.107 v 0 l -1.437,-10.625 8.514,2.192 c 0.463,0.322 0.925,0.653 1.381,0.987 0.423,0.312 0.841,0.632 1.254,0.957 0.728,0.572 1.441,1.167 2.13,1.785 0.659,0.589 1.293,1.203 1.905,1.839 0.587,0.61 1.145,1.246 1.675,1.905 0.513,0.638 0.991,1.303 1.434,1.992 0.433,0.676 0.825,1.376 1.172,2.098 0.343,0.714 0.636,1.451 0.876,2.206 0.485,1.515 0.721,3.097 0.702,4.688 -0.02,1.242 -0.201,2.477 -0.535,3.674 -0.335,1.19 -0.805,2.339 -1.4,3.423 -0.603,1.098 -0.019,0.429 -0.815,1.398 -3.208,2.463 -2.145,1.787 -3.109,2.668 h -2.869 l -4.922,-3.489 1.463,-3.284 c 0.602,-0.55 -0.301,-0.064 0.214,-0.694 0.394,-0.48 0.743,-0.995 1.042,-1.539 0.22,-0.398 0.392,-0.819 0.516,-1.256 0.094,-0.341 0.145,-0.694 0.153,-1.047 0.005,-0.484 -0.069,-0.964 -0.217,-1.426 -0.095,-0.3 -0.211,-0.591 -0.347,-0.875 -0.166,-0.344 -0.351,-0.677 -0.558,-0.997 -0.246,-0.386 -0.515,-0.759 -0.803,-1.116 -0.338,-0.421 -0.695,-0.828 -1.071,-1.218 -0.431,-0.451 -0.88,-0.884 -1.346,-1.301 -0.53,-0.472 -1.074,-0.927 -1.632,-1.367 -0.33,-0.258 -0.665,-0.515 -1.004,-0.763 -0.375,-0.277 -1.982,-0.55 -2.366,-0.815 z"
             id="path167"
             inkscape:connector-curvature="0"
             style="fill:#e8e8e8" />
          <path
             d="m 29.335,68.11 2.98,5.952 -4.016,5.462 -7.108,-7.104 c -0.677,-0.718 -0.864,-0.305 -1.465,-1.089 -0.538,-0.702 0.431,0.763 -0.019,0 -0.402,-0.68 -0.761,-1.384 -1.075,-2.108 -0.3,-0.686 -0.552,-1.392 -0.753,-2.112 -0.226,-0.805 -0.384,-1.626 -0.474,-2.455 -0.091,-0.819 -0.109,-1.642 -0.056,-2.463 0.054,-0.823 0.179,-1.641 0.374,-2.444 0.197,-0.819 0.462,-1.621 0.79,-2.397 0.123,-0.289 0.252,-0.575 0.392,-0.856 0.142,-0.287 0.289,-0.568 0.447,-0.848 0.119,-0.215 0.245,-0.426 0.374,-0.636 0.131,-0.213 0.267,-0.425 0.406,-0.634 0.478,-0.712 1,-1.396 1.562,-2.044 0.62,-0.718 1.279,-1.402 1.97,-2.052 0.247,-0.232 0.497,-0.46 0.752,-0.684 0.264,-0.234 0.535,-0.464 0.808,-0.69 0.854,-0.708 1.739,-1.377 2.652,-2.009 1.069,-0.739 4.718,-2.344 5.837,-3.007 l 4.964,-0.615 -1.436,10.348 h -0.852 c -0.911,0.54 -1.804,1.112 -2.676,1.716 -0.671,0.463 -1.322,0.956 -1.95,1.475 -0.193,0.158 -0.382,0.32 -0.568,0.485 -0.169,0.149 -0.337,0.301 -0.501,0.455 -0.435,0.411 -0.85,0.842 -1.24,1.293 -0.287,0.333 -0.554,0.682 -0.798,1.045 -0.066,0.098 -0.132,0.199 -0.193,0.3 -0.056,0.092 -0.111,0.184 -0.164,0.279 -0.066,0.115 -0.128,0.234 -0.187,0.355 -0.051,0.104 -0.101,0.213 -0.146,0.322 -0.113,0.265 -0.203,0.538 -0.271,0.817 -0.055,0.226 -0.09,0.457 -0.104,0.689 -0.015,0.23 -0.011,0.46 0.014,0.688 0.029,0.269 0.082,0.536 0.154,0.796 0.076,0.267 0.168,0.528 0.279,0.78 0.148,0.343 0.318,0.675 0.507,0.996 0.24,0.406 0.503,0.798 0.79,1.171 0.392,0.509 -0.439,0.356 0,0.823 z"
             id="path169"
             inkscape:connector-curvature="0"
             style="fill:#e8e8e8" />
        </g>
        <g
           id="Group-2"
           transform="translate(5,53)">
          <g
             id="Group"
             transform="translate(0.469405,0.36686)">
            <ellipse
               id="Oval"
               cx="46.180882"
               cy="15.1248"
               rx="42.7411"
               ry="11.110406"
               style="fill:#131010" />
            <ellipse
               id="ellipse174"
               cx="46.180882"
               cy="16.018959"
               rx="46.180882"
               ry="12.004565"
               style="fill:#484444" />
            <ellipse
               id="ellipse176"
               cx="46.180882"
               cy="15.1248"
               rx="42.7411"
               ry="11.110406"
               style="fill:#131010" />
            <g
               transform="translate(6.349871)"
               id="g184">
              <path
                 d="M 40.941659,23.432451 C 56.312966,23.169752 65.365573,20.93391 67.900326,20.059969 75.766084,17.991945 81.062454,11.745271 79.13902,9.7785816 78.626412,7.8699832 74.070669,5.7206316 72.742391,5.1539257 70.952882,4.3910027 65.279561,2.1913059 60.616446,1.6007183 57.016647,0.92170393 44.171435,0.37629789 42.258392,0.37629789 21.001333,0.42083401 10.993936,2.4817588 3.5016653,7.1845143 -1.1666445,10.114862 0.22397727,16.001374 0.66846824,16.285372 1.6376895,16.906296 2.9936756,19.862461 13.58757,21.97825 c 10.641229,1.232811 19.767148,1.583936 27.354089,1.454201 z"
                 id="path178"
                 inkscape:connector-curvature="0"
                 style="fill:#ecc46d" />
              <path
                 d="m 54.432249,1.7091541 c 1.63134,0 -7.125132,-0.6628781 -15.51158,-0.3169164 C 30.534798,1.7388448 25.574972,2.1506425 22.387914,2.5669584 19.200856,2.9839196 17.401533,2.7560755 13.58757,3.788797 9.7730288,4.8215184 5.6144405,6.5145362 5.2045852,7.6098665 4.7947299,8.7045513 1.2082073,10.823567 2.7893252,11.794325 c 1.5816951,0.971404 0.1720238,2.756075 1.300569,3.301481 1.1285453,0.545406 2.2634404,2.259724 6.7805078,2.677331 4.517067,0.417607 8.172284,1.44581 13.653955,1.702054 5.481093,0.256889 6.463591,0.445361 12.910442,0.247208 4.297901,-0.132103 3.121443,-0.214505 -3.529374,-0.247208 -6.281369,-0.21472 -10.585043,-0.452892 -12.91102,-0.714514 -3.488388,-0.392434 -8.174593,-1.327047 -9.009312,-1.689791 -0.834719,-0.362743 -5.2282529,-1.004967 -5.9446338,-2.832884 -0.7163809,-1.827917 -2.567657,-3.326654 0,-4.444575 C 8.6081161,8.6748605 8.3870252,7.94421 9.662772,7.0347697 10.938519,6.1259748 6.0670132,7.1728962 13.58757,5.4785875 21.107549,3.7842788 21.043473,3.2175729 27.960791,2.5669584 34.87811,1.9163438 33.218485,1.5613458 38.920669,1.7091541 c 5.702761,0.1478082 13.880241,6.454e-4 15.51158,0 z"
                 id="path180"
                 inkscape:connector-curvature="0"
                 style="fill:#e19f53" />
              <path
                 d="m 71.429699,5.8548854 c 1.794128,0.5034517 6.437038,1.6955996 5.015821,2.5585675 -1.420639,0.8623224 -1.129122,3.1498001 -1.857625,3.4512261 -0.728504,0.301426 -2.197633,1.28832 -3.158196,1.620727 -0.959985,0.331762 -0.484321,0.557024 -3.529373,1.379974 -3.045052,0.823596 -2.991944,1.092103 -6.037573,1.247012 -3.045052,0.154908 1.624412,-0.315626 2.043504,-0.506679 0.419669,-0.191699 2.907663,-1.135349 3.994069,-1.351575 1.086405,-0.216226 3.459525,-1.023039 4.179947,-1.762081 0.719844,-0.739041 2.812415,-1.222484 2.507622,-1.737554 -0.304794,-0.515069 1.470283,-2.3191048 0,-2.9445467 C 73.118188,7.1838689 69.63615,5.3514337 71.429699,5.8548854 Z"
                 id="path182"
                 inkscape:connector-curvature="0"
                 style="fill:#e19f53" />
            </g>
          </g>
          <g
             id="g261"
             transform="translate(7.973798,2.303213)">
            <path
               d="m 30.700425,15.76248 c 8.946445,0.07714 9.745746,-0.429163 12.700842,0 2.955096,0.429163 5.378233,1.46318 7.615185,0.374089 2.236271,-1.089253 -2.236952,-0.825153 3.727799,-1.441279 5.96407,-0.616127 7.641102,0.616126 10.809663,-0.880227 3.168561,-1.496354 -0.492403,0.270542 3.575031,-1.955147 4.066752,-2.2258502 9.28608,-2.6218396 6.862943,-3.2820902 C 73.56875,7.9177361 75.33717,8.7098759 73.986814,7.4776227 72.637141,6.2453695 76.737311,6.8614961 73.009512,5.5852799 69.281713,4.3089026 71.331798,5.2382457 65.553914,3.4972774 59.77603,1.7563091 63.690696,2.0643724 54.744251,1.3161957 45.797125,0.56801899 52.933548,0.20745771 43.401267,0.45384393 33.868986,0.70006912 39.273817,0.34804279 30.700425,1.0081324 22.126351,1.6683831 25.294912,0.83211925 18.585419,1.9323223 11.875245,3.0326864 14.298382,1.5854492 10.384398,3.4972774 6.4704135,5.4091057 9.2659218,4.0448024 6.4704135,5.5852799 3.6749053,7.1255964 4.047276,6.3334566 4.047276,8.0058232 c 0,1.6723667 -7.1718871,1.8044168 -2.3740338,3.1687198 4.7971713,1.364304 3.8648806,0.455412 6.2880181,1.569948 1.6154251,0.74313 3.0833117,1.268701 4.4036587,1.57671 6.259374,0.909428 12.37121,1.389855 18.335506,1.441279 z"
               id="path187"
               inkscape:connector-curvature="0"
               style="fill:#417505" />
            <path
               d="m 22.126351,14.69529 c -1.117794,-0.219976 -8.899387,0.308063 -9.761432,-0.704214 -0.862045,-1.012116 1.561093,-0.572002 -1.421283,-1.496353 -2.9823757,-0.92419 -3.3547464,-0.66009 -4.4732225,-1.58428 -1.1184761,-0.9241898 -1.3046614,-3.3007702 0,-2.3765803 1.3046615,0.9241899 -1.8638995,0.1760132 1.1184761,1.4084274 2.9816934,1.2322529 4.1472274,0.4905179 4.7760294,1.5435369 0.628802,1.05302 -3.171289,0.656869 2.269688,1.581059 5.441659,0.92419 6.746321,0.220137 9.169458,0.92419 2.423138,0.704214 -0.559238,0.92419 -1.677714,0.704214 z"
               id="path189"
               inkscape:connector-curvature="0"
               style="fill:#365f06" />
            <path
               d="m 63.973043,12.051066 c 0.559238,-0.289222 3.98082,-1.345462 4.879693,-1.917625 0.898191,-0.5721638 -1.085058,0.39615 0,-1.1002033 1.085058,-1.4963535 3.718251,-1.980591 2.588181,-2.4646674 C 70.310165,6.0844938 70.936239,5.8155624 68.852736,5.4219886 66.769234,5.0282538 70.497033,5.4244042 65.277705,4.5002143 60.059059,3.5758634 59.981311,2.2556841 59.274762,2.7397606 c -0.70655,0.4840764 -4.139726,0.049116 0,0.9488285 4.139043,0.8995512 6.749048,1.4668837 7.307604,1.7333995 0.559238,0.2663548 -2.23627,-0.7017981 0,0.9045434 2.236952,1.6063416 3.421582,0.6821517 2.27037,1.8704418 -1.151894,1.1882902 0.525821,1.1882902 -2.27037,1.9364672 -2.795508,0.748177 0.373053,0.616126 -2.609323,1.32034 -2.981693,0.704053 2.225359,1.115502 -2.428593,1.482021 -4.653952,0.366359 -6.036361,1.070573 -2.269688,0.762509 3.766673,-0.308224 6.562181,0.0153 6.002943,-0.762509 -0.558556,-0.777968 -1.8639,-0.595353 -1.304662,-0.884736 z"
               id="path191"
               inkscape:connector-curvature="0"
               style="fill:#355f05" />
            <path
               d="M 34.241357,1.6683831 C 28.649886,1.638967 25.108727,1.7856715 23.61788,2.1084965 21.380928,2.592573 14.484568,2.5484489 18.771605,2.8566732 c 4.287037,0.3080633 2.050085,0.4399524 6.337122,0 4.287037,-0.4401134 1.490846,-0.5721635 6.523307,-0.7481767 5.03246,-0.1761742 9.319498,-0.7042137 2.609323,-0.4401134 z"
               id="path193"
               inkscape:connector-curvature="0"
               style="fill:#365f06" />
            <path
               d="m 49.524924,16.136569 c 1.118476,-0.341076 -0.745424,-0.120939 0,-0.64914 0.745423,-0.528039 1.491528,-1.276216 0,-0.792139 -1.490847,0.484076 -1.117794,1.782193 0,1.441279 z"
               id="path195"
               inkscape:connector-curvature="0"
               style="fill:#365f06" />
            <g
               transform="translate(11.869107,5.507848)"
               id="g205">
              <path
                 d="m 8.3353281,3.2461521 c -0.027993,-0.1011235 1.8607369,0.129663 2.9109969,0.1673733 1.261082,0.04528 2.183566,0 2.183566,0 -0.02854,-0.060497 0.788102,-0.4995924 0,-0.6156401 -0.531837,-0.078313 -1.37279,-0.1642587 -2.183566,-0.2158774 -0.958939,-0.061052 -1.853496,-0.087169 -1.827256,-0.1830984 0.062219,-0.2274652 0.2692486,-0.3636807 0,-0.4654216 C 8.4867782,1.5813006 6.9792113,1.0665293 4.963864,1.3424072 2.9485167,1.618285 3.3247384,1.4494115 1.5904184,1.933488 c -1.73431993,0.4840764 -1.11779404,0.3884741 1e-7,1.312664 0.7456507,0.6161266 2.1746631,0.8508108 4.287037,0.7040527 0,0 2.5042048,-0.5366793 2.4578726,-0.7040526 z"
                 id="path197"
                 inkscape:connector-curvature="0"
                 style="fill:#d6d6d6" />
              <path
                 d="m 7.5064405,3.1884235 c -1.0245811,0.1625953 -1.0233711,-0.077137 -1.628985,0 -0.4037426,0.051317 -1.708404,0.534451 -2.7955082,0.585768 l 1.6321826,0 C 5.0246662,3.8329163 6.054899,3.6301864 6.551848,3.4541196 7.2972714,3.1900193 8.5310216,3.0258282 7.5064405,3.1884235 Z"
                 id="path199"
                 inkscape:connector-curvature="0"
                 style="fill:#9b9b9b" />
              <path
                 d="m 11.505713,3.0958689 c -0.403743,0.051317 -0.888624,0.059081 -1.9757286,0.1103982 l 1.9757286,0.1510506 c 0.310536,0.058725 0.749162,0.025016 1.246111,-0.1510506 0.745423,-0.2641003 -0.640497,-0.1875348 -1.246111,-0.1103982 z"
                 id="path201"
                 inkscape:connector-curvature="0"
                 style="opacity:0.40262685;fill:#9a9a85" />
              <path
                 d="m 8.6681931,1.7550365 c -0.4037426,0.051317 -1.708404,0.534451 -2.7955083,0.5857681 l 1.6517483,-10e-8 c 0.3105363,0.058725 0.6468111,-0.1239526 1.14376,-0.3000195 0.7454234,-0.2641002 0.6056139,-0.3628851 0,-0.2857485 z"
                 transform="matrix(0.7313537,0.68199836,0.68199836,-0.7313537,0.62175811,-1.5784249)"
                 id="path203"
                 inkscape:connector-curvature="0"
                 style="fill:#9b9b9b" />
            </g>
            <g
               id="Group-Copy"
               transform="rotate(17,12.076422,102.66207)">
              <path
                 d="m 6.1437454,2.6849234 c -0.020633,-0.074536 1.3714993,0.095571 2.145617,0.1233663 0.9295094,0.033375 1.6094477,0 1.6094477,0 -0.021034,-0.04459 0.5808889,-0.3682361 0,-0.4537717 C 9.5068078,2.2967958 8.8869636,2.2334473 8.2893624,2.1954006 c -0.706808,-0.045 -1.3661616,-0.06425 -1.3468209,-0.1349569 0.04586,-0.1676585 0.198456,-0.2680593 0,-0.3430497 C 6.2553752,1.4578062 5.1441883,1.0783822 3.6587302,1.2817243 2.1732721,1.4850665 2.450575,1.3605943 1.1722545,1.717394 c -1.27832044,0.3567998 -0.82389584,0.2863339 0,0.9675293 0.5495991,0.4541303 1.6028855,0.6271097 3.1598594,0.5189382 0,0 1.8457817,-0.3955718 1.8116315,-0.5189381 z"
                 id="path207"
                 inkscape:connector-curvature="0"
                 style="fill:#d6d6d6" />
              <path
                 d="m 5.5327947,2.6423732 c -0.7551911,0.1198446 -0.7542992,-0.056855 -1.2006809,0 C 4.0345261,2.6801976 3.0728953,3.0363026 2.2716202,3.074127 l 1.2030378,0 C 3.7035459,3.1174114 4.4629027,2.9679847 4.8291903,2.8382106 5.3786218,2.6435494 6.2879858,2.5225286 5.5327947,2.6423732 Z"
                 id="path209"
                 inkscape:connector-curvature="0"
                 style="fill:#9b9b9b" />
              <path
                 d="m 8.4805505,2.5741537 c -0.2975878,0.037824 -0.654981,0.043547 -1.4562562,0.081371 L 8.4805505,2.7668605 C 8.7094383,2.8101449 9.0327375,2.7852993 9.3990252,2.6555252 9.9484566,2.460864 8.9269321,2.5172984 8.4805505,2.5741537 Z"
                 id="path211"
                 inkscape:connector-curvature="0"
                 style="opacity:0.40262685;fill:#9a9a85" />
              <path
                 d="M 6.4466847,1.4389513 C 6.1490969,1.4767757 5.1874662,1.8328807 4.386191,1.8707052 l 1.2174591,-1e-7 C 5.832538,1.9139896 6.080397,1.779343 6.4466847,1.6495689 c 0.5494315,-0.1946612 0.4463816,-0.2674729 0,-0.2106176 z"
                 id="path213"
                 transform="matrix(0.7313537,0.68199836,0.68199836,-0.7313537,0.31674693,-0.80410894)"
                 inkscape:connector-curvature="0"
                 style="fill:#9b9b9b" />
            </g>
            <g
               id="Group-Copy-2"
               transform="rotate(177,28.124873,3.7943424)">
              <path
                 d="m 6.1437454,2.6849234 c -0.020633,-0.074536 1.3714993,0.095571 2.145617,0.1233663 0.9295094,0.033375 1.6094477,0 1.6094477,0 -0.021034,-0.04459 0.5808889,-0.3682361 0,-0.4537717 C 9.5068078,2.2967958 8.8869636,2.2334473 8.2893624,2.1954006 c -0.706808,-0.045 -1.3661616,-0.06425 -1.3468209,-0.1349569 0.04586,-0.1676585 0.198456,-0.2680593 0,-0.3430497 C 6.2553752,1.4578062 5.1441883,1.0783822 3.6587302,1.2817243 2.1732721,1.4850665 2.450575,1.3605943 1.1722545,1.717394 c -1.27832044,0.3567998 -0.82389584,0.2863339 0,0.9675293 0.5495991,0.4541303 1.6028855,0.6271097 3.1598594,0.5189382 0,0 1.8457817,-0.3955718 1.8116315,-0.5189381 z"
                 id="path216"
                 inkscape:connector-curvature="0"
                 style="fill:#d6d6d6" />
              <path
                 d="m 5.5327947,2.6423732 c -0.7551911,0.1198446 -0.7542992,-0.056855 -1.2006809,0 C 4.0345261,2.6801976 3.0728953,3.0363026 2.2716202,3.074127 l 1.2030378,0 C 3.7035459,3.1174114 4.4629027,2.9679847 4.8291903,2.8382106 5.3786218,2.6435494 6.2879858,2.5225286 5.5327947,2.6423732 Z"
                 id="path218"
                 inkscape:connector-curvature="0"
                 style="fill:#9b9b9b" />
              <path
                 d="m 8.4805505,2.5741537 c -0.2975878,0.037824 -0.654981,0.043547 -1.4562562,0.081371 L 8.4805505,2.7668605 C 8.7094383,2.8101449 9.0327375,2.7852993 9.3990252,2.6555252 9.9484566,2.460864 8.9269321,2.5172984 8.4805505,2.5741537 Z"
                 id="path220"
                 inkscape:connector-curvature="0"
                 style="opacity:0.40262685;fill:#9a9a85" />
              <path
                 d="M 6.4466847,1.4389513 C 6.1490969,1.4767757 5.1874662,1.8328807 4.386191,1.8707052 l 1.2174591,-1e-7 C 5.832538,1.9139896 6.080397,1.779343 6.4466847,1.6495689 c 0.5494315,-0.1946612 0.4463816,-0.2674729 0,-0.2106176 z"
                 id="path222"
                 transform="matrix(0.7313537,0.68199836,0.68199836,-0.7313537,0.31674693,-0.80410894)"
                 inkscape:connector-curvature="0"
                 style="fill:#9b9b9b" />
            </g>
            <g
               id="Group-Copy-3"
               transform="rotate(-11,65.770075,-190.76958)">
              <path
                 d="m 6.1437454,2.6849234 c -0.020633,-0.074536 1.3714993,0.095571 2.145617,0.1233663 0.9295094,0.033375 1.6094477,0 1.6094477,0 -0.021034,-0.04459 0.5808889,-0.3682361 0,-0.4537717 C 9.5068078,2.2967958 8.8869636,2.2334473 8.2893624,2.1954006 c -0.706808,-0.045 -1.3661616,-0.06425 -1.3468209,-0.1349569 0.04586,-0.1676585 0.198456,-0.2680593 0,-0.3430497 C 6.2553752,1.4578062 5.1441883,1.0783822 3.6587302,1.2817243 2.1732721,1.4850665 2.450575,1.3605943 1.1722545,1.717394 c -1.27832044,0.3567998 -0.82389584,0.2863339 0,0.9675293 0.5495991,0.4541303 1.6028855,0.6271097 3.1598594,0.5189382 0,0 1.8457817,-0.3955718 1.8116315,-0.5189381 z"
                 id="path225"
                 inkscape:connector-curvature="0"
                 style="fill:#d6d6d6" />
              <path
                 d="m 5.5327947,2.6423732 c -0.7551911,0.1198446 -0.7542992,-0.056855 -1.2006809,0 C 4.0345261,2.6801976 3.0728953,3.0363026 2.2716202,3.074127 l 1.2030378,0 C 3.7035459,3.1174114 4.4629027,2.9679847 4.8291903,2.8382106 5.3786218,2.6435494 6.2879858,2.5225286 5.5327947,2.6423732 Z"
                 id="path227"
                 inkscape:connector-curvature="0"
                 style="fill:#9b9b9b" />
              <path
                 d="m 8.4805505,2.5741537 c -0.2975878,0.037824 -0.654981,0.043547 -1.4562562,0.081371 L 8.4805505,2.7668605 C 8.7094383,2.8101449 9.0327375,2.7852993 9.3990252,2.6555252 9.9484566,2.460864 8.9269321,2.5172984 8.4805505,2.5741537 Z"
                 id="path229"
                 inkscape:connector-curvature="0"
                 style="opacity:0.40262685;fill:#9a9a85" />
              <path
                 d="M 6.4466847,1.4389513 C 6.1490969,1.4767757 5.1874662,1.8328807 4.386191,1.8707052 l 1.2174591,-1e-7 C 5.832538,1.9139896 6.080397,1.779343 6.4466847,1.6495689 c 0.5494315,-0.1946612 0.4463816,-0.2674729 0,-0.2106176 z"
                 id="path231"
                 transform="matrix(0.7313537,0.68199836,0.68199836,-0.7313537,0.31674693,-0.80410894)"
                 inkscape:connector-curvature="0"
                 style="fill:#9b9b9b" />
            </g>
            <g
               id="Group-Copy-6"
               transform="rotate(164,17.676734,7.1612973)">
              <path
                 d="m 4.8797896,2.1887862 c -0.016388,-0.051031 1.08934,0.065433 1.7041981,0.084463 0.738281,0.02285 1.2783352,0 1.2783352,0 -0.016706,-0.030529 0.4613821,-0.2521146 0,-0.3106769 C 7.5509674,1.9230529 7.0586441,1.8796811 6.5839877,1.8536322 6.0225917,1.8228231 5.4988872,1.8096431 5.514249,1.7612333 c 0.036425,-0.1147881 0.1576275,-0.183528 0,-0.2348705 C 4.9684537,1.3486348 4.0858719,1.0888604 2.9060178,1.2280795 1.7261637,1.3672987 1.9464169,1.2820783 0.931086,1.5263628 c -1.01533094,0.2442846 -0.65439534,0.1960398 1e-8,0.6624234 0.43652979,0.3109224 1.27312309,0.4293535 2.50977989,0.3552934 0,0 1.4660481,-0.27083 1.4389237,-0.3552934 z"
                 id="path234"
                 inkscape:connector-curvature="0"
                 style="fill:#d6d6d6" />
              <path
                 d="m 4.3945301,2.159654 c -0.5998253,0.082052 -0.5991169,-0.038926 -0.9536642,0 C 3.204501,2.1855507 2.440707,2.4293596 1.8042786,2.4552563 l 0.9555362,0 C 2.9416135,2.4848911 3.5447475,2.3825855 3.8356786,2.293735 4.2720752,2.1604594 4.9943553,2.0776019 4.3945301,2.159654 Z"
                 id="path236"
                 inkscape:connector-curvature="0"
                 style="fill:#9b9b9b" />
              <path
                 d="M 6.7358425,2.1129472 C 6.4994776,2.1388439 6.2156111,2.142762 5.5791827,2.1686586 l 1.1566598,0.076226 C 6.9176412,2.2745198 7.1744279,2.2575091 7.465359,2.1686586 7.9017556,2.035383 7.0903899,2.074021 6.7358425,2.1129472 Z"
                 id="path238"
                 inkscape:connector-curvature="0"
                 style="opacity:0.40262685;fill:#9a9a85" />
              <path
                 d="M 5.2072715,1.1595259 C 4.9709067,1.1854225 4.2071127,1.4292315 3.5706843,1.4551281 h 0.9669906 c 0.1817986,0.029635 0.3786655,-0.062552 0.6695966,-0.151402 0.4363967,-0.1332756 0.3545474,-0.1831265 0,-0.1442002 z"
                 id="path240"
                 transform="matrix(0.7313537,0.68199836,0.68199836,-0.7313537,0.21690598,-0.5506479)"
                 inkscape:connector-curvature="0"
                 style="fill:#9b9b9b" />
            </g>
            <g
               id="Group-Copy-4"
               transform="rotate(-12,63.189127,-230.66333)">
              <path
                 d="m 8.9879581,3.6386293 c -0.032123,-0.1273462 2.1352919,0.1632862 3.3405189,0.2107753 1.447156,0.057022 2.505755,0 2.505755,0 -0.03275,-0.076184 0.904387,-0.6291431 0,-0.7752834 -0.61031,-0.09862 -1.575348,-0.2068531 -2.505755,-0.2718572 -1.100432,-0.076883 -2.126982,-0.1097732 -2.09687,-0.2305781 0.0714,-0.2864498 0.308976,-0.4579878 0,-0.5861113 C 9.1617549,1.5420606 7.4317441,0.89380257 5.1190291,1.2412191 2.8063141,1.5886356 3.2380479,1.375971 1.2478262,1.9855746 c -1.99022164,0.6096037 -1.28272637,0.4892105 0,1.6530546 0.8556727,0.775896 2.4955382,1.0714369 4.9195963,0.8866225 0,0 2.8737041,-0.6758471 2.8205356,-0.8866224 z"
                 id="path243"
                 inkscape:connector-curvature="0"
                 style="fill:#d6d6d6" />
              <path
                 d="m 8.0367668,3.5659309 c -1.1757597,0.2047583 -1.1743711,-0.097139 -1.8693443,0 -0.4633155,0.064624 -1.9604818,0.6730409 -3.20799,0.7376651 l 1.8730139,1e-7 C 5.1888027,4.3775489 6.3710481,4.1222486 6.9413226,3.9005254 7.7967344,3.5679406 9.2125265,3.3611726 8.0367668,3.5659309 Z"
                 id="path245"
                 inkscape:connector-curvature="0"
                 style="fill:#9b9b9b" />
              <path
                 d="m 12.626138,3.4493757 c -0.463315,0.064624 -1.019742,0.074402 -2.26725,0.1390259 l 2.26725,0.1902199 c 0.356357,0.073953 0.859702,0.031503 1.429977,-0.1902199 0.855412,-0.3325848 -0.735004,-0.236165 -1.429977,-0.1390259 z"
                 id="path247"
                 inkscape:connector-curvature="0"
                 style="opacity:0.40262685;fill:#9a9a85" />
              <path
                 d="m 9.3618903,1.7859165 c -0.4633155,0.064624 -1.9604818,0.6730409 -3.20799,0.7376651 l 1.8954664,0 c 0.3563564,0.073953 0.7422491,-0.1560952 1.3125236,-0.3778184 0.8554117,-0.3325848 0.6949737,-0.4569858 0,-0.3598467 z"
                 id="path249"
                 transform="matrix(0.7313537,0.68199836,0.68199836,-0.7313537,0.6990258,-1.7745804)"
                 inkscape:connector-curvature="0"
                 style="fill:#9b9b9b" />
            </g>
            <g
               id="Group-Copy-5"
               transform="rotate(-176,18.708092,6.9507501)">
              <path
                 d="m 7.3184848,2.4889905 c -0.024578,-0.095831 1.6337423,0.1228772 2.5558782,0.1586139 1.10724,0.04291 1.917189,0 1.917189,0 -0.02506,-0.05733 0.691959,-0.4734464 0,-0.5834207 C 11.324595,1.9899694 10.586231,1.9085214 9.874363,1.8596041 9.032407,1.8017476 8.2469791,1.7769969 8.270018,1.6860881 c 0.054629,-0.2155609 0.2364024,-0.3446476 0,-0.4410638 C 7.4514592,0.91126854 6.1278034,0.42343765 4.3583123,0.68487754 2.5888213,0.94631743 2.9191469,0.78628183 1.3964001,1.2450243 c -1.5227468,0.4587425 -0.98143213,0.3681435 0,1.2439662 0.6546874,0.5838818 1.9093717,0.8062839 3.7640529,0.6672063 0,0 2.1987118,-0.5085924 2.1580318,-0.6672063 z"
                 id="path252"
                 inkscape:connector-curvature="0"
                 style="fill:#d6d6d6" />
              <path
                 d="m 6.5907148,2.4342831 c -0.8995904,0.1540859 -0.898528,-0.0731 -1.4302618,0 -0.3544892,0.048631 -1.4999924,0.5064807 -2.4544786,0.5551121 l 1.4330694,0 C 4.4116971,3.0450466 5.3162498,2.8529266 5.752575,2.6860741 6.4070627,2.4357955 7.4903052,2.2801972 6.5907148,2.4342831 Z"
                 id="path254"
                 inkscape:connector-curvature="0"
                 style="fill:#9b9b9b" />
              <path
                 d="M 10.102108,2.3465724 C 9.7476188,2.3952037 9.3218888,2.4025615 8.3674026,2.4511929 l 1.7347054,0.1431454 c 0.272653,0.055651 0.65777,0.023707 1.094095,-0.1431454 0.654488,-0.2502786 -0.562361,-0.1777202 -1.094095,-0.1046205 z"
                 id="path256"
                 inkscape:connector-curvature="0"
                 style="opacity:0.40262685;fill:#9a9a85" />
              <path
                 d="M 7.6215333,1.0466699 C 7.267044,1.0953013 6.1215409,1.5531506 5.1670547,1.601782 l 1.4502482,0 c 0.2726533,0.055651 0.5679052,-0.1174657 1.0042304,-0.2843181 0.6544877,-0.2502787 0.5317338,-0.34389364 0,-0.270794 z"
                 id="path258"
                 transform="matrix(0.7313537,0.68199836,0.68199836,-0.7313537,0.86025634,-2.183888)"
                 inkscape:connector-curvature="0"
                 style="fill:#9b9b9b" />
            </g>
          </g>
        </g>
        <path
           d="m 78.131,81.783 c 5.222,-2.271333 4.505333,-4.557333 -2.15,-6.858 -2.823333,-2.536667 -5.332667,-3.901333 -7.528,-4.094 2.192,1.709333 3.586333,3.093667 4.183,4.153 -6.316,0.198667 -10.349667,-0.787333 -12.101,-2.958 0.988,2.918 3.791667,5.022333 8.411,6.313 -4.604,-0.558667 -7.611333,-1.585667 -9.022,-3.081 2.536667,3.956 5.522667,5.896 8.958,5.82 -3.907333,0.150667 -6.744,-0.542667 -8.51,-2.08 3.773333,4.774667 9.140667,5.919667 16.102,3.435 0.606,-0.217 1.158,-0.433 1.657,-0.65 z"
           id="path264"
           inkscape:connector-curvature="0"
           style="fill:#464646" />
        <path
           d="m 27.945,83.014 c -5.222,-2.271333 -4.505333,-4.557333 2.15,-6.858 2.823333,-2.536667 5.332333,-3.901 7.527,-4.093 -2.191333,1.709333 -3.585333,3.093333 -4.182,4.152 6.316,0.199333 10.349667,-0.786333 12.101,-2.957 -0.988,2.917333 -3.792,5.021667 -8.412,6.313 4.604667,-0.559333 7.612333,-1.586667 9.023,-3.082 -2.536667,3.956 -5.523,5.896 -8.959,5.82 3.908,0.150667 6.745,-0.542667 8.511,-2.08 -3.773333,4.774667 -9.140667,5.919667 -16.102,3.435 -0.606,-0.216 -1.159,-0.433 -1.657,-0.65 z"
           id="path266"
           inkscape:connector-curvature="0"
           style="fill:#464646" />
      </g>
    </g>
  </g>
</svg>
