<?xml version="1.0" encoding="UTF-8" standalone="no"?>
<svg
   xmlns:dc="http://purl.org/dc/elements/1.1/"
   xmlns:cc="http://creativecommons.org/ns#"
   xmlns:rdf="http://www.w3.org/1999/02/22-rdf-syntax-ns#"
   xmlns:svg="http://www.w3.org/2000/svg"
   xmlns="http://www.w3.org/2000/svg"
   xmlns:xlink="http://www.w3.org/1999/xlink"
   xmlns:sodipodi="http://sodipodi.sourceforge.net/DTD/sodipodi-0.dtd"
   xmlns:inkscape="http://www.inkscape.org/namespaces/inkscape"
   width="160px"
   height="151px"
   viewBox="0 0 160 151"
   version="1.1"
   id="svg244"
   sodipodi:docname="meiko-droite-pesto-champi.svg"
   inkscape:version="0.92.4 (f8dce91, 2019-08-02)">
  <metadata
     id="metadata248">
    <rdf:RDF>
      <cc:Work
         rdf:about="">
        <dc:format>image/svg+xml</dc:format>
        <dc:type
           rdf:resource="http://purl.org/dc/dcmitype/StillImage" />
      </cc:Work>
    </rdf:RDF>
  </metadata>
  <sodipodi:namedview
     pagecolor="#ffffff"
     bordercolor="#666666"
     borderopacity="1"
     objecttolerance="10"
     gridtolerance="10"
     guidetolerance="10"
     inkscape:pageopacity="0"
     inkscape:pageshadow="2"
     inkscape:window-width="994"
     inkscape:window-height="1025"
     id="namedview246"
     showgrid="false"
     inkscape:zoom="3.1258278"
     inkscape:cx="139.03146"
     inkscape:cy="65.120011"
     inkscape:window-x="926"
     inkscape:window-y="27"
     inkscape:window-maximized="0"
     inkscape:current-layer="svg244" />
  <!-- Generator: Sketch 39.1 (31720) - http://www.bohemiancoding.com/sketch -->
  <title
     id="title2">Clipped</title>
  <desc
     id="desc4">Created with Sketch.</desc>
  <defs
     id="defs7">
    <rect
       id="path-1"
       x="0"
       y="0"
       width="160"
       height="160" />
  </defs>
  <g
     id="Page-1"
     stroke="none"
     stroke-width="1"
     fill="none"
     fill-rule="evenodd">
    <g
       id="Clipped"
       transform="translate(0.000000, -7.000000)">
      <mask
         id="mask-2"
         fill="white">
        <use
           xlink:href="#path-1"
           id="use9" />
      </mask>
      <g
         id="Rectangle-path" />
      <g
         id="g240"
         mask="url(#mask-2)">
        <g
           id="g770">
          <g
             id="g238"
             transform="translate(2.000000, -378.000000)">
            <path
               stroke-width="3"
               stroke="#9BA6C6"
               id="Shape"
               d="M47.065,413.163 L46.713,411.908 L47.452,411.908 L47.065,413.163 L47.065,413.163 L47.065,413.163 L47.065,413.163 L47.065,413.163 L47.065,413.163 L47.065,413.163 L47.065,413.163 L47.065,413.163 L47.065,413.163 L47.065,413.163 L47.065,413.163 L47.065,413.163 L47.065,413.163 L47.065,413.163 Z M48.87,419.468 L48.479,420.248 L49.77,420.75 L50.128,419.766 L50.028,419.468 L48.87,419.468 L48.87,419.468 L48.87,419.468 L48.87,419.468 L48.87,419.468 L48.87,419.468 L48.87,419.468 L48.87,419.468 L48.87,419.468 L48.87,419.468 L48.87,419.468 L48.87,419.468 L48.87,419.468 L48.87,419.468 L48.87,419.468 Z M52.823,423.548 L53.293,423.548 L53.129,423.048 L52.823,423.048 L52.823,423.548 L52.823,423.548 L52.823,423.548 L52.823,423.548 L52.823,423.548 L52.823,423.548 L52.823,423.548 L52.823,423.548 L52.823,423.548 L52.823,423.548 L52.823,423.548 L52.823,423.548 L52.823,423.548 L52.823,423.548 L52.823,423.548 Z M48.287,417.518 L48.053,416.682 L48.645,416.682 L48.287,417.518 L48.287,417.518 L48.287,417.518 L48.287,417.518 L48.287,417.518 L48.287,417.518 L48.287,417.518 L48.287,417.518 L48.287,417.518 L48.287,417.518 L48.287,417.518 L48.287,417.518 L48.287,417.518 L48.287,417.518 L48.287,417.518 Z M145.586,446.323 C145.633,446.335 145.676,446.347 145.719,446.359 C145.706,446.324 145.69,446.29 145.671,446.256 C145.638,446.278 145.6,446.296 145.586,446.323 L145.586,446.323 L145.586,446.323 L145.586,446.323 L145.586,446.323 L145.586,446.323 L145.586,446.323 L145.586,446.323 L145.586,446.323 L145.586,446.323 L145.586,446.323 L145.586,446.323 L145.586,446.323 L145.586,446.323 L145.586,446.323 L145.586,446.323 L145.586,446.323 L145.586,446.323 L145.586,446.323 L145.586,446.323 L145.586,446.323 L145.586,446.323 L145.586,446.323 L145.586,446.323 L145.586,446.323 L145.586,446.323 L145.586,446.323 L145.586,446.323 L145.586,446.323 L145.586,446.323 L145.586,446.323 L145.586,446.323 L145.586,446.323 L145.586,446.323 L145.586,446.323 L145.586,446.323 L145.586,446.323 L145.586,446.323 L145.586,446.323 L145.586,446.323 L145.586,446.323 L145.586,446.323 L145.586,446.323 L145.586,446.323 L145.586,446.323 L145.586,446.323 L145.586,446.323 L145.586,446.323 L145.586,446.323 L145.586,446.323 L145.586,446.323 L145.586,446.323 L145.586,446.323 L145.586,446.323 L145.586,446.323 L145.586,446.323 L145.586,446.323 L145.586,446.323 L145.586,446.323 L145.586,446.323 L145.586,446.323 L145.586,446.323 L145.586,446.323 L145.586,446.323 L145.586,446.323 L145.586,446.323 L145.586,446.323 L145.586,446.323 L145.586,446.323 L145.586,446.323 L145.586,446.323 L145.586,446.323 L145.586,446.323 L145.586,446.323 L145.586,446.323 L145.586,446.323 L145.586,446.323 L145.586,446.323 L145.586,446.323 L145.586,446.323 L145.586,446.323 L145.586,446.323 L145.586,446.323 L145.586,446.323 L145.586,446.323 L145.586,446.323 L145.586,446.323 Z M47.651,408.46 L47.651,408.386 L47.651,407.907 L47.651,407.907 L47.651,407.907 L47.651,407.907 L47.586,407.925 L47.452,408.327 L47.651,408.46 L47.651,408.46 L47.651,408.46 L47.651,408.46 L47.651,408.46 L47.651,408.46 L47.651,408.46 L47.651,408.46 L47.651,408.46 L47.651,408.46 L47.651,408.46 L47.651,408.46 L47.651,408.46 L47.651,408.46 L47.651,408.46 Z M79.783,398.685 L59.629,404.469 L56.285,408.099 L59.073,408.099 L56.831,413.311 L59.073,413.311 L59.073,417.548 L60.778,416.38 L60.778,421.298 L64.379,420.248 L64.379,423.548 L78.312,423.548 C77.506,423.052 77.03,422.454 76.975,421.784 C76.836,420.12 79.324,418.467 83.038,417.506 L83.038,417.506 C83.75,416.016 84.246,414.413 84.504,412.735 C84.423,412.807 84.34,412.878 84.253,412.944 C81.218,415.237 77.974,415.501 75.273,415.645 C72.572,415.79 66.27,417.578 65.675,414.745 C64.984,411.459 70.457,406.397 75.082,403.873 L75.082,403.873 C74.564,403.229667 74.1483333,402.141667 73.835,400.609 C74.855,402.342333 75.8996667,403.023333 76.969,402.652 L76.769,403.042 C77.919,402.542 78.942,402.269 79.713,402.292 C81.526,402.346 83.236,404.033 84.297,406.082 L84.297,406.082 L84.297,406.082 C84.067,405.037 83.74,404.025 83.327,403.057 L82.932,403.057 L82.551,402.295 L81.98,401.724 L80.426,399.44 C80.2166667,399.178 80.0023333,398.926333 79.783,398.685 L79.783,398.685 L79.783,398.685 L79.783,398.685 L79.783,398.685 L79.783,398.685 L79.783,398.685 L79.783,398.685 L79.783,398.685 L79.783,398.685 L79.783,398.685 L79.783,398.685 L79.783,398.685 L79.783,398.685 L79.783,398.685 L79.783,398.685 L79.783,398.685 L79.783,398.685 L79.783,398.685 L79.783,398.685 L79.783,398.685 L79.783,398.685 L79.783,398.685 L79.783,398.685 L79.783,398.685 L79.783,398.685 L79.783,398.685 L79.783,398.685 Z M78.392,423.608 C78.289,423.699 78.183,423.787 78.077,423.874 L79.294,424.233 C79.396,424.203 79.4873333,424.178333 79.568,424.159 C79.127,423.993 78.735,423.809 78.392,423.608 L78.392,423.608 L78.392,423.608 L78.392,423.608 L78.392,423.608 L78.392,423.608 L78.392,423.608 L78.392,423.608 L78.392,423.608 L78.392,423.608 L78.392,423.608 L78.392,423.608 L78.392,423.608 L78.392,423.608 L78.392,423.608 L78.392,423.608 L78.392,423.608 L78.392,423.608 L78.392,423.608 L78.392,423.608 L78.392,423.608 L78.392,423.608 L78.392,423.608 L78.392,423.608 L78.392,423.608 L78.392,423.608 L78.392,423.608 L78.392,423.608 L78.392,423.608 L78.392,423.608 Z M52.209,422.785 L52.425,422.348 L51.796,422.608 L52.209,422.785 L52.209,422.785 L52.209,422.785 L52.209,422.785 L52.209,422.785 L52.209,422.785 L52.209,422.785 L52.209,422.785 L52.209,422.785 L52.209,422.785 L52.209,422.785 L52.209,422.785 L52.209,422.785 L52.209,422.785 L52.209,422.785 Z M66.61,455.929 L66.61,465.185 L66.61,465.185 L66.61,465.185 L66.61,465.185 L66.61,465.185 L66.61,465.185 L66.61,465.185 L66.61,465.185 L66.61,465.185 L66.61,465.185 L66.61,465.185 L66.61,465.185 L66.61,465.185 L66.61,465.185 L66.61,465.185 L66.61,465.185 L66.61,465.185 L66.61,465.185 L66.61,465.185 L66.61,465.185 L66.61,465.185 L66.61,465.185 L66.61,465.185 L66.61,465.185 L66.61,465.185 L66.61,465.185 L66.61,465.185 L66.61,465.185 L66.61,465.185 L66.61,465.185 L66.61,465.185 L66.61,465.185 L66.61,465.185 L66.61,465.185 L66.61,465.185 L66.61,465.185 L66.61,465.185 L66.61,465.185 L66.61,465.185 L66.61,465.185 L66.61,465.185 L66.61,465.185 L66.61,465.185 L66.61,465.185 L66.61,465.185 C66.577,465.184 66.544,465.183 66.511,465.185 L66.511,455.835 C66.533,455.878 66.566,455.909 66.61,455.929 L66.61,455.929 L66.61,455.929 L66.61,455.929 L66.61,455.929 Z M51.474,422.47 L51.629,421.457 L51.085,421.357 L51.43,422.452 L51.474,422.47 L51.474,422.47 L51.474,422.47 L51.474,422.47 L51.474,422.47 L51.474,422.47 L51.474,422.47 L51.474,422.47 L51.474,422.47 L51.474,422.47 L51.474,422.47 L51.474,422.47 L51.474,422.47 L51.474,422.47 L51.474,422.47 Z M47.723,415.508 L47.439,414.494 L48.479,414.494 L48.479,414.677 L47.723,415.508 L47.723,415.508 L47.723,415.508 L47.723,415.508 L47.723,415.508 L47.723,415.508 L47.723,415.508 L47.723,415.508 L47.723,415.508 L47.723,415.508 L47.723,415.508 L47.723,415.508 L47.723,415.508 L47.723,415.508 L47.723,415.508 Z M44.285,473.35 C43.0703333,474.366 41.5946667,475.305 39.858,476.167 C39.7906667,475.921667 39.738,475.66 39.7,475.382 L39.7,475.382 L39.7,475.382 L39.7,475.382 L39.7,475.382 C40.887,474.797 42.425,474.132 44.268,473.308 C44.254,473.333 44.26,473.347 44.285,473.35 L44.285,473.35 L44.285,473.35 L44.285,473.35 L44.285,473.35 L44.285,473.35 L44.285,473.35 L44.285,473.35 Z M66.511,431.125 L66.511,435.436 C66.551,435.437 66.584,435.45 66.61,435.478 L66.61,435.478 L66.61,435.478 L66.61,431.06 L66.511,431.125 L66.511,431.125 L66.511,431.125 L66.511,431.125 L66.511,431.125 L66.511,431.125 L66.511,431.125 L66.511,431.125 L66.511,431.125 L66.511,431.125 L66.511,431.125 L66.511,431.125 L66.511,431.125 L66.511,431.125 L66.511,431.125 L66.511,431.125 L66.511,431.125 L66.511,431.125 L66.511,431.125 L66.511,431.125 L66.511,431.125 L66.511,431.125 L66.511,431.125 L66.511,431.125 L66.511,431.125 L66.511,431.125 L66.511,431.125 L66.511,431.125 L66.511,431.125 L66.511,431.125 L66.511,431.125 L66.511,431.125 L66.511,431.125 L66.511,431.125 L66.511,431.125 L66.511,431.125 L66.511,431.125 L66.511,431.125 L66.511,431.125 L66.511,431.125 Z M92.597,465.005 C92.224,465.055 91.85,465.103 91.476,465.145 C89.865,465.326 88.241,465.374 86.622,465.288 C86.141,465.263 85.661,465.225 85.183,465.177 L85.183,465.177 C85.6356667,466.589667 86.038,467.999333 86.39,469.406 L86.39,469.406 L86.39,469.406 L86.39,469.406 L86.39,469.406 L88.097,469.21 C88.715,471.558667 89.1526667,474.344333 89.41,477.567 C89.513,478.308 89.574,479.068 89.581,479.663 C89.584,479.861 89.581,480.034 89.574,480.193 L89.574,480.193 L89.574,480.193 L89.574,480.193 C89.6286667,481.103667 89.666,482.056 89.686,483.05 C89.582,483.177333 89.4766667,483.290333 89.37,483.389 L89.37,483.389 C89.3753333,483.535 89.3796667,483.684333 89.383,483.837 C89.1563333,484.115 88.9206667,484.316667 88.676,484.442 C88.908,488.938 88.694,493.406333 88.034,497.847 C85.792,498.654333 81.8173333,498.275667 76.11,496.711 C75.377,500.619 74.108,503.854 72.487,505.983 C72.493,506.063 72.499,506.143 72.504,506.223 C72.623,507.013 72.681,507.812 72.675,508.612 C72.669,509.625 72.597,510.635 72.458,511.636 C72.325,512.63 72.146,513.617 71.925,514.596 C71.714,515.541 71.471,516.48 71.201,517.409 C70.977,518.179 70.736,518.945 70.478,519.704 L70.478,519.704 C80.35,519.25 87.4883333,519.540333 91.893,520.575 C96.7403333,521.713 99.52,524.490667 100.232,528.908 C97.888,525.674667 95.5003333,523.936 93.069,523.692 C93.0623333,523.690667 93.0556667,523.689667 93.049,523.689 C93.0576667,523.691 93.0663333,523.693 93.075,523.695 C95.357,524.176333 97.256,526.267667 98.772,529.969 C98.648,529.588 97.268,528.486 96.207,527.706 L96.207,527.706 L96.207,527.706 L96.207,527.706 L96.207,527.706 L96.207,527.706 C96.4816667,528.397333 96.687,529.144667 96.823,529.948 C95.5983333,528.286667 94.365,527.047667 93.123,526.231 C92.799,526.143 92.4626667,526.091667 92.114,526.077 C92.5,526.393667 92.8686667,526.786 93.22,527.254 C95.2646667,528.440667 96.5076667,529.688667 96.949,530.998 C96.3696667,530.713333 95.713,530.434333 94.979,530.161 C95.1136667,530.431 95.2446667,530.717333 95.372,531.02 C95.301,530.808 94.835,530.373 94.256,529.904 C93.1,529.446 91.7416667,529.001667 90.181,528.571 C92.0083333,529.676333 93.1333333,530.840667 93.556,532.064 C91.74,531.190667 89.3436667,530.361667 86.367,529.577 C78.9503333,527.622333 71.2493333,526.597 63.264,526.501 C58.6106667,527.032333 56.55,526.047667 57.082,523.547 C57.3013333,522.520333 58.216,521.826 59.826,521.464 L59.379,521.309 L60.678,517.548 C60.927,516.829 61.157,516.103 61.37,515.371 C61.595,514.599 61.796,513.82 61.971,513.034 C62.142,512.278 62.279,511.512 62.385,510.744 C62.476,510.08 62.524,509.411 62.528,508.741 C62.531,508.365 62.505,507.99 62.445,507.62 L62.445,507.62 C58.855,504.904 56.016,497.794 55.361,489.175 L55.361,489.175 C52.8683333,488.052333 50.8886667,486.42 49.422,484.278 L49.132,484.574 C48.708,485.894667 48.148,487.467667 47.452,489.293 L46.861,486.489 C46.4703333,487.559 46.072,488.490667 45.666,489.284 L45.666,489.284 L47.911,490.597 C47.874,490.278 46.852,490.13 45.206,490.091 C44.8993333,490.655667 44.5883333,491.14 44.273,491.544 C35.255,503.089 21.391,492.309 12.973,483.106 C7.21,477.862 1.097,469.448 0.432,457.36 C-0.521333333,440.032 8.51433333,428.703667 27.539,423.375 C25.7383333,427.739667 25.503,432.712333 26.833,438.293 C26.932,438.708 27.04,439.127 27.158,439.549 L27.158,439.549 L27.158,439.549 L27.158,439.549 L27.158,439.549 L27.158,439.549 L27.158,439.549 L27.158,439.549 L27.158,439.549 L27.158,439.549 L27.158,439.549 L27.158,439.549 L27.158,439.549 L27.158,439.549 L27.158,439.549 L27.158,439.549 L27.158,439.549 L27.158,439.549 L27.158,439.549 L27.158,439.549 L27.158,439.549 L27.158,439.549 L27.158,439.549 L27.158,439.549 L27.158,439.549 L27.158,439.549 L27.158,439.549 L27.158,439.549 L27.158,439.549 L27.158,439.549 L27.158,439.549 L27.158,439.549 L27.158,439.549 L27.158,439.549 L27.158,439.549 L27.158,439.549 L27.158,439.549 L27.158,439.549 L27.158,439.549 L27.158,439.549 L27.158,439.549 L27.204,439.487 C27.2446667,439.726333 27.2966667,439.974333 27.36,440.231 C28.723,444.885 31.135,449.945 34.585,455.409 C37.841,460.565667 39.6946667,465.056667 40.146,468.882 L40.537,468.206 C40.4083333,468.674 40.2976667,469.121667 40.205,469.549 C40.2903333,470.553667 40.267,471.506667 40.135,472.408 L40.135,472.408 L40.135,472.408 L40.135,472.408 C41.8436667,471.788667 43.2383333,471.493667 44.319,471.523 L44.319,471.523 C44.62,470.906 45.222,470.491 45.912,470.491 C46.228,470.491 46.525,470.578 46.779,470.746 L47.837,469.154 L47.837,469.154 C48.343,468.299 48.903,467.375 49.25,466.694 C49.712,465.582 50.196,464.392 50.68,463.068 C51.376,460.625 51.409,458.605 52.823,454.679 C53.1516667,453.765 53.441,452.740333 53.691,451.605 C53.829,450.788 53.957,449.94 54.068,449.037 L54.068,449.037 C53.284,448.927 52.8376667,448.621667 52.729,448.121 C52.4623333,443.902333 52.65,440.819 53.292,438.871 C49.797,442.365 47.774,444.339 47.868,445.942 C46.096,444.592667 45.4516667,443.538 45.935,442.778 C48.9956667,439.269333 51.477,437.132 53.379,436.366 L53.379,436.366 C53.376,436.352 53.376,436.338 53.376,436.323 C53.376,435.362 54.007,434.558 54.839,434.361 L54.839,434.361 C54.831,433.974 54.822,433.586 54.812,433.194 C54.7666667,432.891333 54.726,432.609333 54.69,432.348 L54.472,432.492 L54.626,431.909 C54.54,431.337 54.4593333,430.788333 54.384,430.263 L54.215,430.011 L54.215,429.082 C54.1776667,428.822667 54.1426667,428.574667 54.11,428.338 L52.162,429.01 C51.6793333,426.718 51.384,424.897333 51.276,423.548 L51.276,423.548 L51.43,423.548 L51.43,422.76 L51.43,422.76 L51.43,421.656 L50.87,421.656 C50.894,421.684 50.919,421.712 50.943,421.74 L49.979,423.548 L49.448,421.656 L49.448,421.656 L49.448,421.656 L49.448,421.656 L49.441,421.656 L49.445,421.645 L48.834,419.468 L47.452,419.468 L48.033,418.11 L46.979,417.548 L47.46,416.682 L46.656,416.682 L47.475,415.781 C47.324,415.361 47.193,414.931 47.082,414.494 L46.656,414.494 L46.699,414.354 L45.78,414.099 L46.704,412.711 C46.662,412.445 46.626,412.178 46.597,411.908 L45.828,411.908 L47.452,408.327 L45.828,409.123 L46.656,406.338 L45.828,406.338 L47.196,404.997 C47.23,404.916 47.256,404.831 47.28,404.746 L46.656,404.746 L47.789,403.387 C47.906,403.032 48.055,402.692 48.219,402.359 L47.452,402.359 L48.645,401.166 L48.645,399.972 L49.839,399.226 C48.173,394.79 47.5606667,391.205 48.002,388.471 C48.4653333,385.605 52.375,386.949 59.731,392.503 C59.93,392.439 60.131,392.379 60.332,392.32 C60.1826667,392.341333 60.0313333,392.367333 59.878,392.398 C60.341,392.287 60.797,392.191 61.251,392.097 C62.649,391.768 64.112,391.601 65.615,391.601 C68.33,391.601 70.914,392.146 73.241,393.152 C73.502,393.232 73.748,393.342 73.985,393.465 C74.284,393.594 74.574,393.739 74.852,393.901 C75.426,394.191 75.956,394.505 76.447,394.831 C76.5,394.86 76.547,394.892 76.596,394.923 C79.864,397.1 81.62,399.694 81.98,400.392 C82.226,400.868 82.4716667,401.275667 82.717,401.615 L82.717,401.615 L82.717,401.615 C82.979,401.973667 83.226,402.302 83.458,402.6 C83.4726667,402.618667 83.4876667,402.636 83.503,402.652 C84.2643333,403.66 84.9926667,404.608333 85.688,405.497 C85.9,405.769667 86.0926667,406.007 86.266,406.209 C88.3213333,408.823667 90.0636667,410.870667 91.493,412.35 C91.7216667,412.611333 91.9296667,412.835667 92.117,413.023 C93.721,414.639667 94.9406667,415.558333 95.776,415.779 L95.776,415.779 L95.776,415.779 L95.778,415.778 C98.1193333,416.407333 99.3813333,417.295333 99.564,418.442 C99.8386667,419.143333 99.5173333,420.028667 98.6,421.098 C98.373,421.478 98.014,421.848 97.534,422.199 C97.4846667,422.247667 97.4316667,422.297333 97.375,422.348 C97.3696667,422.349333 97.3646667,422.350667 97.36,422.352 C97.218,422.485333 97.065,422.621333 96.901,422.76 C96.855,422.742 96.811,422.723667 96.769,422.705 C96.462,422.895 96.107,423.074 95.715,423.242 C96.164,424.356 96.069,425.44 95.391,425.968 C94.64,426.553 93.403,426.28 92.36,425.366 L92.36,425.366 C91.894,425.515 90.806,425.682 89.188,425.91 C84.782,426.93 75.021,429.29 71.61,431.539 L71.61,431.539 C70.1746667,433.123 69.8803333,434.603 70.727,435.979 C70.84,436.36 71.039,436.83 71.307,437.371 L71.324,437.371 C73.6406667,440.781667 75.723,444.177333 77.571,447.558 C78.751,447.105 80.087,446.678 81.611,446.288 L81.611,446.288 C81.806,446.098 81.952,445.924 82.015,445.773 C82.385,444.889 86.111,443.525 89.56,442.683 L89.56,442.683 L89.56,442.683 L89.56,442.683 L89.56,442.683 L89.56,442.683 L89.56,442.683 L89.56,442.683 L89.56,442.683 L89.56,442.683 L89.56,442.683 L89.56,442.683 L89.56,442.683 L89.56,442.683 L89.56,442.683 L89.56,442.683 L89.56,442.683 L89.56,442.683 L89.56,442.683 L89.56,442.683 L89.56,442.683 L89.56,442.683 L89.56,442.683 L89.56,442.683 L89.56,442.683 L89.56,442.683 L89.56,442.683 L89.56,442.683 L89.56,442.683 L89.56,442.683 L89.56,442.683 L89.56,442.683 L89.56,442.683 L89.56,442.683 C89.974,442.509 90.208,442.469 90.51,442.464 C93.419,441.846 95.016,441.974 97.67,441.664 C98.143,441.609 98.659,441.554 99.221,441.499 C99.303,441.491 99.383,441.484 99.437,441.476 C102.359,441.202 106.511,440.937 112.733,440.707 C115.198,440.616 117.697,440.611 119.874,440.653 C122.112,440.609 122.688,440.635 123.06,440.734 C125.978,440.83 127.61,440.965 126.865,440.965 C126.49,440.965 125.734,440.973 124.233,440.996 C124.666,441.116 125.795,441.28 128.134,441.472 C136.258,442.141 132.704,441.865 137.951,443.421 C140.982,444.32 141.641,444.423 142.204,444.544 C141.805,444.31 141.722,444.185 142.351,444.343 C143.985,444.753 148.215,445.725 146.921,446.428 C146.819,446.483 146.727,446.545 146.645,446.615 L146.645,446.615 C152.297,448.261 155.636,450.353 155.636,452.625 C155.636,458.024 136.783,462.407 113.562,462.407 C113.025,462.407 112.49,462.404 111.956,462.401 L111.956,462.401 C109.106667,464.683 104.827333,465.178667 99.118,463.888 C96.8006667,464.467333 94.627,464.839667 92.597,465.005 L92.597,465.005 L92.597,465.005 Z" />
            <g
               transform="translate(71.000000, 442.000000)"
               fill-rule="evenodd"
               stroke-width="1"
               stroke="none"
               id="Group">
              <ellipse
                 ry="9.05302783"
                 rx="38.9404211"
                 cy="9.89658536"
                 cx="42.5620388"
                 fill="#131010"
                 id="Oval" />
              <ellipse
                 ry="9.78161055"
                 rx="42.0743248"
                 cy="10.6251681"
                 cx="42.5620388"
                 fill="#484444"
                 id="ellipse15" />
              <ellipse
                 ry="9.05302783"
                 rx="38.9404211"
                 cy="9.89658536"
                 cx="42.5620388"
                 fill="#131010"
                 id="ellipse17" />
            </g>
            <g
               transform="translate(93.000000, 406.000000)"
               fill-rule="evenodd"
               stroke-width="1"
               stroke="none"
               id="g66">
              <g
                 id="g62">
                <path
                   id="path20"
                   fill="#C7F099"
                   d="M6.98700893,7.30416 L46.0129911,7.30416 C49.7215714,7.30416 52.7326339,10.3584 52.7326339,14.12064 L52.7326339,41.184 C52.7326339,44.94576 49.7215714,48 46.0129911,48 L6.98700893,48 C3.27842857,48 0.267366071,44.94576 0.267366071,41.184 L0.267366071,14.12064 C0.267366071,10.3584 3.27842857,7.30416 6.98700893,7.30416 L6.98700893,7.30416 Z" />
                <path
                   id="path22"
                   fill="#4D5355"
                   d="M7.12140179,0 L45.5355179,0 C46.4795804,0 47.2461875,0.77712 47.2461875,1.73472 L47.2461875,5.56944 C47.2461875,6.52704 46.4795804,7.30416 45.5355179,7.30416 L7.12140179,7.30416 C6.17733929,7.30416 5.41120536,6.52704 5.41120536,5.56944 L5.41120536,1.73472 C5.41120536,0.77712 6.17733929,0 7.12140179,0 L7.12140179,0 Z" />
                <path
                   id="path24"
                   fill="#ECFBEE"
                   d="M45.4716339,9.50736 L8.20884821,9.50736 C4.7799375,9.77104 3.06548214,11.39424 3.06548214,14.37696 L3.06548214,42.20304 C3.29073214,44.01264 4.16696726,45.288 5.6941875,46.02912 C4.9323125,45.44256 4.551375,43.74208 4.551375,40.92768 L4.551375,15.18864 C5.00534524,13.17872 6.83416071,12.17376 10.0378214,12.17376 L40.21375,12.17376 L45.4716339,9.50736 L45.4716339,9.50736 Z" />
                <path
                   id="path26"
                   fill="#8A8D8E"
                   d="M7.39066071,0.85968 L41.1464554,0.85968 C41.7999643,0.85968 42.3309107,1.39776 42.3309107,2.06112 L42.3309107,3.71568 C42.3309107,4.37904 41.7999643,4.9176 41.1464554,4.9176 L7.39066071,4.9176 C6.73715179,4.9176 6.20620536,4.37904 6.20620536,3.71568 L6.20620536,2.06112 C6.20620536,1.39776 6.73715179,0.85968 7.39066071,0.85968 L7.39066071,0.85968 Z" />
                <g
                   id="g36"
                   transform="translate(21.294643, 25.440000)">
                  <path
                     id="path28"
                     fill="#B9B7B7"
                     d="M28.1406339,13.6632 C28.7174821,12.60384 28.5220446,10.80336 28.4434911,10.30896 C28.3374911,9.6432 27.9224821,7.64592 27.1440446,6.62976 C26.6230357,5.73072 24.0903929,3.48672 23.6839018,3.19392 C19.1514554,-0.03216 16.2851964,-0.50304 13.0034554,0.768 C10.9586964,1.56 9.1391875,4.7976 9.13114286,5.0112 C9.11410714,5.47824 8.33992857,7.2048 9.83055357,9.91104 C15.3311964,16.75008 20.7849911,17.31984 22.0588839,17.22768 C24.47275,17.36736 27.8425089,14.96736 28.1406339,13.6632 Z" />
                  <path
                     id="path30"
                     fill="#979AA0"
                     d="M27.1497232,8.5104 C27.4700893,9.97392 28.6602232,12.35376 27.2907411,13.78512 C25.9217321,15.21648 24.876875,17.0472 22.3783036,16.6416 C19.8802054,16.236 16.6278036,15.2976 14.9937946,14.1768 C13.3597857,13.056 11.4498929,11.46768 10.4854821,9.68256 C9.52107143,7.89744 9.20875,6.9552 9.33036607,5.86416 C9.45150893,4.77312 10.0988661,7.21344 10.4249107,7.55472 C10.7514286,7.89648 11.6306607,10.33008 13.0469911,9.92736 C14.4628482,9.52512 14.4827232,9.11712 15.3576964,9.228 C16.2321964,9.33936 15.5247411,10.23168 17.9996518,9.8784 C20.4740893,9.5256 18.5145089,9.3432 20.67,8.53488 C22.8250179,7.72656 24.7732411,8.3064 25.1944018,8.31696 C25.6155625,8.32752 26.8298304,7.04736 27.1497232,8.5104 L27.1497232,8.5104 Z" />
                  <path
                     id="path32"
                     fill="#A5A1A1"
                     d="M18.0058036,17.22096 C20.0543482,15.91824 21.4342411,11.98272 20.9331071,10.74432 C20.7996607,9.54192 19.6128393,8.18784 19.2669196,7.83072 C18.8008036,7.34976 17.3229554,5.96448 16.1086875,5.59248 C15.1707768,5.1648 11.8251518,4.82064 11.3263839,4.82064 C5.78977679,4.84896 3.1833125,6.14736 1.23130357,9.10992 C0.0156160714,10.956 0.377625,14.66448 0.4935625,14.84352 C0.746258929,15.23424 1.09927679,17.09664 3.85858929,18.4296 C12.2463125,20.7792 17.019625,18.04368 18.0058036,17.22096 L18.0058036,17.22096 Z" />
                  <path
                     id="path34"
                     fill="#949496"
                     d="M20.3094107,11.3424 C20.0089196,13.31328 20.2015179,15.42 17.9324554,16.5552 C15.6629196,17.69088 12.474875,18.83376 10.5029911,18.8784 C8.53110714,18.92304 6.06755357,18.7488 4.26271429,17.8584 C2.457875,16.968 1.66571429,16.38336 1.14233929,15.42192 C0.618964286,14.46096 2.53832143,16.07136 2.99970536,16.15872 C3.46061607,16.2456 5.56594643,17.71488 6.49108036,16.5552 C7.4166875,15.396 7.20042857,15.05136 7.97697321,14.62896 C8.75399107,14.20608 8.68632143,15.34896 10.5029911,13.60896 C12.3201339,11.86848 10.6175089,12.87024 11.9145893,10.94544 C13.2116696,9.02112 15.1310268,8.35104 15.4807321,8.11248 C15.8304375,7.87392 16.0902321,6.11712 17.1861964,7.1232 C18.2816875,8.1288 20.6099018,9.37104 20.3094107,11.3424 Z" />
                </g>
                <g
                   id="g46"
                   transform="translate(6.625000, 26.880000)">
                  <path
                     id="path38"
                     transform="translate(16.338415, 13.794122) rotate(-56.000000) translate(-16.338415, -13.794122) "
                     fill="#B9B8B8"
                     d="M18.4639375,9.93922054 C18.2570177,8.86066054 13.0588847,7.98801021 12.7502279,11.4564902 C12.5578161,13.6174502 13.1782127,16.9625702 13.2434985,17.0892902 C13.3856765,17.3652902 15.3322461,18.3354891 16.4990487,18.6042891 C19.820827,17.8276491 19.5992536,14.2193702 19.8444381,13.0990502 C20.4077096,11.1512102 18.8075947,10.9217805 18.4639375,9.93922054 Z" />
                  <path
                     id="path40"
                     transform="translate(16.122266, 11.984282) rotate(-56.000000) translate(-16.122266, -11.984282) "
                     fill="#979AA0"
                     d="M16.9858601,8.12938074 C16.9017892,7.05082074 14.7898033,6.17817041 14.6643969,9.64665041 C14.5862206,11.8076104 14.8382859,15.1527304 14.8648113,15.2794504 C14.9225778,15.5554504 15.7134632,16.5256493 16.1875316,16.7944493 C17.5371602,16.0178093 17.4471356,12.4095304 17.5467533,11.2892104 C17.7756089,9.34137041 17.125487,9.11194074 16.9858601,8.12938074 Z" />
                  <path
                     id="path42"
                     fill="#B9B8B8"
                     d="M18.7260357,10.32768 C20.1958393,8.37984 20.1300625,4.20336 19.2333214,3.2208 C18.6933839,2.14224 17.1147411,1.29504 16.6670804,1.08336 C16.0646786,0.79872 14.2021071,0.02544 12.9362589,0.108 C11.9103304,0.04032 8.65745536,0.90624 8.19086607,1.08288 C3.01390179,3.07536 1.01977679,5.21664 0.214366071,8.68512 C-0.287714286,10.84608 1.33115179,14.1912 1.50150893,14.31792 C1.87250893,14.59392 2.84638393,16.21344 5.89104464,16.48224 C14.5589107,15.7056 18.08625,11.448 18.7260357,10.32768 L18.7260357,10.32768 Z" />
                  <path
                     id="path44"
                     fill="#979AA0"
                     d="M14.4737321,1.1592 C15.8474732,1.71264 18.4567768,2.0496 18.8556964,4.00272 C19.2546161,5.95584 20.1612946,7.86096 18.4274375,9.73008 C16.6935804,11.5992 14.1017857,13.80192 12.2699732,14.544 C10.4381607,15.2856 8.07019643,15.99696 6.07228571,15.804 C4.074375,15.61056 3.1303125,15.34416 2.3088125,14.62944 C1.48683929,13.91472 3.84060714,14.74224 4.30246429,14.66016 C4.76479464,14.57808 7.24349107,15.2064 7.71055357,13.79184 C8.17714286,12.37728 7.85583036,12.13152 8.43741071,11.45952 C9.01946429,10.788 9.35024107,11.88288 10.4514107,9.60768 C11.5530536,7.33248 10.3042411,8.87472 10.8550625,6.61152 C11.4058839,4.3488 12.9726964,3.03936 13.2178214,2.69184 C13.4629464,2.34384 13.1004643,0.60624 14.4737321,1.1592 L14.4737321,1.1592 Z" />
                </g>
                <g
                   id="g52"
                   transform="translate(18.928571, 16.800000)">
                  <path
                     id="path48"
                     fill="#FFFFFF"
                     d="M17.2344643,13.71024 C19.4462679,12.71856 21.3670446,9.02448 21.0462054,7.7256 C21.0835893,6.516 20.1007232,5.00352 19.80875,4.60032 C19.4150357,4.05648 18.1482411,2.47056 16.9988036,1.92576 C16.1314018,1.36656 12.8681161,0.54 12.3750268,0.46752 C6.89141964,-0.30864 4.12832143,0.59712 1.77833929,3.24624 C0.314214286,4.89648 0.149535714,8.61888 0.2385,8.81328 C0.433464286,9.23664 0.5200625,11.1312 3.06264286,12.85104 C11.0320446,16.39536 16.1422857,14.38128 17.2344643,13.71024 L17.2344643,13.71024 Z" />
                  <path
                     id="path50"
                     fill="#D1E0FF"
                     d="M17.8491696,3.5976 C18.7918125,4.752 20.9203304,6.31968 20.3444286,8.22672 C19.769,10.13424 19.6620536,12.24672 17.2557589,13.04064 C14.8499375,13.83504 11.5331786,14.5032 9.57501786,14.2608 C7.61733036,14.0184 5.20346429,13.488 3.54295536,12.34464 C1.88244643,11.20128 1.18114286,10.5072 0.798785714,9.48 C0.416901786,8.4528 2.08924107,10.32576 2.53311607,10.47888 C2.97699107,10.632 4.85328571,12.39168 5.9326875,11.37888 C7.0125625,10.3656 6.8469375,9.9936 7.67553571,9.68784 C8.50366071,9.38208 8.27509821,10.50384 10.3193839,9.0456 C12.3631964,7.58688 10.5370625,8.33088 12.0920446,6.61488 C13.6475,4.89888 15.641625,4.5144 16.0216161,4.32912 C16.4011339,4.14336 16.9065268,2.44272 17.8491696,3.5976 L17.8491696,3.5976 Z" />
                </g>
                <g
                   id="g58"
                   transform="translate(6.625000, 14.880000)">
                  <path
                     id="path54"
                     fill="#A5A1A1"
                     d="M16.0774554,11.68656 C17.6797589,9.88272 18.3668661,5.53056 17.7753482,4.37424 C17.5060893,3.17136 16.3074375,2.05296 15.9629375,1.76592 C15.4987143,1.37904 14.0445268,0.29472 12.9480893,0.19008 C12.0835268,-0.03504 9.14959821,0.37584 8.71897321,0.4896 C3.94045536,1.78176 1.85547321,3.708 0.549875,7.1928 C-0.263580357,9.36432 0.524321429,13.08576 0.647357143,13.2432 C0.915669643,13.5864 1.45939286,15.41616 4.01333036,16.1544 C11.5587321,16.6512 15.3307232,12.75552 16.0774554,11.68656 L16.0774554,11.68656 Z" />
                  <path
                     id="path56"
                     fill="#939496"
                     d="M14.0748125,1.5144 C15.1504286,2.29632 17.3201161,3.03936 17.3134911,5.13024 C17.3068661,7.22112 17.7426964,9.33792 15.9283929,11.02032 C14.1140893,12.70272 11.5071518,14.60304 9.80973214,15.09888 C8.1123125,15.59424 5.96202679,15.97776 4.28921429,15.47616 C2.61640179,14.97456 1.85689286,14.55504 1.2819375,13.68864 C0.706982143,12.82224 2.57097321,14.03616 2.98030357,14.0208 C3.38963393,14.00496 5.39653571,15.0312 6.04720536,13.63104 C6.697875,12.2304 6.46647321,11.92656 7.08354464,11.31552 C7.70014286,10.70448 7.78816071,11.89248 9.13445536,9.69264 C10.4802768,7.4928 9.13871429,8.9088 10.0122679,6.63888 C10.8853482,4.36848 12.4573661,3.24336 12.7289911,2.91888 C13.0001429,2.59392 12.9996696,0.73296 14.0748125,1.5144 L14.0748125,1.5144 Z" />
                </g>
                <path
                   id="path60"
                   fill="#0CB3B1"
                   fill-opacity="0.6"
                   d="M8.26847321,46.02912 L45.5312589,46.02912 C48.9604851,45.76512 50.6750982,44.14192 50.6750982,41.15952 L50.6750982,13.33344 C50.4498482,11.52384 49.5734554,10.24848 48.0459196,9.50736 C48.8081101,10.0936 49.1892054,11.79408 49.1892054,14.6088 L49.1892054,40.34784 C48.7352351,42.35744 46.9064196,43.36224 43.7027589,43.36224 L13.5268304,43.36224 L8.26847321,46.02912 L8.26847321,46.02912 Z" />
              </g>
              <rect
                 height="17.28816"
                 width="33.0502321"
                 y="17.5932533"
                 x="9.97976927"
                 transform="translate(26.504885, 26.237333) rotate(6.776783) translate(-26.504885, -26.237333) "
                 fill="#FFFFFF"
                 stroke-width="3.999946"
                 stroke="#951D10"
                 id="rect64" />
            </g>
            <g
               transform="translate(0.000000, 387.000000)"
               fill-rule="evenodd"
               stroke-width="1"
               stroke="none"
               id="g198">
              <g
                 id="g74"
                 transform="translate(0.000000, 36.000000)">
                <path
                   id="path68"
                   fill="#464646"
                   d="M32.678,58.689 C42.1193333,54.1083333 42.755,45.3483333 34.585,32.409 C30.652,26.18 28.068,20.475 26.833,15.293 C25.503,9.71233333 25.7383333,4.73966667 27.539,0.375 C8.51433333,5.70366667 -0.521333333,17.032 0.432,34.36 C1.737,58.069 24,67.648 23.485,67.034 C23.865,68.585 47.73,66.034 47.911,67.597 L32.678,58.689 L32.678,58.689 Z" />
                <path
                   id="path70"
                   fill="#EBEBEB"
                   d="M47.786,59.097 L49.784,60.909 L47.19,63.555 L47.786,60.909 C46.6666667,64.4336667 45.4956667,66.9786667 44.273,68.544 C34.748,80.738 19.816,68.025 11.618,58.574 L16.491,60.482 L16.903,56.126 L20.065,58.007 L19.556,54.092 L23.35,56.736 L22.144,52.754 L25.829,54.685 L26.208,50.677 L29.985,53.495 L29.749,48.55 L33.004,51.319 L32.718,46.897 L35.558,50.33 L36.003,45.625 L38.583,48.592 L40.537,45.206 C39.1503333,50.2606667 39.288,53.5586667 40.95,55.1 C42.058,56.127 41.254,58.245 49.798,55.655 L47.786,59.097 L47.786,59.097 Z" />
                <path
                   id="path72"
                   fill="#EBEBEB"
                   d="M24.741,19.789 L23.024,15.948 L21.523,19.823 L19.912,16.103 L17.695,19.422 L17.149,14.794 L14.618,19.084 L14.353,13.979 L11.591,18.005 L11.952,12.819 L8.497,16.847 L9.19,11.51 C2.45133333,16.364 -0.26,25.6036667 1.056,39.229 L3.035,35.903 L5.101,39.423 L6.385,35.754 L9.256,39.056 L10.732,35.685 L12.598,39.165 L14.143,34.806 L15.481,38.745 L17.352,35.03 L19.994,38.067 L21.424,33.577 L24.111,37.734 L25.145,33.588 L27.488,37.349 L27.797,32.904 L30.899,36.47 L30.318,32.335 L33.649,36.165 L33.695,31.95 C30.0436667,25.6133333 27.88,20.459 27.204,16.487 L24.741,19.789 L24.741,19.789 Z" />
              </g>
              <g
                 id="g196"
                 transform="translate(27.000000, 0.000000)">
                <g
                   id="g88"
                   transform="translate(32.000000, 48.000000)">
                  <g
                     id="g84"
                     transform="translate(1.000000, 1.000000)">
                    <path
                       id="path76"
                       fill="#D1D1D1"
                       d="M36.676,16.515 L41.506,15.225 L44.086,24.895 L39.256,26.175 C37.546,26.635 35.806,26.965 34.046,27.155 C32.406,27.335 30.756,27.375 29.106,27.285 C27.526,27.185 25.966,26.965 24.416,26.605 C22.876,26.255 21.356,25.765 19.896,25.155 C18.426,24.545 17.006,23.825 15.656,22.985 C14.206,22.085 12.816,21.085 11.506,19.985 C10.006,18.745 8.616,17.395 7.316,15.945 C5.806,14.275 4.406,12.515 3.106,10.675 L0.226,6.585 L8.396,0.825 L11.276,4.905 C12.346,6.425 13.506,7.885 14.746,9.265 C15.736,10.355 16.786,11.375 17.916,12.315 C18.866,13.105 19.866,13.835 20.916,14.475 C21.816,15.035 22.756,15.515 23.736,15.925 C24.686,16.315 25.666,16.635 26.666,16.865 C27.666,17.095 28.676,17.235 29.696,17.295 C30.776,17.365 31.866,17.335 32.946,17.215 C34.206,17.075 35.456,16.845 36.676,16.515 L36.676,16.515 Z" />
                    <g
                       id="g82"
                       fill="#464646"
                       transform="translate(26.000000, 12.000000)">
                      <path
                         id="path78"
                         d="M13.174,13.189 C6.71533333,11.2236667 6.695,8.714 13.113,5.66 C15.291,2.69466667 17.5373333,1.01133333 19.852,0.61 C18.0706667,2.634 17.041,4.239 16.763,5.425 C23.6856667,5.07566667 27.7183333,3.66166667 28.861,1.183 C28.807,4.393 26.499,6.894 21.937,8.686 C26.7376667,7.67866667 29.6423333,6.312 30.651,4.586 C29.2796667,9.04466667 26.717,11.3863333 22.963,11.611 C27.255,11.4243333 30.091,10.43 31.471,8.628 C29.043,14.0726667 23.6186667,15.7753333 15.198,13.736 C14.465,13.559 13.79,13.376 13.174,13.189 L13.174,13.189 Z" />
                      <path
                         id="path80"
                         d="M0.92,4.599 C5.004,5.73633333 9.583,5.474 14.657,3.812 L16.379,13.718 C10.3383333,15.2833333 5.18466667,15.572 0.918,14.584 L3.24,12.841 L0.673,11.054 L2.833,9.55 L0.226,8.076 L1.901,6.891 L0.92,4.599 L0.92,4.599 Z" />
                    </g>
                  </g>
                  <circle
                     r="5.1390801"
                     cy="5.21317391"
                     cx="5.65286051"
                     fill="#EBEBEB"
                     id="circle86" />
                </g>
                <g
                   id="g96"
                   transform="translate(30.000000, 78.000000)">
                  <path
                     id="path90"
                     fill="#464646"
                     d="M5.87,52.363 L4.57,56.125 L12.092,58.723 L13.391,54.961 C13.682,54.118 13.952,53.266 14.201,52.409 C14.471,51.48 14.714,50.541 14.925,49.596 C15.146,48.617 15.325,47.63 15.458,46.636 C15.597,45.635 15.669,44.625 15.675,43.612 C15.681,42.812 15.623,42.013 15.504,41.223 C15.488,40.97 15.468,40.718 15.44,40.465 C15.398,40.091 15.349,39.719 15.289,39.347 C15.247,39.084 15.201,38.824 15.15,38.561 C15.096,38.275 15.036,37.99 14.973,37.704 C14.794,36.902 14.591,36.106 14.362,35.318 C14.064,34.29 13.741,33.269 13.395,32.257 L12.108,28.493 L4.578,31.065 L5.866,34.831 C6.17,35.726 6.456,36.627 6.719,37.537 C6.902,38.163 7.063,38.796 7.204,39.432 C7.252,39.645 7.296,39.858 7.338,40.073 C7.373,40.252 7.403,40.431 7.433,40.61 C7.471,40.847 7.503,41.084 7.529,41.322 C7.556,41.569 7.57,41.82 7.574,42.068 C7.674,42.558 7.722,43.057 7.718,43.556 C7.714,44.227 7.666,44.895 7.574,45.56 C7.471,46.327 7.334,47.093 7.163,47.849 C6.986,48.635 6.787,49.415 6.56,50.187 C6.349,50.919 6.118,51.645 5.87,52.363 L5.87,52.363 Z" />
                  <path
                     id="path92"
                     fill="#D1D1D1"
                     d="M11.004,43.789 C16.348,43.575 20.294,33.632 19.812,21.599 C19.329,9.566 14.599,-0.029 9.255,0.185 C3.911,0.4 -0.035,10.343 0.447,22.375 C0.93,34.408 5.66,44.003 11.004,43.789 L11.004,43.789 Z" />
                  <path
                     id="path94"
                     fill="#464646"
                     d="M10.455,54.853 C6.227,54.697 3.923,55.478 3.543,57.196 C2.991,59.692 5.04366667,60.6926667 9.701,60.198 C17.6856667,60.3566667 25.3783333,61.4423333 32.779,63.455 C35.7496667,64.263 38.1396667,65.1106667 39.949,65.998 C39.3563333,64.238 37.354,62.5856667 33.942,61.041 C35.57,60.9476667 37.0416667,61.3103333 38.357,62.129 C39.105,62.594 41.604,64.451 41.772,64.969 C40.2506667,61.2536667 38.343,59.1603333 36.049,58.689 C38.487,58.9256667 40.8813333,60.6653333 43.232,63.908 C42.52,59.4906667 39.7403333,56.713 34.893,55.575 C30.0456667,54.4363333 21.8996667,54.1956667 10.455,54.853 L10.455,54.853 Z" />
                </g>
                <g
                   id="g104"
                   transform="translate(28.000000, 78.000000)">
                  <path
                     id="path98"
                     fill="#464646"
                     d="M5.678,52.548 L4.379,56.309 L11.901,58.907 L13.2,55.146 C13.492,54.302 13.763,53.451 14.011,52.593 C14.282,51.664 14.522,50.725 14.735,49.78 C14.956,48.802 15.133,47.815 15.268,46.82 C15.406,45.82 15.479,44.809 15.485,43.797 C15.491,42.997 15.434,42.197 15.312,41.407 C15.298,41.155 15.276,40.902 15.249,40.649 C15.209,40.275 15.159,39.903 15.099,39.531 C15.058,39.269 15.01,39.008 14.96,38.746 C14.904,38.459 14.845,38.175 14.781,37.888 C14.604,37.087 14.399,36.291 14.17,35.503 C13.872,34.475 13.55,33.454 13.204,32.441 L11.918,28.678 L4.389,31.25 L5.674,35.016 C5.98,35.911 6.265,36.812 6.529,37.721 C6.71,38.348 6.872,38.98 7.015,39.617 C7.06,39.83 7.106,40.043 7.148,40.258 C7.182,40.437 7.214,40.616 7.242,40.795 C7.281,41.031 7.313,41.268 7.339,41.507 C7.365,41.753 7.381,42.004 7.383,42.253 C7.484,42.742 7.532,43.242 7.528,43.741 C7.524,44.411 7.476,45.08 7.385,45.744 C7.279,46.512 7.142,47.278 6.971,48.034 C6.796,48.82 6.595,49.599 6.37,50.371 C6.157,51.103 5.927,51.829 5.678,52.548 L5.678,52.548 Z" />
                  <path
                     id="path100"
                     fill="#EBEBEB"
                     d="M10.807,43.789 C16.15,43.575 20.097,33.632 19.615,21.599 C19.132,9.566 14.402,-0.029 9.058,0.185 C3.714,0.4 -0.233,10.343 0.25,22.375 C0.733,34.408 5.463,44.003 10.807,43.789 L10.807,43.789 Z" />
                  <path
                     id="path102"
                     fill="#464646"
                     d="M8.976,56.15 C4.74666667,56.0266667 2.44866667,56.8256667 2.082,58.547 C1.55,61.0476667 3.61066667,62.0323333 8.264,61.501 C16.2493333,61.597 23.9503333,62.6223333 31.367,64.577 C34.3436667,65.3616667 36.74,66.1906667 38.556,67.064 C37.9493333,65.3086667 35.934,63.672 32.51,62.154 C34.138,62.048 35.613,62.399 36.935,63.207 C37.686,63.666 40.199,65.504 40.372,66.02 C38.8206667,62.3173333 36.8966667,60.2393333 34.6,59.786 C37.0393333,60.004 39.447,61.7246667 41.823,64.948 C41.0763333,60.5366667 38.275,57.781 33.419,56.681 C28.5623333,55.5803333 20.4146667,55.4033333 8.976,56.15 L8.976,56.15 Z" />
                </g>
                <path
                   fill="#D1D1D1"
                   id="path106"
                   d="M39.61,37.28 L39.61,37.264 C29.73,24.9506667 24.9353333,20.9646667 25.226,25.306 C25.5166667,29.6466667 26.3786667,36.6093333 27.812,46.194 C28.608,76.83 18.158,82.145 19.62,90.139 C21.3706667,99.709 28.0176667,104.409333 39.561,104.24 C51.1036667,104.409333 57.7503333,99.709 59.501,90.139 C60.569,84.3 57.652,75.238 52.512,64.315 C50.44,59.909 44.588,51.884 43.727,48.979 C42.5116667,47.0043333 43.639,44.816 47.109,42.414 C50.1743333,40.292 47.6746667,38.5806667 39.61,37.28 L39.61,37.28 Z" />
                <g
                   id="g152"
                   transform="translate(18.000000, 0.000000)">
                  <g
                     id="g112"
                     transform="translate(2.000000, 0.000000)">
                    <path
                       id="path108"
                       fill="#EBEBEB"
                       d="M3.97,15.078 C1.45733333,9.31266667 0.468,4.777 1.002,1.471 C1.53666667,-1.83566667 6.634,0.432 16.294,8.274 L3.97,15.078 L3.97,15.078 Z" />
                    <path
                       id="path110"
                       fill="#464646"
                       d="M4.253,15.078 C2.62233333,10.9566667 2.01,7.701 2.416,5.311 C2.822,2.92166667 6.25366667,4.489 12.711,10.013 L4.253,15.078 L4.253,15.078 Z" />
                  </g>
                  <g
                     id="g118"
                     transform="translate(45.000000, 33.000000)">
                    <path
                       id="path114"
                       fill="#F9A9A9"
                       d="M1.641,4.639 C0.503,3.179 0.335,1.404 1.266,0.678 C2.197,-0.048 3.877,0.548 5.016,2.007 C6.154,3.467 6.322,5.242 5.391,5.968 C4.46,6.694 2.779,6.098 1.641,4.639 L1.641,4.639 Z" />
                    <path
                       id="path116"
                       fill="#000000"
                       stroke-width="5"
                       stroke="#F98383"
                       d="M4.719,5.107 L2.129,1.785" />
                  </g>
                  <path
                     fill="#8B8B8B"
                     id="path120"
                     d="M8.189,34.05 C5.929,31.8766667 5.58666667,34.53 7.162,42.01 L10.716,40.784 L9.472,45.492 L11.831,43.927 L12.087,46.507 L14.073,44.38 L15.223,48.308 L18.783,44.652 L19.379,45.551 L27.463,40.148 C18.8696667,40.1753333 12.445,38.1426667 8.189,34.05 L8.189,34.05 Z" />
                  <path
                     fill="#8B8B8B"
                     id="path122"
                     d="M26.721,44.38 C28.596,40.181 45.4,39.06 47.425,38.348 C48.775,37.8726667 48.775,37.2726667 47.425,36.548 C42.4503333,37.098 39.5006667,37.098 38.576,36.548 C37.6513333,35.998 32.102,37.6476667 21.928,41.497" />
                  <path
                     fill="#D1D1D1"
                     id="path124"
                     d="M25.56,45.492 C27.435,42.498 44.281,38.917 46.306,38.409 C47.656,38.0703333 48.227,37.7893333 48.019,37.566 C42.6483333,39.03 39.5006667,39.566 38.576,39.174 C37.6513333,38.782 32.102,39.9583333 21.928,42.703" />
                  <ellipse
                     ry="18.37333"
                     rx="19.1232619"
                     cy="22.9741001"
                     cx="20.6152098"
                     fill="#EBEBEB"
                     id="ellipse126" />
                  <path
                     fill="#EBEBEB"
                     id="path128"
                     d="M35.426,11.5 C43.6506667,22.9493333 49.3003333,29.0986667 52.375,29.948 C55.4496667,30.798 55.4496667,32.598 52.375,35.348 C46.2756667,37.2226667 41.676,37.6226667 38.576,36.548 C33.0766667,37.998 29.277,39.198 27.177,40.148 C25.077,41.0973333 22.3273333,42.147 18.928,43.297 L18.928,41.497 L14.878,43.297 L15.778,40.747 L11.879,41.497 L12.778,40.148 L8.879,40.148 L9.929,38.348 L7.079,38.348 L8.129,36.548 L4.979,36.548 L6.179,34.298 L3.479,33.248 L4.229,31.748 L1.979,30.548 L3.479,27.849 L0.78,27.099 L1.979,25.299 L0.78,22.599 L1.979,21.099 L35.426,11.5 L35.426,11.5 Z" />
                  <path
                     fill="#464646"
                     id="path130"
                     d="M39.253,25.944 C42.287,23.652 38.755,15.412 34.713,15.292 C30.672,15.173 19.714,23.176 20.675,27.745 C21.27,30.578 27.572,28.79 30.273,28.645 C32.974,28.501 36.218,28.237 39.253,25.944 L39.253,25.944 Z" />
                  <path
                     fill="#FFFFFF"
                     id="path132"
                     d="M33.345,20.297 C34.338,18.834 36.332,18.452 37.795,19.445 C39.258,20.438 39.64,22.431 38.647,23.894 C37.654,25.357 35.66,25.739 34.197,24.746 C32.734,23.754 32.352,21.76 33.345,20.297 L33.345,20.297 Z" />
                  <polygon
                     points="8.129 15.295 4.979 13.773 12.778 10.156 9.472 13.392 14.073 13.392 9.929 17.199 14.878 17.199 11.285 21.099 14.073 21.099 11.831 26.311 14.073 26.311 14.073 30.548 15.778 29.38 15.778 34.298 19.379 33.248 19.379 36.548 21.928 36.548 21.928 38.409 25.56 37.566 26.721 38.348 28.313 37.566 31.969 36.548 35.426 37.566 23.737 41.665 18.783 43.297 14.878 43.297 11.285 41.665 9.472 40.148 8.129 36.048 7.079 36.048 7.425 35.348 6.43 35.76 6.629 34.457 5.635 34.275 3.479 27.849 3.479 26.311 2.651 22.599 2.651 21.386 2.651 18.531 3.479 15.652"
                     fill="#D1D1D1"
                     id="polygon134" />
                  <path
                     fill="#000000"
                     id="path136"
                     d="M35.523,21.291 C35.689,20.012 36.544,19.281 37.429,19.66 C38.315,20.038 38.898,21.384 38.732,22.662 C38.565,23.941 37.711,24.671 36.825,24.293 C35.94,23.914 35.356,22.569 35.523,21.291 L35.523,21.291 Z" />
                  <path
                     fill="#FFFFFF"
                     id="path138"
                     d="M37.942,21.624 C37.987,21.196 37.781,20.753 37.483,20.634 C37.185,20.516 36.906,20.767 36.861,21.194 C36.817,21.621 37.023,22.065 37.321,22.183 C37.619,22.302 37.898,22.051 37.942,21.624 L37.942,21.624 Z" />
                  <path
                     fill="#D1D1D1"
                     id="path140"
                     d="M31.975,34.784 C31.785,32.499 36.545,30.236 42.598,29.733 C48.651,29.229 53.719,30.676 53.909,32.96 C54.099,35.245 49.339,37.508 43.286,38.011 C37.233,38.514 32.165,37.068 31.975,34.784 L31.975,34.784 Z" />
                  <path
                     fill="#464646"
                     id="path142"
                     d="M31.969,15.652 C30.8996667,16.0233333 29.855,15.3423333 28.835,13.609 C29.315,15.9583333 30.0323333,17.2776667 30.987,17.567 L31.969,15.652 L31.969,15.652 Z" />
                  <path
                     fill="#8B8B8B"
                     id="path144"
                     d="M50.874,28.809 C48.9393333,28.3956667 44.8156667,24.01 38.503,15.652 C37.995,15.1286667 37.4873333,14.3753333 36.98,13.392 C36.219,11.917 29.225,1.972 14.878,5.398 C23.4493333,3.68533333 30.2986667,6.03266667 35.426,12.44 L36.98,14.724 L37.551,15.295 L37.932,16.057 L38.503,16.057 L38.883,17.199 L39.454,17.199 L40.025,18.531 L40.787,19.102 L41.167,20.244 L41.738,21.386 L42.69,22.599 L42.69,23.48 L43.261,23.48 L43.261,24.051 L44.022,24.051 L44.022,24.622 L44.784,24.622 L44.784,25.299 L45.164,25.299 L45.355,26.311 L45.926,26.311 L46.306,27.099 L46.687,27.099 L46.687,27.849 L47.425,27.849 L47.425,28.428 L48.4,28.428 L48.4,28.809 L48.938,28.809 L49.923,28.809 L49.923,29.38 L50.874,28.809 L50.874,28.809 Z" />
                  <path
                     stroke-width="0.398"
                     stroke="#000000"
                     id="path146"
                     d="M32.793,35.348 C34.6316667,37.8326667 37.9306667,38.8326667 42.69,38.348 C48.2306667,37.7833333 51.593,36.4256667 52.777,34.275 L52.855,31.446" />
                  <path
                     fill="#464646"
                     id="path148"
                     d="M51.901,35.76 C55.9056667,32.3833333 55.5313333,30.056 50.778,28.778 L48.938,29.96 C47.7266667,32.6033333 48.7143333,34.5366667 51.901,35.76 L51.901,35.76 Z" />
                  <ellipse
                     ry="0.793805363"
                     rx="0.931182961"
                     cy="34.1623403"
                     cx="51.9238333"
                     fill="#000000"
                     id="ellipse150" />
                </g>
                <path
                   fill="#FFFFFF"
                   id="path154"
                   d="M44.324,50.371 C35.438,50.1063333 30.0666667,48.9793333 28.21,46.99 L27.414,50.371 C34.3106667,50.769 38.422,51.2996667 39.748,51.963 C41.074,52.6263333 42.0023333,59.8543333 42.533,73.647 C43.4616667,92.479 42.5333333,103.486667 39.748,106.67 C50.6233333,110.648667 57.7186667,112.041 61.034,110.847 C63.952,91.219 58.382,71.0603333 44.324,50.371 L44.324,50.371 Z" />
                <path
                   fill="#D1D1D1"
                   id="path156"
                   d="M62.383,96.837 C62.271,91.211 61.7413333,86.5973333 60.794,82.996 L57.632,83.36 L59.221,97.2 C60.393,98.104 61.447,97.983 62.383,96.837 L62.383,96.837 Z" />
                <path
                   fill="#FFFFFF"
                   id="path158"
                   d="M62.686,96.05 C62.574,90.424 62.0443333,85.8106667 61.097,82.21 L57.934,82.573 L59.524,96.413 C60.6953333,97.3176667 61.7493333,97.1966667 62.686,96.05 L62.686,96.05 Z" />
                <g
                   id="g172"
                   transform="translate(60.000000, 83.000000)">
                  <path
                     id="path160"
                     fill="#33691E"
                     d="M0.403,2.332 C0.403,2.332 0.811,1.655 1.504,4.689 C0.977,6.093 0.403,2.332 0.403,2.332 L0.403,2.332 Z M0.833,0.36 C0.833,0.36 0.966,3.179 1.504,4.689 C1.425,1.506 0.833,0.36 0.833,0.36 L0.833,0.36 Z" />
                  <path
                     id="path162"
                     fill="#558B2F"
                     d="M0.403,2.332 C0.403,2.332 1.032,3.943 1.504,4.689 C0.977,6.093 0.403,2.332 0.403,2.332 L0.403,2.332 Z M0.833,0.36 C0.833,0.36 0.966,3.179 1.504,4.689 C1.311,2.894 0.833,0.36 0.833,0.36 L0.833,0.36 Z" />
                  <path
                     id="path164"
                     fill="#6D4C41"
                     d="M1.352,6.164 L1.453,6.538 C1.478,5.683 1.543,5.126 1.621,4.759 C1.63,5.254 1.707,5.713 1.714,5.739 L1.764,5.487 C1.764,5.487 1.674,4.837 1.737,4.334 C1.837,4.103 1.925,4.094 1.925,4.094 L1.867,3.55 C1.851,3.551 1.42,3.57 1.352,6.164 L1.352,6.164 Z" />
                  <path
                     id="path166"
                     fill="#9E9D24"
                     d="M1.639,11.277 C1.579,11.284 1.512,11.181 1.437,10.969 C1.194,10.253 0.978,8.542 0.96,7.141 C0.95,6.371 0.995,5.816 1.094,5.641 C1.167,5.496 1.263,5.595 1.363,5.887 C1.605,6.604 1.822,8.314 1.839,9.715 C1.849,10.484 1.804,11.039 1.705,11.215 C1.688,11.244 1.663,11.275 1.639,11.277 L1.639,11.277 L1.639,11.277 Z M2.435,10.641 C2.276,10.659 2.024,9.751 1.84,8.45 C1.727,7.663 1.66,6.845 1.652,6.214 C1.644,5.72 1.676,5.386 1.741,5.269 C1.891,4.977 2.184,5.937 2.393,7.428 C2.505,8.213 2.573,9.031 2.581,9.663 C2.589,10.157 2.557,10.491 2.492,10.607 C2.472,10.609 2.455,10.639 2.435,10.641 L2.435,10.641 L2.435,10.641 Z" />
                  <path
                     id="path168"
                     fill="#827717"
                     d="M1.73,10.167 C1.748,10.331 1.743,10.441 1.719,10.443 C1.695,10.446 1.668,10.339 1.65,10.176 C1.632,10.012 1.637,9.902 1.661,9.899 C1.685,9.897 1.712,10.003 1.73,10.167 L1.73,10.167 Z M1.53,10.189 C1.506,10.191 1.502,10.301 1.52,10.465 C1.537,10.629 1.565,10.735 1.589,10.732 C1.613,10.73 1.617,10.62 1.599,10.456 C1.582,10.292 1.554,10.186 1.53,10.189 L1.53,10.189 Z M1.453,9.096 C1.429,9.099 1.425,9.209 1.443,9.373 C1.46,9.536 1.488,9.643 1.512,9.64 C1.536,9.638 1.54,9.528 1.522,9.364 C1.505,9.2 1.477,9.094 1.453,9.096 L1.453,9.096 Z M2.35,9.55 C2.326,9.553 2.322,9.663 2.34,9.826 C2.357,9.99 2.385,10.097 2.409,10.094 C2.433,10.091 2.437,9.982 2.419,9.818 C2.402,9.654 2.374,9.548 2.35,9.55 L2.35,9.55 Z M2.382,8.721 C2.358,8.724 2.354,8.834 2.372,8.998 C2.389,9.161 2.417,9.268 2.441,9.265 C2.465,9.263 2.469,9.153 2.452,8.989 C2.434,8.825 2.406,8.719 2.382,8.721 L2.382,8.721 Z M2.193,8.467 C2.169,8.469 2.165,8.579 2.183,8.743 C2.2,8.907 2.228,9.013 2.252,9.011 C2.276,9.008 2.28,8.898 2.263,8.734 C2.245,8.571 2.217,8.464 2.193,8.467 L2.193,8.467 Z" />
                  <path
                     id="path170"
                     stroke-width="2"
                     stroke="#C0CA33"
                     d="M1.935,7.944 C1.754,6.863 1.84,6.304 1.84,6.304 M1.35,6.632 C1.35,6.632 1.133,6.077 1.158,7.477" />
                </g>
                <g
                   fill="#464646"
                   id="g178"
                   transform="translate(0.000000, 11.000000)">
                  <path
                     id="path174"
                     d="M28.807,34 C28.5856667,33.47 28.3203333,33.205 28.011,33.205 L28.011,30.221 L28.807,29.602 L28.011,27.038 L27.215,27.038 L27.215,25.844 L25.823,25.844 L25.823,25.048 L24.43,24.452 L23.237,20.672 L23.237,18.682 L23.237,17.29 L21.645,15.102 L22.441,13.908 L21.645,13.908 L21.645,11.123 L20.452,10.327 L21.645,6.746 L21.645,5.951 L22.441,3.166 L23.237,0.977 L21.645,1.972 L21.645,3.166 L20.452,4.359 L21.645,4.359 L19.656,6.746 L20.452,6.746 L18.828,8.338 L19.656,8.338 L18.828,11.123 L20.452,10.327 L18.828,13.908 L20.452,13.908 L19.656,16.494 L21.645,16.494 L19.656,18.682 L21.645,18.682 L20.452,21.468 L23.237,21.468 L22.441,23.656 L24.43,23.656 L24.43,25.844 L25.823,25.844 L25.823,29.602 L27.215,29.602 L27.215,32.011 L28.011,33.205 L28.011,34.796 L28.011,36.189 C28.1436667,45.4283333 27.4143333,52.2583333 25.823,56.679 C23.838,62.192 24.575,63.946 22.441,68.344 C22.008,69.236 21.134,70.635 20.452,71.798 C17.7553333,76.3953333 11.2263333,79.8613333 0.865,82.196 L6.526,81.545 L5.731,83.932 L9.51,82.938 L8.845,86.121 L10.903,83.932 L11.898,87.513 L13.688,86.121 L13.688,89.329 L17.07,87.513 L17.07,89.329 L19.656,87.513 L20.452,91.293 C22.4413333,86.0763333 23.3696667,82.827 23.237,81.545 C23.1043333,80.263 23.502,79.6 24.43,79.556 L23.237,78.362 L24.43,76.373 L23.237,74.384 L24.43,72.195 L23.237,71.4 L24.43,70.206 L23.237,69.41 L25.823,68.018 L24.43,68.018 L25.823,65.83 L24.43,65.83 L27.215,63.442 L25.823,63.442 L28.011,60.259 L25.823,61.453 L28.011,56.679 L25.823,58.27 L28.807,54.093 L28.011,53.098 L28.807,51.705 L28.011,50.711 L28.807,47.926 L28.807,45.936 L29.603,43.35 L29.603,41.162" />
                  <polyline
                     id="polyline176"
                     points="29.603 36.189 28.807 38.377 29.603 41.162" />
                </g>
                <path
                   fill="#FFFFFF"
                   id="path180"
                   d="M40.49,87.122 C27.188,86.1353333 20.8796667,84.115 21.565,81.061 L19.05,84.841 C17.3266667,88.2223333 23.836,90.2426667 38.578,90.902 C53.3193333,91.5613333 56.3616667,91.5613333 47.705,90.902 L47.705,87.122 C55.323,87.3673333 52.918,87.3673333 40.49,87.122 L40.49,87.122 Z" />
                <path
                   fill="#FFFFFF"
                   id="path182"
                   d="M18.003,85.984 C12.307,88.54 9.015,89.741 8.457,91.482 C7.29033333,89.5846667 7.06933333,88.3686667 7.794,87.834 C13.3506667,84.9066667 17.0376667,83.9133333 18.855,84.854 C21.582,86.266 23.7,83.428 18.003,85.984 L18.003,85.984 Z" />
                <path
                   fill="#FFFFFF"
                   id="path184"
                   d="M19.136,86.777 C16.886,92.601 15.392,95.77 16.22,97.4 C14.056,96.8726667 13.0436667,96.164 13.183,95.274 C15.0716667,89.2846667 16.993,85.9846667 18.947,85.374 C21.877,84.459 21.385,80.952 19.136,86.777 L19.136,86.777 Z" />
                <path
                   fill="#464646"
                   id="path186"
                   d="M25.478,4.827 C28.3333333,6.50833333 30.3003333,7.77733333 31.379,8.634 L30.087,8.253 L30.778,9.205 L29.285,9.205 L29.879,10.156 L28.716,10.156 L29.285,11.108 L27.191,11.108 L27.472,12.44 L25.478,12.06 L25.859,13.392 L24.527,12.631 L24.527,13.392 L24.179,12.44 L23.575,13.392 L23.575,12.06 L23.194,12.06 L25.478,4.827 L25.478,4.827 Z" />
                <ellipse
                   ry="1.98932978"
                   rx="1.83370827"
                   cy="49.3231376"
                   cx="28.2100426"
                   fill="#FFFFFF"
                   id="ellipse188" />
                <ellipse
                   ry="1.98932978"
                   rx="1.83370827"
                   cy="85.4805132"
                   cx="18.911525"
                   fill="#FFFFFF"
                   id="ellipse190" />
                <path
                   fill="#FFFFFF"
                   id="path192"
                   d="M27.792,50.374 C23.398,54.81 20.761,57.117 20.868,58.942 C19.096,57.5926667 18.4516667,56.538 18.935,55.778 C23.0636667,51.0453333 26.1453333,48.7903333 28.18,49.013 C31.231,49.347 32.185,45.937 27.792,50.374 L27.792,50.374 Z" />
                <path
                   fill="#FFFFFF"
                   id="path194"
                   d="M28.22,51.049 C28.22,57.293 27.969,60.788 29.328,62.009 C27.1193333,62.297 25.9196667,62.001 25.729,61.121 C25.333,54.853 25.936,51.0823333 27.538,49.809 C29.942,47.899 28.22,44.805 28.22,51.049 L28.22,51.049 Z" />
              </g>
            </g>
            <g
               transform="translate(56.000000, 437.000000)"
               fill-rule="evenodd"
               stroke-width="1"
               stroke="none"
               id="g236">
              <g
                 id="g232"
                 transform="translate(1.000000, 1.000000)">
                <path
                   id="path224"
                   fill="#E8E8E8"
                   d="M11.611,4.948 L8.746,0.884 L0.616,6.615 L3.482,10.679 C4.799,12.547 6.228,14.334 7.757,16.031 C9.076,17.491 10.499,18.856 12.015,20.111 C13.347,21.215 14.76,22.22 16.24,23.119 C17.617,23.952 19.057,24.674 20.551,25.277 C21.277,25.57 22.013,25.832 22.761,26.063 C23.501,26.294 24.251,26.493 25.007,26.66 C25.763,26.829 26.525,26.964 27.293,27.068 C28.064,27.173 28.842,27.247 29.622,27.288 C31.241,27.374 32.865,27.326 34.476,27.145 C36.207,26.95 37.92,26.626 39.603,26.178 L44.407,24.897 L41.845,15.287 L37.04,16.568 C35.833,16.888 34.605,17.121 33.364,17.26 C32.298,17.38 31.222,17.411 30.147,17.356 C29.64,17.328 29.135,17.28 28.631,17.212 C28.136,17.145 27.645,17.057 27.159,16.95 C26.672,16.842 26.189,16.713 25.711,16.566 C25.224,16.413 24.742,16.242 24.269,16.051 C23.276,15.651 22.317,15.171 21.402,14.614 C20.336,13.968 19.317,13.244 18.359,12.448 C17.213,11.501 16.138,10.471 15.142,9.366 C13.877,7.966 12.699,6.49 11.611,4.948 L11.611,4.948 Z" />
                <g
                   id="g230"
                   fill="#464646"
                   transform="translate(26.000000, 12.000000)">
                  <path
                     id="path226"
                     d="M13.528,13.213 C7.06933333,11.2476667 7.049,8.738 13.467,5.684 C15.6456667,2.71866667 17.892,1.03533333 20.206,0.634 C18.4246667,2.658 17.395,4.263 17.117,5.449 C24.0396667,5.09966667 28.0723333,3.686 29.215,1.208 C29.161,4.41733333 26.853,6.91833333 22.291,8.711 C27.0916667,7.703 29.9963333,6.33633333 31.005,4.611 C29.6336667,9.06966667 27.071,11.411 23.317,11.635 C27.609,11.4483333 30.445,10.454 31.825,8.652 C29.397,14.0966667 23.9726667,15.7993333 15.552,13.76 C14.819,13.583 14.144,13.4 13.528,13.213 L13.528,13.213 Z" />
                  <path
                     id="path228"
                     d="M1.274,4.623 C5.358,5.76033333 9.937,5.498 15.011,3.836 L16.733,13.742 C10.6923333,15.3073333 5.53866667,15.5963333 1.272,14.609 L3.594,12.865 L1.027,11.078 L3.187,9.575 L0.58,8.1 L2.255,6.916 L1.274,4.623 L1.274,4.623 Z" />
                </g>
              </g>
              <circle
                 r="5.1390801"
                 cy="5.2375011"
                 cx="6.00694118"
                 fill="#EBEBEB"
                 id="circle234" />
            </g>
            <g
               id="text169"
               aria-label="CHAMPI"
               transform="rotate(6.74558,-3590.3012,1161.3499)">
              <path
                 id="path212"
                 style="font-style:normal;font-variant:normal;font-weight:bold;font-stretch:normal;font-size:8px;font-family:Chilanka;-inkscape-font-specification:'Chilanka Bold';fill:#951d10;fill-opacity:1"
                 d="m -0.66835474,-0.38082058 q 0.0625,0.085937 0.04297,0.1875 -0.01953,0.1015625 -0.109375,0.1640625 -0.08594,0.058594 -0.1875,0.039063 -1.26953106,-0.2382813 -2.27343706,0.3515625 -0.722657,0.42578117 -1.117188,1.16406248 -0.390625,0.7382812 -0.304687,1.46875 0.08594,0.7304687 0.648437,1.15625 1.007813,0.765625 3.08593806,0.2734375 0.101562,-0.023437 0.191406,0.03125 0.08984,0.054687 0.113281,0.15625 0.02344,0.1015625 -0.03125,0.1914062 -0.05469,0.089844 -0.15625,0.1132813 -2.31250006,0.546875 -3.50781206,-0.359375 -0.738282,-0.5585938 -0.847657,-1.4726563 -0.105469,-0.9179687 0.355469,-1.7890625 0.464844,-0.87109368 1.316406,-1.37109368 1.164063,-0.6835938 2.62109406,-0.4101563 0.101562,0.015625 0.160156,0.1054688 z"
                 inkscape:connector-curvature="0" />
              <path
                 id="path214-3"
                 style="font-style:normal;font-variant:normal;font-weight:bold;font-stretch:normal;font-size:8px;font-family:Chilanka;-inkscape-font-specification:'Chilanka Bold';fill:#951d10;fill-opacity:1"
                 d="m 3.2886762,-0.54097688 q 0.07422,-0.078125 0.179688,-0.078125 0.105469,0 0.179687,0.074219 0.07422,0.074219 0.07813,0.1757813 l 0.05078,5.28906238 q 0,0.1015625 -0.07422,0.1757813 -0.07422,0.078125 -0.179688,0.078125 -0.101562,0.00391 -0.179687,-0.070312 -0.07422,-0.074219 -0.07422,-0.1796875 l -0.02344,-2.34375 -2.49218797,-0.03125 0.02344,2.4179687 q 0,0.1054688 -0.07422,0.1796875 -0.07422,0.078125 -0.179687,0.078125 -0.101563,0 -0.179688,-0.074219 -0.07422,-0.074219 -0.07422,-0.1757813 l -0.05078,-5.28906268 q 0,-0.1054687 0.07422,-0.1796875 0.07422,-0.074219 0.17578197,-0.074219 0.105468,-0.00391 0.179687,0.070312 0.07813,0.074219 0.07813,0.1796875 0,0 0.02344,2.35937508 l 2.492188,0.03125 q -0.01172,-1.21875011 -0.02344,-2.43750008 -0.0039,-0.1015625 0.07031,-0.1757812 z"
                 inkscape:connector-curvature="0" />
              <path
                 id="path216"
                 style="font-style:normal;font-variant:normal;font-weight:bold;font-stretch:normal;font-size:8px;font-family:Chilanka;-inkscape-font-specification:'Chilanka Bold';fill:#951d10;fill-opacity:1"
                 d="m 4.9800832,5.1426169 q -0.07813,0.070312 -0.183594,0.0625 -0.101563,-0.00781 -0.171875,-0.089844 -0.06641,-0.078125 -0.0625,-0.1601562 0.144531,-1.8984375 0.605469,-3.3945313 0.464843,-1.49999998 1.109375,-1.98828118 1.007812,-0.75781252 1.847656,1.37109367 0.542969,1.37109381 0.945312,3.61718751 l 0.0625,0.34375 q 0.01563,0.1015625 -0.04687,0.1875 -0.0625,0.085937 -0.164062,0.1015625 -0.09766,0.019531 -0.183594,-0.042969 -0.08594,-0.058594 -0.109375,-0.1601563 L 8.5699352,4.6504289 Q 8.3902482,3.6387101 8.1793102,2.8144914 h -0.0039 -2.796875 q -0.234375,1.15625 -0.308593,2.15625 -0.0078,0.1015625 -0.08984,0.171875 z m 0.511718,-2.8359375 h 2.554688 q -0.445313,-1.55859381 -0.90625,-2.14843748 -0.117188,-0.1484375 -0.222656,-0.203125 -0.101563,-0.054687 -0.144532,-0.050781 -0.242187,0.027344 -0.492187,0.3945313 -0.476563,0.71093748 -0.789063,2.00781218 z"
                 inkscape:connector-curvature="0" />
            </g>
          </g>
          <g
             id="g3785"
             style="clip-rule:evenodd;fill-rule:evenodd;stroke-linecap:square;stroke-linejoin:bevel;stroke-miterlimit:2"
             transform="matrix(0.45684144,0,0,0.40018268,96.350223,23.542798)">
            <g
               transform="matrix(0.630141,0,0,1,28.7082,3.27044)"
               id="g12">
              <path
                 d="m 38.765,45.217 h 82.47 c 7.837,0 14.2,6.363 14.2,14.201 V 115.8 c 0,7.837 -6.363,14.2 -14.2,14.2 h -82.47 c -7.837,0 -14.2,-6.363 -14.2,-14.2 V 59.418 c 0,-7.838 6.363,-14.201 14.2,-14.201 z"
                 style="fill:#aad4d9;fill-rule:nonzero"
                 id="path2"
                 inkscape:connector-curvature="0" />
              <path
                 d="m 39.049,30 h 81.177 c 1.995,0 3.615,1.619 3.615,3.614 v 7.989 c 0,1.995 -1.62,3.614 -3.615,3.614 H 39.049 c -1.995,0 -3.614,-1.619 -3.614,-3.614 V 33.614 C 35.435,31.619 37.054,30 39.049,30 Z"
                 style="fill:#4d2100;fill-rule:nonzero"
                 id="path4"
                 inkscape:connector-curvature="0" />
              <path
                 d="M 120.091,49.807 H 41.347 c -7.246,0.549 -10.869,3.931 -10.869,10.145 v 57.971 c 0.476,3.77 2.328,6.427 5.555,7.971 -1.61,-1.222 -2.415,-4.765 -2.415,-10.628 V 61.643 c 0.959,-4.187 4.824,-6.281 11.594,-6.281 h 63.768 z"
                 style="fill:#ecf7fb;fill-rule:nonzero"
                 id="path6"
                 inkscape:connector-curvature="0" />
              <path
                 d="m 39.618,31.791 h 71.333 c 1.381,0 2.503,1.121 2.503,2.503 v 3.447 c 0,1.382 -1.122,2.504 -2.503,2.504 H 39.618 c -1.381,0 -2.503,-1.122 -2.503,-2.504 v -3.447 c 0,-1.382 1.122,-2.503 2.503,-2.503 z"
                 style="fill:#7e3800;fill-rule:nonzero"
                 id="path8"
                 inkscape:connector-curvature="0" />
              <path
                 d="m 41.473,125.894 h 78.744 c 7.247,-0.55 10.87,-3.932 10.87,-10.145 V 57.778 c -0.476,-3.77 -2.328,-6.427 -5.556,-7.971 1.611,1.221 2.416,4.764 2.416,10.628 v 53.623 c -0.959,4.187 -4.824,6.28 -11.594,6.28 H 52.585 Z"
                 style="fill:#0c8cb3;fill-opacity:0.6;fill-rule:nonzero"
                 id="path10"
                 inkscape:connector-curvature="0" />
            </g>
            <path
               d="m 50.252,81.258 v 41.258 c 0,0 -2.265,5.534 7.798,5.534 h 44.78 c 0,0 6.541,3.019 7.547,-11.32 1.007,-14.34 0,-34.214 0,-34.214 0,0 -13.081,3.522 -17.861,1.509 -4.78,-2.012 -10.315,-7.295 -17.359,-4.277 -7.044,3.019 -14.088,1.761 -17.358,0.755 -3.271,-1.006 -5.535,-2.012 -7.547,0.755 z"
               style="fill:#066e16"
               id="path14"
               inkscape:connector-curvature="0" />
            <path
               d="m 55.535,123.522 h 46.792 c 0,0 4.025,1.006 5.031,-7.044 1.007,-8.05 0,-29.182 0,-29.182 0,0 -2.515,-0.755 -5.283,5.283 -2.767,6.037 2.265,4.779 -4.276,8.805 -6.541,4.025 -2.013,8.05 -8.554,10.314 -6.541,2.264 -5.786,3.522 -12.83,5.535 -7.044,2.012 -4.78,3.019 -10.818,2.767 -6.037,-0.252 -7.547,-1.006 -9.308,-3.522 -1.761,-2.516 -3.019,6.038 -0.754,7.044 z"
               style="fill:#065416"
               id="path16"
               inkscape:connector-curvature="0" />
            <g
               transform="matrix(0.629541,-0.190665,0.228954,0.755966,11.8786,40.2615)"
               id="g26">
              <g
                 transform="matrix(0.993,0.118,-0.118,0.993,10.561,-8.857)"
                 id="g20-6">
                <rect
                   x="45.078999"
                   y="66.662003"
                   width="69.842003"
                   height="36.016998"
                   style="fill:#ffffff;stroke:#145916;stroke-width:4px"
                   id="rect18" />
              </g>
              <g
                 transform="matrix(0.279,0.033,-0.033,0.279,53.0295,88.9143)"
                 id="g24">
                <g
                   aria-label="PESTO"
                   style="font-size:60px;font-family:MVBoli, 'MV Boli';fill:#1a4b1a;stroke:#145916;stroke-width:4.80000019px;stroke-linecap:butt;stroke-linejoin:round"
                   id="text22">
                  <path
                     d="m 11.806641,-38.876953 v 16.435547 h 7.441406 q 4.130859,0 6.386719,-2.138672 2.255859,-2.138672 2.255859,-6.09375 0,-3.925781 -2.255859,-6.064453 -2.25586,-2.138672 -6.386719,-2.138672 z M 5.8886719,-43.740234 H 19.248047 q 7.353515,0 11.103515,3.339843 3.779297,3.310547 3.779297,9.726563 0,6.474609 -3.779297,9.785156 -3.75,3.310547 -11.103515,3.310547 H 11.806641 V 0 H 5.8886719 Z"
                     style="font-size:60px;font-family:MVBoli, 'MV Boli';fill:#1a4b1a;stroke:#145916;stroke-width:4.80000019px;stroke-linecap:butt;stroke-linejoin:round"
                     id="path3742"
                     inkscape:connector-curvature="0" />
                  <path
                     d="m 42.099609,-43.740234 h 27.65625 v 4.980468 H 48.017578 v 12.949219 h 20.830078 v 4.980469 H 48.017578 V -4.9804687 H 70.283203 V 0 H 42.099609 Z"
                     style="font-size:60px;font-family:MVBoli, 'MV Boli';fill:#1a4b1a;stroke:#145916;stroke-width:4.80000019px;stroke-linecap:butt;stroke-linejoin:round"
                     id="path3744"
                     inkscape:connector-curvature="0" />
                  <path
                     d="m 106.28906,-42.304687 v 5.771484 q -3.36914,-1.611328 -6.357419,-2.402344 -2.988282,-0.791015 -5.771485,-0.791015 -4.833984,0 -7.470703,1.875 -2.607422,1.875 -2.607422,5.332031 0,2.90039 1.728516,4.394531 1.757812,1.464844 6.621094,2.373047 l 3.574218,0.732422 q 6.621091,1.259765 9.755861,4.453125 3.16406,3.164062 3.16406,8.496093 0,6.3574224 -4.27734,9.6386724 -4.24805,3.28124998 -12.480471,3.28124998 -3.105469,0 -6.621094,-0.70312501 -3.486328,-0.70312499 -7.236328,-2.08007807 v -6.0937501 q 3.603515,2.0214844 7.060547,3.0468751 3.457031,1.0253906 6.796875,1.0253906 5.068359,0 7.822265,-1.9921875 2.753906,-1.9921875 2.753906,-5.6835934 0,-3.222657 -1.99219,-5.039063 -1.962888,-1.816406 -6.474606,-2.724609 l -3.603516,-0.703125 q -6.621094,-1.31836 -9.580078,-4.13086 -2.958984,-2.8125 -2.958984,-7.822265 0,-5.800781 4.072265,-9.140625 4.101563,-3.339844 11.279297,-3.339844 3.076172,0 6.269531,0.556641 3.193361,0.55664 6.533201,1.669922 z"
                     style="font-size:60px;font-family:MVBoli, 'MV Boli';fill:#1a4b1a;stroke:#145916;stroke-width:4.80000019px;stroke-linecap:butt;stroke-linejoin:round"
                     id="path3746"
                     inkscape:connector-curvature="0" />
                  <path
                     d="m 112.08984,-43.740234 h 37.00196 v 4.980468 H 133.56445 V 0 h -5.94726 v -38.759766 h -15.52735 z"
                     style="font-size:60px;font-family:MVBoli, 'MV Boli';fill:#1a4b1a;stroke:#145916;stroke-width:4.80000019px;stroke-linecap:butt;stroke-linejoin:round"
                     id="path3748"
                     inkscape:connector-curvature="0" />
                  <path
                     d="m 172.58789,-39.726562 q -6.44531,0 -10.25391,4.804687 -3.77929,4.804688 -3.77929,13.095703 0,8.261719 3.77929,13.0664064 3.8086,4.8046875 10.25391,4.8046875 6.44531,0 10.19531,-4.8046875 3.7793,-4.8046874 3.7793,-13.0664064 0,-8.291015 -3.7793,-13.095703 -3.75,-4.804687 -10.19531,-4.804687 z m 0,-4.804688 q 9.19922,0 14.70703,6.181641 5.50781,6.152343 5.50781,16.523437 0,10.341797 -5.50781,16.5234376 -5.50781,6.15234378 -14.70703,6.15234378 -9.22852,0 -14.76562,-6.15234378 -5.50782,-6.1523436 -5.50782,-16.5234376 0,-10.371094 5.50782,-16.523437 5.5371,-6.181641 14.76562,-6.181641 z"
                     style="font-size:60px;font-family:MVBoli, 'MV Boli';fill:#1a4b1a;stroke:#145916;stroke-width:4.80000019px;stroke-linecap:butt;stroke-linejoin:round"
                     id="path3750"
                     inkscape:connector-curvature="0" />
                </g>
              </g>
            </g>
          </g>
        </g>
      </g>
    </g>
  </g>
</svg>
