<?xml version="1.0" encoding="UTF-8"?>
<svg width="160px" height="160px" viewBox="0 0 160 160" version="1.1" xmlns="http://www.w3.org/2000/svg" xmlns:xlink="http://www.w3.org/1999/xlink">
    <!-- Generator: Sketch 39.1 (31720) - http://www.bohemiancoding.com/sketch -->
    <title>Group</title>
    <desc>Created with Sketch.</desc>
    <defs></defs>
    <g id="Page-1" stroke="none" stroke-width="1" fill="none" fill-rule="evenodd">
        <g id="Group" transform="translate(19.000000, 25.000000)">
            <path d="M103.959,94.149 C115.531,84.501 123.322,55.359 120.493,46.186 C119.738,37.282 113.036,27.256 111.082,24.612 C108.45,21.051 100.103,10.79 93.243,8.035 C87.947,4.868 69.05,2.323 66.235,2.323 C34.963,2.531 20.24,12.144 9.218,34.085 C2.35,47.755 4.396,75.216 5.05,76.542 C6.476,79.436 8.471,93.228 24.055,103.099 C71.429,120.499 98.389,100.241 103.959,94.149 L103.959,94.149 Z" id="Shape" fill-opacity="0.6" fill="#151717"></path>
            <path d="M100.63,91.826 C112.202,82.178 119.994,53.037 117.165,43.863 C116.41,34.96 109.708,24.933 107.754,22.289 C105.121,18.729 96.774,8.467 89.915,5.713 C84.619,2.545 65.721,7.10542736e-15 62.907,7.10542736e-15 C31.635,0.208 16.912,9.821 5.889,31.762 C-0.979,45.432 1.068,72.893 1.721,74.219 C3.148,77.113 5.142,90.905 20.727,100.776 C68.1,118.177 95.06,97.918 100.63,91.826 L100.63,91.826 Z" id="Shape" fill="#ECC46D"></path>
            <path d="M80.817,7.379 C83.217,7.376 70.334,3.893 57.997,5.713 C45.66,7.532 38.363,9.699 33.674,11.888 C28.985,14.077 26.338,12.882 20.727,18.311 C15.116,23.739 8.997,32.641 8.394,38.398 C7.791,44.154 2.515,55.291 4.842,60.398 C7.168,65.504 5.095,74.883 6.755,77.752 C8.415,80.62 10.085,89.63 16.73,91.826 C23.375,94.022 28.753,99.426 36.817,100.776 C44.881,102.125 46.326,103.115 55.811,102.075 C62.1336667,101.381 60.4026667,100.948 50.618,100.776 C41.3773333,99.6453333 35.046,98.393 31.624,97.019 C26.492,94.957 19.598,90.043 18.37,88.137 C17.142,86.23 10.678,82.851 9.624,73.242 C8.571,63.634 5.847,55.753 9.624,49.876 C13.402,43.998 13.077,40.156 14.953,35.376 C16.83,30.596 9.664,36.1 20.727,27.193 C31.79,18.285 31.696,15.309 41.873,11.888 C52.049,8.467 49.608,6.602 57.997,7.379 C66.386,8.156 78.417,7.381 80.817,7.379 L80.817,7.379 Z" id="Shape" fill="#E19F53"></path>
            <path d="M105.823,31.019 C108.462,33.869 115.292,40.619 113.202,45.503 C111.111,50.387 111.541,63.337 110.469,65.043 C109.397,66.75 107.236,72.338 105.823,74.219 C104.41,76.101 105.11,77.373 100.63,82.035 C96.151,86.697 96.229,88.216 91.748,89.093 C87.268,89.97 94.138,87.308 94.755,86.224 C95.372,85.139 99.032,79.796 100.63,78.571 C102.229,77.347 105.72,72.78 106.78,68.596 C107.839,64.413 110.917,61.674 110.469,58.758 C110.021,55.842 112.632,45.63 110.469,42.087 C108.306,38.544 103.184,28.169 105.823,31.019 L105.823,31.019 Z" id="Shape" fill="#E19F53"></path>
            <path d="M47.612,100.776 C60.73,101.255 61.902,98.111 66.235,100.776 C70.568,103.441 74.121,109.862 77.401,103.099 C80.68,96.335 74.121,97.975 82.867,94.149 C91.612,90.323 94.071,97.975 98.717,88.683 C103.363,79.391 97.995,90.363 103.959,76.542 C109.922,62.72 117.575,60.261 114.022,56.161 C110.469,52.062 113.062,56.981 111.082,49.329 C109.103,41.677 115.115,45.503 109.649,37.578 C104.183,29.652 107.189,35.423 98.717,24.612 C90.245,13.801 95.985,15.714 82.867,11.068 C69.748,6.422 80.212,4.183 66.235,5.713 C52.258,7.242 60.183,5.056 47.612,9.155 C35.04,13.255 39.686,8.062 29.848,14.894 C20.009,21.727 23.562,12.74 17.823,24.612 C12.084,36.484 16.183,28.012 12.084,37.578 C7.985,47.143 8.531,42.224 8.531,52.609 C8.531,62.994 -1.985,63.814 5.05,72.286 C12.084,80.758 10.717,75.114 14.27,82.035 C16.6386667,86.6496667 18.791,89.9133333 20.727,91.826 C29.905,97.4733333 38.8666667,100.456667 47.612,100.776 Z" id="Shape" fill="#417505"></path>
            <path d="M35.04,94.149 C33.401,92.783 21.991,96.062 20.727,89.776 C19.463,83.491 23.016,86.224 18.643,80.484 C14.27,74.745 13.724,76.385 12.084,70.646 C10.444,64.907 10.171,50.149 12.084,55.888 C13.997,61.627 9.351,56.981 13.724,64.634 C18.096,72.286 19.805,67.68 20.727,74.219 C21.649,80.758 16.077,78.298 24.055,84.037 C32.034,89.776 33.947,85.404 37.5,89.776 C41.053,94.149 36.68,95.515 35.04,94.149 L35.04,94.149 Z" id="Shape" fill="#365F06"></path>
            <path d="M96.399,77.729 C97.219,75.933 102.236,69.374 103.554,65.821 C104.871,62.268 101.963,68.281 103.554,58.989 C105.145,49.697 109.006,46.69 107.349,43.684 C105.691,40.678 106.609,39.008 103.554,36.564 C100.499,34.119 105.965,36.579 98.312,30.84 C90.66,25.1 90.546,16.902 89.51,19.908 C88.474,22.914 83.44,20.213 89.51,25.8 C95.579,31.386 99.406,34.909 100.225,36.564 C101.045,38.218 96.946,32.206 100.225,42.181 C103.505,52.156 105.242,46.417 103.554,53.796 C101.865,61.175 104.325,61.175 100.225,65.821 C96.126,70.467 100.772,69.647 96.399,74.02 C92.027,78.392 99.662,80.947 92.838,83.223 C86.014,85.498 83.987,89.871 89.51,87.958 C95.033,86.044 99.132,88.053 98.312,83.223 C97.493,78.392 95.579,79.526 96.399,77.729 L96.399,77.729 Z" id="Shape" fill="#355F05"></path>
            <path d="M52.804,13.255 C44.6053333,13.0723333 39.413,13.9833333 37.227,15.988 C33.947,18.994 23.835,18.72 30.121,20.634 C36.407,22.547 33.127,23.366 39.413,20.634 C45.699,17.901 41.599,17.081 48.978,15.988 C56.357,14.894 62.643,11.615 52.804,13.255 L52.804,13.255 Z" id="Shape" fill="#365F06"></path>
            <path d="M75.214,103.099 C76.854,100.981 74.121,102.348 75.214,99.068 C76.307,95.789 77.401,91.143 75.214,94.149 C73.028,97.155 73.575,105.216 75.214,103.099 L75.214,103.099 Z" id="Shape" fill="#365F06"></path>
            <g transform="translate(20.000000, 44.000000)" id="Shape">
                <path d="M12.2219313,13.2550004 C12.1808858,12.6270473 14.9502946,14.0601768 16.4902695,14.294349 C18.3393697,14.5755276 19.6919906,14.294349 19.6919906,14.294349 C19.6501478,13.9186799 20.8475693,11.1919984 19.6919906,10.47137 C18.912169,9.98506678 17.6790949,9.45136226 16.4902695,9.13082245 C15.0841958,8.75170659 13.7725246,8.58952267 13.8109997,7.99382475 C13.902231,6.58131983 14.2057938,5.73545372 13.8109997,5.10366753 C12.4439997,2.91666753 10.2334833,-0.279940071 7.27841834,1.43319611 C4.32335333,3.1463323 4.87499995,2.0976676 2.33199995,5.1036676 C-0.211000046,8.1096676 0.693,7.516 2.332,13.255 C3.42533333,17.081 5.52066667,18.5383333 8.618,17.627 C8.618,17.627 12.2898672,14.294349 12.2219313,13.2550004 Z" fill="#D6D6D6"></path>
                <path d="M11.0065493,12.8965194 C9.50422577,13.9061976 9.50599998,12.4175195 8.61799998,12.8965195 C8.02599998,13.2151861 6.113,16.2153333 4.519,16.534 L6.91223807,16.5340001 C7.3675714,16.8986667 8.878182,15.6397626 9.60684866,14.5464293 C10.6998487,12.9064293 12.5088728,11.8868413 11.0065493,12.8965194 Z" fill="#9B9B9B"></path>
                <path d="M16.8706055,12.3217774 C16.2786055,12.640444 15.5676328,12.6886574 13.9736328,13.0073241 L16.8706055,13.9453125 C17.3259388,14.3099792 17.9690872,14.1006574 18.6977539,13.0073241 C19.7907539,11.3673241 17.7586055,11.8427774 16.8706055,12.3217774 Z" fill="#9A9A85" opacity="0.402626812"></path>
                <path d="M12.6997221,4.11913857 C12.1077221,4.43780523 10.1947221,7.43795245 8.60072208,7.75661911 L11.0226488,7.75661902 C11.4779821,8.12128568 11.9710554,6.98690241 12.6997221,5.89356908 C13.7927221,4.25356908 13.5877221,3.64013857 12.6997221,4.11913857 Z" fill="#9B9B9B" transform="translate(11.022649, 5.893569) scale(1, -1) rotate(-43.000000) translate(-11.022649, -5.893569) "></path>
            </g>
            <g id="Group-Copy" transform="translate(51.222823, 31.510429) rotate(63.000000) translate(-51.222823, -31.510429) translate(43.722823, 24.510429)">
                <path d="M9.0084557,9.7699031 C8.97820216,9.30705583 11.0194587,10.3633769 12.1545326,10.5359789 C13.5174545,10.743228 14.5144349,10.5359789 14.5144349,10.5359789 C14.4835937,10.2590833 15.3661807,8.24932 14.5144349,7.71816425 C13.9396494,7.35972326 13.0307837,6.96634406 12.1545326,6.73008282 C11.1181537,6.45064675 10.1513562,6.33110535 10.1797151,5.8920325 C10.2469593,4.85091323 10.4707072,4.22744816 10.1797151,3.7617756 C9.17213633,2.14979692 7.54282441,-0.206336272 5.36472573,1.05637018 C3.18662706,2.31907663 3.5932309,1.54613418 1.71885423,3.76177565 C-0.15552244,5.97741713 0.510791598,5.53984077 1.71885427,9.76990279 C2.52472076,12.5899441 4.06913441,13.6641052 6.35209523,12.992386 C6.35209523,12.992386 9.05852945,10.5359789 9.0084557,9.7699031 Z" id="Shape" fill="#D6D6D6"></path>
                <path d="M8.11263046,9.50567644 C7.00530832,10.2498829 7.00661605,9.15261848 6.35209521,9.50567645 C5.91574799,9.74055705 4.50572733,11.9518846 3.33083295,12.1867652 L5.09482414,12.1867653 C5.43043805,12.4555512 6.54386836,11.5276469 7.08094889,10.7217805 C7.88656969,9.51298071 9.2199526,8.76146994 8.11263046,9.50567644 Z" id="Shape" fill="#9B9B9B"></path>
                <path d="M12.434868,9.08204956 C11.9985208,9.31693016 11.474482,9.35246697 10.2995876,9.58734757 L12.434868,10.2787135 C12.7704819,10.5474995 13.2445293,10.3932141 13.7816098,9.58734757 C14.5872306,8.37854783 13.0893888,8.72899159 12.434868,9.08204956 Z" id="Shape" fill="#9A9A85" opacity="0.402626812"></path>
                <path d="M9.3606224,3.03610588 C8.92427518,3.27098648 7.51425452,5.48231402 6.33936014,5.71719462 L8.12449697,5.71719455 C8.46011089,5.98598051 8.82354186,5.14985721 9.3606224,4.34399072 C10.1662432,3.13519098 10.0151432,2.6830479 9.3606224,3.03610588 Z" id="Shape" fill="#9B9B9B" transform="translate(8.124497, 4.343991) scale(1, -1) rotate(-43.000000) translate(-8.124497, -4.343991) "></path>
            </g>
            <g id="Group-Copy-2" transform="translate(77.975675, 30.051169) rotate(262.000000) translate(-77.975675, -30.051169) translate(70.475675, 23.051169)">
                <path d="M9.0084557,9.7699031 C8.97820216,9.30705583 11.0194587,10.3633769 12.1545326,10.5359789 C13.5174545,10.743228 14.5144349,10.5359789 14.5144349,10.5359789 C14.4835937,10.2590833 15.3661807,8.24932 14.5144349,7.71816425 C13.9396494,7.35972326 13.0307837,6.96634406 12.1545326,6.73008282 C11.1181537,6.45064675 10.1513562,6.33110535 10.1797151,5.8920325 C10.2469593,4.85091323 10.4707072,4.22744816 10.1797151,3.7617756 C9.17213633,2.14979692 7.54282441,-0.206336272 5.36472573,1.05637018 C3.18662706,2.31907663 3.5932309,1.54613418 1.71885423,3.76177565 C-0.15552244,5.97741713 0.510791598,5.53984077 1.71885427,9.76990279 C2.52472076,12.5899441 4.06913441,13.6641052 6.35209523,12.992386 C6.35209523,12.992386 9.05852945,10.5359789 9.0084557,9.7699031 Z" id="Shape" fill="#D6D6D6"></path>
                <path d="M8.11263046,9.50567644 C7.00530832,10.2498829 7.00661605,9.15261848 6.35209521,9.50567645 C5.91574799,9.74055705 4.50572733,11.9518846 3.33083295,12.1867652 L5.09482414,12.1867653 C5.43043805,12.4555512 6.54386836,11.5276469 7.08094889,10.7217805 C7.88656969,9.51298071 9.2199526,8.76146994 8.11263046,9.50567644 Z" id="Shape" fill="#9B9B9B"></path>
                <path d="M12.434868,9.08204956 C11.9985208,9.31693016 11.474482,9.35246697 10.2995876,9.58734757 L12.434868,10.2787135 C12.7704819,10.5474995 13.2445293,10.3932141 13.7816098,9.58734757 C14.5872306,8.37854783 13.0893888,8.72899159 12.434868,9.08204956 Z" id="Shape" fill="#9A9A85" opacity="0.402626812"></path>
                <path d="M9.3606224,3.03610588 C8.92427518,3.27098648 7.51425452,5.48231402 6.33936014,5.71719462 L8.12449697,5.71719455 C8.46011089,5.98598051 8.82354186,5.14985721 9.3606224,4.34399072 C10.1662432,3.13519098 10.0151432,2.6830479 9.3606224,3.03610588 Z" id="Shape" fill="#9B9B9B" transform="translate(8.124497, 4.343991) scale(1, -1) rotate(-43.000000) translate(-8.124497, -4.343991) "></path>
            </g>
            <g id="Group-Copy-3" transform="translate(66.222823, 65.510429) rotate(260.000000) translate(-66.222823, -65.510429) translate(58.722823, 58.510429)">
                <path d="M9.0084557,9.7699031 C8.97820216,9.30705583 11.0194587,10.3633769 12.1545326,10.5359789 C13.5174545,10.743228 14.5144349,10.5359789 14.5144349,10.5359789 C14.4835937,10.2590833 15.3661807,8.24932 14.5144349,7.71816425 C13.9396494,7.35972326 13.0307837,6.96634406 12.1545326,6.73008282 C11.1181537,6.45064675 10.1513562,6.33110535 10.1797151,5.8920325 C10.2469593,4.85091323 10.4707072,4.22744816 10.1797151,3.7617756 C9.17213633,2.14979692 7.54282441,-0.206336272 5.36472573,1.05637018 C3.18662706,2.31907663 3.5932309,1.54613418 1.71885423,3.76177565 C-0.15552244,5.97741713 0.510791598,5.53984077 1.71885427,9.76990279 C2.52472076,12.5899441 4.06913441,13.6641052 6.35209523,12.992386 C6.35209523,12.992386 9.05852945,10.5359789 9.0084557,9.7699031 Z" id="Shape" fill="#D6D6D6"></path>
                <path d="M8.11263046,9.50567644 C7.00530832,10.2498829 7.00661605,9.15261848 6.35209521,9.50567645 C5.91574799,9.74055705 4.50572733,11.9518846 3.33083295,12.1867652 L5.09482414,12.1867653 C5.43043805,12.4555512 6.54386836,11.5276469 7.08094889,10.7217805 C7.88656969,9.51298071 9.2199526,8.76146994 8.11263046,9.50567644 Z" id="Shape" fill="#9B9B9B"></path>
                <path d="M12.434868,9.08204956 C11.9985208,9.31693016 11.474482,9.35246697 10.2995876,9.58734757 L12.434868,10.2787135 C12.7704819,10.5474995 13.2445293,10.3932141 13.7816098,9.58734757 C14.5872306,8.37854783 13.0893888,8.72899159 12.434868,9.08204956 Z" id="Shape" fill="#9A9A85" opacity="0.402626812"></path>
                <path d="M9.3606224,3.03610588 C8.92427518,3.27098648 7.51425452,5.48231402 6.33936014,5.71719462 L8.12449697,5.71719455 C8.46011089,5.98598051 8.82354186,5.14985721 9.3606224,4.34399072 C10.1662432,3.13519098 10.0151432,2.6830479 9.3606224,3.03610588 Z" id="Shape" fill="#9B9B9B" transform="translate(8.124497, 4.343991) scale(1, -1) rotate(-43.000000) translate(-8.124497, -4.343991) "></path>
            </g>
            <g id="Group-Copy-6" transform="translate(47.400023, 53.125648) rotate(111.000000) translate(-47.400023, -53.125648) translate(41.400023, 48.125648)">
                <path d="M7.15514157,6.68900913 C7.13111211,6.37211862 8.75241993,7.0953337 9.65397449,7.21350646 C10.7365018,7.35540052 11.5283729,7.21350644 11.5283729,7.21350644 C11.5038767,7.02392864 12.2048886,5.64793492 11.5283729,5.28427668 C11.0718383,5.03886841 10.349954,4.76953953 9.65397449,4.60778218 C8.83081031,4.41646499 8.06291255,4.33462043 8.08543722,4.03400717 C8.13884717,3.32120008 8.31656336,2.89434184 8.08543722,2.57551698 C7.28514811,1.47186836 5.99103534,-0.141269078 4.26103801,0.723248705 C2.53104067,1.58776649 2.8539937,1.05856788 1.36523349,2.57551702 C-0.12352673,4.09246616 0.405706185,3.79287748 1.36523351,6.68900892 C2.00530869,8.61976321 3.23198934,9.35519253 5.04527548,8.89529689 C5.04527548,8.89529689 7.19491362,7.21350646 7.15514157,6.68900913 Z" id="Shape" fill="#D6D6D6"></path>
                <path d="M6.44361491,6.50810514 C5.56410271,7.01762955 5.5651414,6.26638238 5.04527546,6.50810514 C4.69869818,6.66891723 3.57876178,8.18291281 2.64557901,8.3437249 L4.0466634,8.34372493 C4.3132313,8.52775048 5.19759502,7.89245655 5.62418171,7.34071635 C6.26406174,6.51310604 7.32312711,5.99858073 6.44361491,6.50810514 Z" id="Shape" fill="#9B9B9B"></path>
                <path d="M9.87663635,6.21806704 C9.53005906,6.37887913 9.11383106,6.40320957 8.18064829,6.56402165 L9.87663635,7.03736852 C10.1432042,7.22139407 10.5197256,7.11576186 10.9463123,6.56402165 C11.5861923,5.73641134 10.3965023,5.97634428 9.87663635,6.21806704 Z" id="Shape" fill="#9A9A85" opacity="0.402626812"></path>
                <path d="M7.43485684,2.07868386 C7.08827955,2.23949595 5.96834315,3.75349153 5.03516038,3.91430362 L6.45304012,3.91430357 C6.71960801,4.09832911 7.00827015,3.52587345 7.43485684,2.97413324 C8.07473687,2.14652294 7.95472278,1.8369611 7.43485684,2.07868386 Z" id="Shape" fill="#9B9B9B" transform="translate(6.453040, 2.974133) scale(1, -1) rotate(-43.000000) translate(-6.453040, -2.974133) "></path>
            </g>
            <g id="Group-Copy-4" transform="translate(86.569800, 59.145013) rotate(70.000000) translate(-86.569800, -59.145013) translate(74.569800, 48.145013)">
                <path d="M14.0252968,15.6921906 C13.9781949,14.9014013 17.1562345,16.7061595 18.9234351,17.0010555 C21.045373,17.3551473 22.5975754,17.0010555 22.5975754,17.0010555 C22.5495586,16.5279707 23.9236615,13.094226 22.5975754,12.1867294 C21.7026898,11.5743216 20.2876736,10.9022207 18.9234351,10.4985609 C17.309893,10.0211354 15.8046826,9.81689515 15.8488348,9.06672519 C15.9535274,7.28793977 16.3018814,6.22272983 15.8488348,5.42711343 C14.2801317,2.67299652 11.7434502,-1.35253209 8.35236061,0.804842094 C4.96127103,2.96221628 5.594314,1.64161949 2.67609028,5.42711352 C-0.242133441,9.21260756 0.795253259,8.4649944 2.67609033,15.6921901 C3.93074675,20.5103206 6.33524987,22.345559 9.88959969,21.1979053 C9.88959969,21.1979053 14.1032568,17.0010555 14.0252968,15.6921906 Z" id="Shape" fill="#D6D6D6"></path>
                <path d="M12.6305833,15.240751 C10.9065895,16.5122515 10.9086255,14.6375402 9.88959967,15.240751 C9.21024912,15.642052 7.01498293,19.4201755 5.18578568,19.8214765 L7.93214986,19.8214766 C8.45466835,20.280706 10.188172,18.695352 11.0243546,17.3185034 C12.2786285,15.2532305 14.3545771,13.9692505 12.6305833,15.240751 Z" id="Shape" fill="#9B9B9B"></path>
                <path d="M19.3598903,14.5169709 C18.6805398,14.9182719 17.864662,14.9789877 16.0354647,15.3802887 L19.3598903,16.5615094 C19.8824088,17.0207388 20.6204548,16.7571373 21.4566374,15.3802887 C22.7109113,13.3150158 20.3789161,13.9137602 19.3598903,14.5169709 Z" id="Shape" fill="#9A9A85" opacity="0.402626812"></path>
                <path d="M14.5735864,4.18728359 C13.8942358,4.58858458 11.6989696,8.36670812 9.86977239,8.76800911 L12.6490583,8.76800899 C13.1715768,9.22723836 13.7374038,7.79869508 14.5735864,6.42184651 C15.8278603,4.35657365 15.5926122,3.5840728 14.5735864,4.18728359 Z" id="Shape" fill="#9B9B9B" transform="translate(12.649058, 6.421846) scale(1, -1) rotate(-43.000000) translate(-12.649058, -6.421846) "></path>
            </g>
            <g id="Group-Copy-5" transform="translate(47.749025, 83.507181) rotate(155.000000) translate(-47.749025, -83.507181) translate(38.749025, 75.007181)">
                <path d="M10.7309535,12.561304 C10.6949152,11.9662146 13.1264784,13.3243417 14.4785886,13.5462586 C16.1021134,13.8127217 17.2897254,13.5462586 17.2897254,13.5462586 C17.2529871,13.19025 18.3043327,10.6062686 17.2897254,9.92335403 C16.6050358,9.46250133 15.5223868,8.95672807 14.4785886,8.65296362 C13.2440447,8.29368868 12.0923868,8.1399926 12.1261683,7.57547035 C12.2062701,6.23688844 12.4728007,5.43529049 12.1261683,4.83656863 C10.9259313,2.76402462 8.9850803,-0.265289492 6.39050956,1.35819023 C3.79593883,2.98166995 4.28028898,1.9878868 2.04751463,4.8365687 C-0.18525973,7.6852506 0.608459547,7.12265241 2.04751467,12.5613036 C3.00747009,16.187071 4.84718953,17.5681353 7.56667299,16.7044963 C7.56667299,16.7044963 10.7906018,13.5462586 10.7309535,12.561304 Z" id="Shape" fill="#D6D6D6"></path>
                <path d="M9.6638384,12.221584 C8.3447863,13.1784209 8.34634407,11.7676523 7.56667297,12.221584 C7.04689223,12.5235734 5.36726293,15.3667088 3.96771817,15.6686981 L6.06900036,15.6686982 C6.46878667,16.0142801 7.79511486,14.8212604 8.43489003,13.7851463 C9.39455278,12.2309752 10.9828905,11.2647471 9.6638384,12.221584 Z" id="Shape" fill="#9B9B9B"></path>
                <path d="M14.8125266,11.6769209 C14.2927459,11.9789102 13.6685062,12.0246004 12.2689615,12.3265897 L14.8125266,13.2154888 C15.212313,13.5610707 15.7770024,13.3627038 16.4167776,12.3265897 C17.3764404,10.7724186 15.5921978,11.2229892 14.8125266,11.6769209 Z" id="Shape" fill="#9A9A85" opacity="0.402626812"></path>
                <path d="M11.1504576,3.9035647 C10.6306769,4.20555404 8.95104759,7.04868946 7.55150283,7.3506788 L9.67797389,7.35067871 C10.0777602,7.69626065 10.5106825,6.62124499 11.1504576,5.58513093 C12.1101204,4.03095983 11.9301287,3.44963302 11.1504576,3.9035647 Z" id="Shape" fill="#9B9B9B" transform="translate(9.677974, 5.585131) scale(1, -1) rotate(-43.000000) translate(-9.677974, -5.585131) "></path>
            </g>
        </g>
    </g>
</svg>