<?xml version="1.0" encoding="UTF-8" standalone="no"?>
<svg
   xmlns:dc="http://purl.org/dc/elements/1.1/"
   xmlns:cc="http://creativecommons.org/ns#"
   xmlns:rdf="http://www.w3.org/1999/02/22-rdf-syntax-ns#"
   xmlns:svg="http://www.w3.org/2000/svg"
   xmlns="http://www.w3.org/2000/svg"
   xmlns:sodipodi="http://sodipodi.sourceforge.net/DTD/sodipodi-0.dtd"
   xmlns:inkscape="http://www.inkscape.org/namespaces/inkscape"
   width="100%"
   height="100%"
   viewBox="0 0 160 160"
   version="1.1"
   xml:space="preserve"
   style="fill-rule:evenodd;clip-rule:evenodd;stroke-linecap:square;stroke-linejoin:bevel;stroke-miterlimit:2;"
   id="svg30"
   sodipodi:docname="sauce-pesto.svg"
   inkscape:version="0.92.4 (f8dce91, 2019-08-02)"><metadata
   id="metadata36"><rdf:RDF><cc:Work
       rdf:about=""><dc:format>image/svg+xml</dc:format><dc:type
         rdf:resource="http://purl.org/dc/dcmitype/StillImage" /></cc:Work></rdf:RDF></metadata><defs
   id="defs34" /><sodipodi:namedview
   pagecolor="#ffffff"
   bordercolor="#666666"
   borderopacity="1"
   objecttolerance="10"
   gridtolerance="10"
   guidetolerance="10"
   inkscape:pageopacity="0"
   inkscape:pageshadow="2"
   inkscape:window-width="1853"
   inkscape:window-height="1025"
   id="namedview32"
   showgrid="false"
   inkscape:zoom="1.475"
   inkscape:cx="80"
   inkscape:cy="80"
   inkscape:window-x="67"
   inkscape:window-y="27"
   inkscape:window-maximized="1"
   inkscape:current-layer="g24" />
    <g
   id="g28">
        
        
        
        <g
   id="g1128"><g
     id="g12"
     transform="matrix(0.630141,0,0,1,28.7082,3.27044)">
            <path
   id="path2"
   style="fill:rgb(170,212,217);fill-rule:nonzero;"
   d="M38.765,45.217L121.235,45.217C129.072,45.217 135.435,51.58 135.435,59.418L135.435,115.8C135.435,123.637 129.072,130 121.235,130L38.765,130C30.928,130 24.565,123.637 24.565,115.8L24.565,59.418C24.565,51.58 30.928,45.217 38.765,45.217Z" />
            <path
   id="path4"
   style="fill:rgb(77,33,0);fill-rule:nonzero;"
   d="M39.049,30L120.226,30C122.221,30 123.841,31.619 123.841,33.614L123.841,41.603C123.841,43.598 122.221,45.217 120.226,45.217L39.049,45.217C37.054,45.217 35.435,43.598 35.435,41.603L35.435,33.614C35.435,31.619 37.054,30 39.049,30Z" />
            <path
   id="path6"
   style="fill:rgb(236,247,251);fill-rule:nonzero;"
   d="M120.091,49.807L41.347,49.807C34.101,50.356 30.478,53.738 30.478,59.952L30.478,117.923C30.954,121.693 32.806,124.35 36.033,125.894C34.423,124.672 33.618,121.129 33.618,115.266L33.618,61.643C34.577,57.456 38.442,55.362 45.212,55.362L108.98,55.362L120.091,49.807Z" />
            <path
   id="path8"
   style="fill:rgb(126,56,0);fill-rule:nonzero;"
   d="M39.618,31.791L110.951,31.791C112.332,31.791 113.454,32.912 113.454,34.294L113.454,37.741C113.454,39.123 112.332,40.245 110.951,40.245L39.618,40.245C38.237,40.245 37.115,39.123 37.115,37.741L37.115,34.294C37.115,32.912 38.237,31.791 39.618,31.791Z" />
            <path
   id="path10"
   style="fill:rgb(12,140,179);fill-opacity:0.6;fill-rule:nonzero;"
   d="M41.473,125.894L120.217,125.894C127.464,125.344 131.087,121.962 131.087,115.749L131.087,57.778C130.611,54.008 128.759,51.351 125.531,49.807C127.142,51.028 127.947,54.571 127.947,60.435L127.947,114.058C126.988,118.245 123.123,120.338 116.353,120.338L52.585,120.338L41.473,125.894Z" />
        </g><path
     id="path14"
     style="fill:rgb(6,110,22);"
     d="M50.252,81.258L50.252,122.516C50.252,122.516 47.987,128.05 58.05,128.05L102.83,128.05C102.83,128.05 109.371,131.069 110.377,116.73C111.384,102.39 110.377,82.516 110.377,82.516C110.377,82.516 97.296,86.038 92.516,84.025C87.736,82.013 82.201,76.73 75.157,79.748C68.113,82.767 61.069,81.509 57.799,80.503C54.528,79.497 52.264,78.491 50.252,81.258Z" /><path
     id="path16"
     style="fill:rgb(6,84,22);"
     d="M55.535,123.522L102.327,123.522C102.327,123.522 106.352,124.528 107.358,116.478C108.365,108.428 107.358,87.296 107.358,87.296C107.358,87.296 104.843,86.541 102.075,92.579C99.308,98.616 104.34,97.358 97.799,101.384C91.258,105.409 95.786,109.434 89.245,111.698C82.704,113.962 83.459,115.22 76.415,117.233C69.371,119.245 71.635,120.252 65.597,120C59.56,119.748 58.05,118.994 56.289,116.478C54.528,113.962 53.27,122.516 55.535,123.522Z" /><g
     id="g26"
     transform="matrix(0.629541,-0.190665,0.228954,0.755966,11.8786,40.2615)">
            <g
   id="g20"
   transform="matrix(0.993,0.118,-0.118,0.993,10.561,-8.857)">
                <rect
   id="rect18"
   style="fill:white;stroke:rgb(20,89,22);stroke-width:4px;"
   height="36.017"
   width="69.842"
   y="66.662"
   x="45.079" />
            </g>
            <g
   id="g24"
   transform="matrix(0.279,0.033,-0.033,0.279,53.0295,88.9143)">
                <g
   id="text22"
   style="font-size:60px;font-family:MVBoli, 'MV Boli';fill:#1a4b1a;stroke:#145916;stroke-width:4.80000019px;stroke-linecap:butt;stroke-linejoin:round"
   aria-label="PESTO"><path
     id="path3742"
     style="font-size:60px;font-family:MVBoli, 'MV Boli';fill:#1a4b1a;stroke:#145916;stroke-width:4.80000019px;stroke-linecap:butt;stroke-linejoin:round"
     d="m 11.806641,-38.876953 v 16.435547 h 7.441406 q 4.130859,0 6.386719,-2.138672 2.255859,-2.138672 2.255859,-6.09375 0,-3.925781 -2.255859,-6.064453 -2.25586,-2.138672 -6.386719,-2.138672 z M 5.8886719,-43.740234 H 19.248047 q 7.353515,0 11.103515,3.339843 3.779297,3.310547 3.779297,9.726563 0,6.474609 -3.779297,9.785156 -3.75,3.310547 -11.103515,3.310547 H 11.806641 V 0 H 5.8886719 Z" /><path
     id="path3744"
     style="font-size:60px;font-family:MVBoli, 'MV Boli';fill:#1a4b1a;stroke:#145916;stroke-width:4.80000019px;stroke-linecap:butt;stroke-linejoin:round"
     d="m 42.099609,-43.740234 h 27.65625 v 4.980468 H 48.017578 v 12.949219 h 20.830078 v 4.980469 H 48.017578 V -4.9804687 H 70.283203 V 0 H 42.099609 Z" /><path
     id="path3746"
     style="font-size:60px;font-family:MVBoli, 'MV Boli';fill:#1a4b1a;stroke:#145916;stroke-width:4.80000019px;stroke-linecap:butt;stroke-linejoin:round"
     d="m 106.28906,-42.304687 v 5.771484 q -3.36914,-1.611328 -6.357419,-2.402344 -2.988282,-0.791015 -5.771485,-0.791015 -4.833984,0 -7.470703,1.875 -2.607422,1.875 -2.607422,5.332031 0,2.90039 1.728516,4.394531 1.757812,1.464844 6.621094,2.373047 l 3.574218,0.732422 q 6.621091,1.259765 9.755861,4.453125 3.16406,3.164062 3.16406,8.496093 0,6.3574224 -4.27734,9.6386724 -4.24805,3.28124998 -12.480471,3.28124998 -3.105469,0 -6.621094,-0.70312501 -3.486328,-0.70312499 -7.236328,-2.08007807 v -6.0937501 q 3.603515,2.0214844 7.060547,3.0468751 3.457031,1.0253906 6.796875,1.0253906 5.068359,0 7.822265,-1.9921875 2.753906,-1.9921875 2.753906,-5.6835934 0,-3.222657 -1.99219,-5.039063 -1.962888,-1.816406 -6.474606,-2.724609 l -3.603516,-0.703125 q -6.621094,-1.31836 -9.580078,-4.13086 -2.958984,-2.8125 -2.958984,-7.822265 0,-5.800781 4.072265,-9.140625 4.101563,-3.339844 11.279297,-3.339844 3.076172,0 6.269531,0.556641 3.193361,0.55664 6.533201,1.669922 z" /><path
     id="path3748"
     style="font-size:60px;font-family:MVBoli, 'MV Boli';fill:#1a4b1a;stroke:#145916;stroke-width:4.80000019px;stroke-linecap:butt;stroke-linejoin:round"
     d="m 112.08984,-43.740234 h 37.00196 v 4.980468 H 133.56445 V 0 h -5.94726 v -38.759766 h -15.52735 z" /><path
     id="path3750"
     style="font-size:60px;font-family:MVBoli, 'MV Boli';fill:#1a4b1a;stroke:#145916;stroke-width:4.80000019px;stroke-linecap:butt;stroke-linejoin:round"
     d="m 172.58789,-39.726562 q -6.44531,0 -10.25391,4.804687 -3.77929,4.804688 -3.77929,13.095703 0,8.261719 3.77929,13.0664064 3.8086,4.8046875 10.25391,4.8046875 6.44531,0 10.19531,-4.8046875 3.7793,-4.8046874 3.7793,-13.0664064 0,-8.291015 -3.7793,-13.095703 -3.75,-4.804687 -10.19531,-4.804687 z m 0,-4.804688 q 9.19922,0 14.70703,6.181641 5.50781,6.152343 5.50781,16.523437 0,10.341797 -5.50781,16.5234376 -5.50781,6.15234378 -14.70703,6.15234378 -9.22852,0 -14.76562,-6.15234378 -5.50782,-6.1523436 -5.50782,-16.5234376 0,-10.371094 5.50782,-16.523437 5.5371,-6.181641 14.76562,-6.181641 z" /></g>
            </g>
        </g></g>
    </g>
</svg>