<?xml version="1.0" encoding="utf-8"?>
<!-- Generator: Adobe Illustrator 24.1.2, SVG Export Plug-In . SVG Version: 6.00 Build 0)  -->
<svg version="1.1" id="Calque_1" xmlns="http://www.w3.org/2000/svg" xmlns:xlink="http://www.w3.org/1999/xlink" x="0px" y="0px"
	 viewBox="0 0 254 151.5" style="enable-background:new 0 0 254 151.5;" xml:space="preserve">
<style type="text/css">
	.st0{fill:#6F0505;}
	.st1{fill:url(#SVGID_1_);stroke:#90A6F4;stroke-width:0.5;stroke-miterlimit:10;}
	.st2{fill:#32477D;}
	.st3{fill:#FFFFFF;stroke:#32477E;stroke-linecap:square;stroke-miterlimit:3;}
	.st4{fill:#1B8DC8;}
	.st5{fill:none;stroke:#D2D2D2;stroke-width:2;stroke-linecap:round;stroke-linejoin:round;stroke-miterlimit:3;}
	.st6{fill:#FFFFFF;filter:url(#Adobe_OpacityMaskFilter);}
	.st7{fill-rule:evenodd;clip-rule:evenodd;}
	
		.st8{mask:url(#_mask_Gv3AXWoSOuM0wRn71uYyMm40k2OQwARs_1_);fill:none;stroke:#6689E3;stroke-width:4;stroke-linecap:round;stroke-linejoin:round;stroke-miterlimit:3;}
	.st9{fill:none;}
	.st10{fill:none;stroke:#203468;stroke-width:2;stroke-linecap:round;stroke-linejoin:round;stroke-miterlimit:3;}
</style>
<g>
	<path class="st0" d="M247.1,90.5c-10,6-12.2,10.4-6.6,13.1c5.6,2.7-3.9,6.5-28.7,11.2C219.9,101.4,231.6,93.3,247.1,90.5z"/>
	
		<linearGradient id="SVGID_1_" gradientUnits="userSpaceOnUse" x1="-179.0012" y1="477.0218" x2="-179.1862" y2="476.7503" gradientTransform="matrix(205.424 0 0 -51 36887.9531 24445.748)">
		<stop  offset="0" style="stop-color:#FFFFFF"/>
		<stop  offset="0.9957" style="stop-color:#FFFFFF"/>
		<stop  offset="1" style="stop-color:#000000"/>
	</linearGradient>
	<path class="st1" d="M217.6,111c6-2.2,10.6-3.9,13.9-4.9c6-1.9,15.9-6.7,17.2-4.9c2.4,3.3-1.4,7.8-11.3,13.6
		c-9,11.8-25.9,20.3-50.8,25.4c-16.2,3.4-46.2,5.3-83.6-16.4c-9.6-5.6-29.3-15.4-59-29.5C143.6,87.1,201.5,92.7,217.6,111z"/>
	<path class="st2" d="M229.9,101.2c14-5.8,22.1-6.3,22.1-10.7c-0.9-1.5-2.6-3.9-4.9-7.4c-4-5.9,24-66.6-60.7-65.6
		c-84.6,1-77.7,39.5-108.2,54.1c-20.4,9.7-29.6,0.7-27.9-27c8.2-0.4,13.7-3.6,16.4-9.8C71.5,21.7,75,9.4,81.5,2
		C64.2,8.1,51.3,15.5,43,24.1C27,8.8,13.3,3.4,2,7.7c9.3,5.6,14.2,11.1,14.8,16.4c0.8,8,3.9,18.9,23,20.5C33.8,69.9,34.9,86,43,93
		c12.1,10.5,83.2,27.3,106.6,27.9c18,0.4,57.4-0.3,68.9-9.8C220.9,106.6,224.7,103.3,229.9,101.2z"/>
	<ellipse vector-effect="non-scaling-stroke" cx="193" cy="20.9" rx="3.3" ry="0.8"/>
	<circle vector-effect="non-scaling-stroke" class="st3" cx="208.1" cy="81.8" r="6.1"/>
	<circle vector-effect="non-scaling-stroke" class="st4" cx="209.8" cy="81.9" r="2.9"/>
	<path vector-effect="non-scaling-stroke" class="st5" d="M231.5,116.8c-43,29.9-91.1,28.2-144.3-4.9"/>
	<path vector-effect="non-scaling-stroke" class="st5" d="M225.8,115.9c-40.4,22.6-85.5,21.5-135.2-3.3"/>
	<path vector-effect="non-scaling-stroke" class="st5" d="M220.9,114.3c-50.1,16.2-92.2,15.7-126.2-1.6"/>
	<path class="st2" d="M179.9,107.7c-5.2,18.1-19.6,32-43.4,41.8c10.2-10.2,13.8-18.9,10.9-26.1c-2.9-7.2-2.2-12.5,2.2-15.7"/>
	<defs>
		<filter id="Adobe_OpacityMaskFilter" filterUnits="userSpaceOnUse" x="0" y="0" width="254" height="151.5">
			<feColorMatrix  type="matrix" values="1 0 0 0 0  0 1 0 0 0  0 0 1 0 0  0 0 0 1 0"/>
		</filter>
	</defs>
	<mask maskUnits="userSpaceOnUse" x="0" y="0" width="254" height="151.5" id="_mask_Gv3AXWoSOuM0wRn71uYyMm40k2OQwARs_1_">
		<rect x="-964.5" y="-853.5" class="st6" width="1016" height="606.2"/>
		<path class="st7" d="M152.6,141.4c14.3,1.8,25.9,0.5,34-1.2c24.9-5.2,41.8-13.6,50.8-25.4c9.9-5.8,13.7-10.4,11.3-13.6
			c-0.8-1.1-4.7,0.3-9,2.1c-2.3-1.4-2.9-3.1-1.7-5.2C247,95,252,94,252,90.5c-0.9-1.5-2.6-3.9-4.9-7.4c-4-5.9,24-66.6-60.7-65.6
			c-84.6,1-77.7,39.5-108.2,54.1c-20.4,9.7-29.6,0.7-27.9-27c8.2-0.4,13.7-3.6,16.4-9.8C71.5,21.7,75,9.4,81.5,2
			C64.2,8.1,51.3,15.5,43,24.1C27,8.8,13.3,3.4,2,7.7c9.3,5.6,14.2,11.1,14.8,16.4c0.8,8,3.9,18.9,23,20.5C33.8,69.9,34.9,86,43,93
			c0.5,0.4,1.1,0.8,1.7,1.3c-0.2,0-0.5,0-0.7,0.1c29.7,14.1,49.4,23.9,59,29.5c15.1,8.8,29,13.7,41.3,16.2c-1.9,3-4.6,6.2-7.9,9.5
			C142.4,147.1,147.8,144.4,152.6,141.4z"/>
	</mask>
	<path vector-effect="non-scaling-stroke" class="st8" d="M152.6,141.4c14.3,1.8,25.9,0.5,34-1.2c24.9-5.2,41.8-13.6,50.8-25.4
		c9.9-5.8,13.7-10.4,11.3-13.6c-0.8-1.1-4.7,0.3-9,2.1c-2.3-1.4-2.9-3.1-1.7-5.2C247,95,252,94,252,90.5c-0.9-1.5-2.6-3.9-4.9-7.4
		c-4-5.9,24-66.6-60.7-65.6c-84.6,1-77.7,39.5-108.2,54.1c-20.4,9.7-29.6,0.7-27.9-27c8.2-0.4,13.7-3.6,16.4-9.8
		C71.5,21.7,75,9.4,81.5,2C64.2,8.1,51.3,15.5,43,24.1C27,8.8,13.3,3.4,2,7.7c9.3,5.6,14.2,11.1,14.8,16.4c0.8,8,3.9,18.9,23,20.5
		C33.8,69.9,34.9,86,43,93c0.5,0.4,1.1,0.8,1.7,1.3c-0.2,0-0.5,0-0.7,0.1c29.7,14.1,49.4,23.9,59,29.5c15.1,8.8,29,13.7,41.3,16.2
		c-1.9,3-4.6,6.2-7.9,9.5C142.4,147.1,147.8,144.4,152.6,141.4z"/>
	<path class="st9" d="M152.6,141.4c14.3,1.8,25.9,0.5,34-1.2c24.9-5.2,41.8-13.6,50.8-25.4c9.9-5.8,13.7-10.4,11.3-13.6
		c-0.8-1.1-4.7,0.3-9,2.1c-2.3-1.4-2.9-3.1-1.7-5.2C247,95,252,94,252,90.5c-0.9-1.5-2.6-3.9-4.9-7.4c-4-5.9,24-66.6-60.7-65.6
		c-84.6,1-77.7,39.5-108.2,54.1c-20.4,9.7-29.6,0.7-27.9-27c8.2-0.4,13.7-3.6,16.4-9.8C71.5,21.7,75,9.4,81.5,2
		C64.2,8.1,51.3,15.5,43,24.1C27,8.8,13.3,3.4,2,7.7c9.3,5.6,14.2,11.1,14.8,16.4c0.8,8,3.9,18.9,23,20.5C33.8,69.9,34.9,86,43,93
		c0.5,0.4,1.1,0.8,1.7,1.3c-0.2,0-0.5,0-0.7,0.1c29.7,14.1,49.4,23.9,59,29.5c15.1,8.8,29,13.7,41.3,16.2c-1.9,3-4.6,6.2-7.9,9.5
		C142.4,147.1,147.8,144.4,152.6,141.4z"/>
	<path vector-effect="non-scaling-stroke" class="st10" d="M194.8,78.2c2-5.6,4.8-8,8.3-7.3c3.5,0.7,6.9-1.2,10.1-5.6"/>
</g>
</svg>
