<?xml version="1.0" encoding="utf-8"?>
<!-- Generator: Adobe Illustrator 24.2.0, SVG Export Plug-In . SVG Version: 6.00 Build 0)  -->
<svg version="1.1" id="Calque_1" xmlns="http://www.w3.org/2000/svg" xmlns:xlink="http://www.w3.org/1999/xlink" x="0px" y="0px"
	 viewBox="0 0 595.3 595.7" style="enable-background:new 0 0 595.3 595.7;" xml:space="preserve">
<style type="text/css">
	.st0{fill:#696DB1;}
	.st1{fill:#D895C1;}
	.st2{fill:#6A6CB0;}
	.st3{fill:#EFEFF4;}
	.st4{fill:none;stroke:#203566;stroke-width:2;stroke-linecap:round;stroke-linejoin:round;stroke-miterlimit:3;}
</style>
<path id="queue" class="st0" d="M518,239.6c0,0,9.2-18.1,8.3-40.5c-0.1-4.3-0.8-19.3-11-29.6c-2.4-2.4-7.3-6.6-43.8-13.1
	c-19.2-3.4-28.3-4.2-40.5-11c-1.8-1-16.8-9.3-15.3-14.2c1.1-3.5,9.7-2.3,27.4-4.4c25-3,24-7.3,37.2-6.6c17.2,1.1,23.2,8.9,34,4.4
	c7.2-3.1,5.7-7.1,13.1-11c13.7-7.1,23.6,4.4,40.5,0c15.8-4.1,21-17.7,25.2-15.3c4.6,2.6,1.5,20.8-7.7,34
	c-1.5,2.2-34.1,24.2-31.8,35.8c2.2,11,7.2,22.5,7.2,22.5s4.7,15.7-8.1,24.1C534.8,226.3,518,239.6,518,239.6z"/>
<path id="Langue" class="st1" d="M176,396.9c-5.9,1.6-8.8,7.2-23,14.2c-10.4,5.1-17.5,7.2-19.7,7.8c-6,1.6-10.7,2.3-15.3,3
	c-9.1,1.3-15.8,1.8-24.3,5.3c-1.5,0.7-7.4,5-7.7,6.1c-0.3,1.6,4.8,3.4,9,3.7c8.2,0.7,13.8-0.2,19.9,0.1c12.7,0.7,9.4-0.7,27.3-2.5
	c5.6-0.5,16.4-1.3,28.6-4.2c11.9-2.7,8.8-2,18.2-5c2.2-0.8,8.7-2.5,16-6.1c3.6-1.5,24.9-21,24.9-22.6
	C218.4,395.1,192.9,392.2,176,396.9z"/>
<path id="Dos" class="st2" d="M511.8,244.8c-5.1,3.9-12.3,9.4-22.9,14c-16.3,7-29.9,7.3-56,7.8c-9.6,0.2-25.1,0.1-45.4-1.6
	c-16.4-1.4-26.4-3.2-48.6-6.7c-34.5-5.5-26-3.6-63.2-9.5c-101.6-16-152.4-24-169.5-30.2c-11.4-4.1-24.5-6.5-50.9-11.2
	c-12.1-2.2-20.4-3.3-29.7,0.5C10.9,214,4.7,228,3.8,230.2c-1.8,4.2-3.1,9.2-2.2,27.9c0.9,20.8,1.4,33.3,6.1,50.4
	c3.3,11.9,6.2,22.2,14,34.1c4.7,7.2,14.9,22.5,34.7,31.3C61,376,81,384,85.1,386.3c4.9,0.9,16.4,5,24.2,6.9c4.5,0.2,21.3,3.4,26,3.4
	c6.9-0.3,22.6,1,44.9,2c10,0.4,44.4-2.5,48.2-1.3c6.9,2.2,2.6,3.1,13,5.1c30.5,6.2,59.6,22.2,77.6,20.8c5.8-0.4,9.5-1,15.7-1.6
	c92.2-11.1,91.6-8.5,109.7-13.5c24-6.6,40.4-15.8,73.3-34.1c18.4-10.3,28.6-17.4,36.4-29.7c3.6-5.7,6.9-14.7,13.5-32.4
	c5.8-15.8,8.7-23.9,10.1-33c2.2-14.4,0.9-25.7,0-33.5c-1.2-10.7-3.3-18.2-6.7-30.2c-4.5-16-6.7-23.9-9.5-24.6
	C551.8,188.2,544.3,219.6,511.8,244.8z"/>
<path id="Ventre" class="st3" d="M86.1,433.3c-0.4,2,15,9.1,33.5,11.2c10.4,1.1,13.1-0.2,38.6-2.2c20.6-1.6,30.9-2.4,43.1-1.6
	c5.6,0.3,10.4,0.9,37.5,6.1c45.1,8.8,41.5,9.2,53.7,10.6c23.7,2.8,43.7,2.1,53.7,1.6c6-0.2,13.7-0.5,23.4-1.6
	c11.3-1.3,41.2-5.5,77.2-20.7c16.8-7.1,27.7-11.7,40.9-21.8c7.3-5.6,14.4-12.5,28.5-26.3c16.5-16.1,24.5-29.7,24.5-29.7
	s-13.4,10.8-33,20.4c-17,8.2-30.6,15.7-44.1,20.9c-13.7,5.3-40.1,10.2-60.7,13.7c-13.3,2.2-21.8,2.4-53.6,5.8
	c-25.2,2.6-62.3-3.4-79.8-8.8c-26.3-11-23.4-8.4-41.1-13.8c-4.9-1.5-15.2,15.3-22.6,20.6c-8.3,4.9-11.9,6-25.6,10.4
	c-8.3,2.7-14.9,2.5-24.3,3.8c-4.4,0.7-14.7,2-30.2,2.2C99.6,434.8,86.4,431.5,86.1,433.3z"/>
<path id="nage_basse" class="st0" d="M220.3,444.5c-5.6,3.2-9,8.3-15.9,18.6c-6.4,9.6-6,12.5-5.3,14c2,3.9,8.8,4.2,12.2,4.3
	c3.5,0.1,7.1-0.3,17.2-3.9c6.1-2.2,10.4-3.7,17-6.9c14.4-7,21.6-10.4,21.6-13.8C267.3,448.5,238,434.4,220.3,444.5z"/>
<path id="nage_basse_1_" class="st0" d="M429.8,452.8c4.8,4.3,7.1,10,11.8,21.5c4.3,10.7,3.4,13.4,2.3,14.8
	c-2.7,3.4-9.4,2.3-12.7,1.8c-3.4-0.5-6.9-1.8-16-7.2c-5.6-3.4-9.4-5.7-15.2-10.2c-12.7-9.7-19.1-14.6-18.4-17.9
	C383,447.3,414.5,439.3,429.8,452.8z"/>
<g id="Oeil_avant_1_">
	<path vector-effect="non-scaling-stroke" class="st4" d="M256.8,328.7c0-6.7-1.6-11-5.1-12.7c-4.1-2.1-12.2,0.7-15,7.4"/>
</g>
</svg>
