<?xml version="1.0" encoding="utf-8"?>
<!-- Generator: Adobe Illustrator 16.0.0, SVG Export Plug-In . SVG Version: 6.00 Build 0)  -->
<svg version="1.2" baseProfile="tiny" xmlns="http://www.w3.org/2000/svg" xmlns:xlink="http://www.w3.org/1999/xlink" x="0px"
	 y="0px" width="120px" height="120px" viewBox="0 0 120 120" xml:space="preserve">
<g id="Calque_6">
	<circle fill="#2FB6B4" cx="108.157" cy="113.367" r="68.999"/>
</g>
<g id="Calque_3">
</g>
<g id="Calque_1">
	<image width="99" height="98" xlink:href="F0892406.png"  transform="matrix(1 0 0 1 14 19)">
	</image>
	<image width="99" height="98" xlink:href="F0892400.png"  transform="matrix(1 0 0 1 14 19)">
	</image>
	<image width="99" height="98" xlink:href="F089240F.png"  transform="matrix(1 0 0 1 14 19)">
	</image>
	<g>
		<path fill="#F2E10B" d="M41.353,82.644c0-0.001,0-0.001,0-0.002c0,0.001,0,0.001-0.001,0.002c0.029,1.621,1.329,2.76,1.62,4.28
			c0.317,0.537,0.374,1.118-0.25,1.379c-0.768,0.32-1.179-0.148-1.305-0.902c-0.94-1.338-2.013-2.536-3.458-3.351
			c-0.569,0.881-1.321,1.229-2.339,0.799c-0.07,0.62,0.46,0.732,0.819,1.023c1.388,1.127,3.532,2.934,2.435,4.155
			c-1.188,1.317-2.45-1.315-3.723-2.149c-0.712-0.303-1.474-0.268-1.792,0.437c-0.441,0.982,1.156,0.888,1.13,1.749
			c-0.001,0-0.001-0.001-0.002-0.001c0,0,0,0.001,0.001,0.001c0.744,0.79,2.08,1.028,2.385,2.496
			c-1.914-0.625-3.64-1.191-5.365-1.757l-0.517,0.868c-0.083-0.003-0.158,0.026-0.228,0.068c0.076-0.022,0.152-0.046,0.228-0.068
			c-0.295,0.545-0.589,1.087-0.885,1.631c1.189,0.633,2.356,1.23,3.764,1.368c0.75,0.073,1.878,0.365,1.736,1.522
			c-0.141,1.157-1.032,1.32-2.128,1.41c-2.081,0.169-3.805-1.281-5.85-1.08c0.063,1.008-0.268,1.894-0.827,2.709
			c0-0.001-0.001-0.001-0.001-0.001c0,0.001,0,0.002,0,0.003c1.412,1.125,3.179,0.492,4.717,0.959
			c0.967,0.29,2.501,0.438,2.288,1.672c-0.217,1.247-1.664,0.814-2.699,0.788c-1.971-0.044-3.746-1.607-5.824-0.727
			c0.153,0.112,0.315,0.215,0.481,0.311c1.277,0.578-0.003,2.667,1.75,2.966c1.211,0.818,2.665,0.499,3.972,0.847
			c0.73,0.193,1.642,0.438,1.439,1.493c-0.234,1.209-1.105,0.737-1.851,0.569c-1.329-0.298-2.667-0.563-4.001-0.845
			c-0.26,0.852-0.519,1.704-0.779,2.554c0,0,0,0-0.001,0l0,0c1.346,0.974,3.397,0.552,4.502,2.187
			c-1.756,0.765-3.266-0.439-4.872-0.295c0.227,0.876,0.644,1.762-0.088,2.605c0,0.001,0,0.001,0,0.002c0-0.001,0-0.001,0-0.001
			c0.792,0.188,1.581,0.373,2.372,0.56v0.001c0.796-0.253,1.482-0.027,2.318,0.614c-0.99,0.625-1.821,0.275-2.648-0.007
			c-0.296,0.142-0.591,0.282-0.886,0.425c-0.35,0.899,0.631,1.895-0.197,2.764c7.953,1.329,12.27-0.721,16.196-7.658
			c0.96-1.695,1.987-3.354,3.005-5.015c4.726-7.719,4.189-16.9-1.424-24.243C43.677,82.693,42.474,82.521,41.353,82.644z"/>
		<path fill="#F4D763" d="M33.36,88.314c0.317-0.704,1.08-0.739,1.792-0.437c-0.139-0.246-0.217-0.578-0.427-0.715
			c-0.675-0.434-0.926-1.566-2.061-1.256c-0.78,0.213-1.029,0.821-1.104,1.504c-0.128,1.185,0.702,1.676,1.622,2.073
			c0.437,0.188,0.87,0.382,1.307,0.578c0.001,0,0.001,0.001,0.002,0.001C34.516,89.202,32.919,89.297,33.36,88.314z"/>
		<path fill="#F3D151" d="M44.574,81.759c-0.133-1.267-1.001-1.652-2.029-1.357c-1.006,0.287-1.508,1.113-1.192,2.24
			c0,0.001,0,0.001,0,0.002C42.474,82.521,43.677,82.693,44.574,81.759z"/>
		<path fill="#F4D35D" d="M25.837,114.319c0-0.001,0-0.001,0-0.002c0.731-0.844,0.315-1.729,0.088-2.605
			c-2.008,0.822-2.033,0.983-0.474,2.997c0,0,0,0,0.001,0C25.583,114.581,25.71,114.452,25.837,114.319z"/>
		<path fill="#F3CE4D" d="M26.993,115.911c-0.409-0.05-0.816-0.097-1.224-0.143c-1.02,1.449-0.822,2.47,1.027,2.906
			C27.624,117.806,26.643,116.811,26.993,115.911z"/>
		<path fill="#F2CE4D" d="M27.628,96.522c-2.271,0.295-2.527,1.202-0.828,2.708c0,0,0.001,0,0.001,0.001
			C27.36,98.416,27.692,97.53,27.628,96.522z"/>
		<path fill="#F3CF4C" d="M27.074,107.267c-1.038-0.393-1.612,0.188-1.911,1.04c-0.338,0.963,0.35,1.309,1.131,1.514
			c0,0,0,0,0.001,0C26.556,108.971,26.814,108.118,27.074,107.267z"/>
		<path fill="#F5E667" d="M25.764,102.236c0.11,1.077-0.453,1.418-1.432,1.309c0.719,1.21,1.822,1.68,3.183,1.657
			C25.761,104.903,27.041,102.814,25.764,102.236z"/>
		<path fill="#F3D452" d="M37.959,84.05c-0.053-0.834-0.583-1.19-1.298-0.988c-0.822,0.231-0.997,1.011-1.042,1.787
			C36.639,85.278,37.391,84.931,37.959,84.05z"/>
		<path fill="#F3D052" d="M30.764,91.739c0.07-0.042,0.144-0.071,0.228-0.068l0.517-0.868c-1.639-1.017-2.28-0.47-2.111,1.347
			c0,0,0,0,0.001,0.001v-0.001C29.853,92.012,30.309,91.876,30.764,91.739z"/>
		<path fill="#F2CD43" d="M25.764,102.236c-0.166-0.096-0.328-0.198-0.481-0.311c-1.062,0.104-1.329,0.674-0.951,1.619
			C25.311,103.654,25.874,103.313,25.764,102.236z"/>
		<path fill="#FEFCF3" d="M26.993,115.911c0.294-0.143,0.589-0.283,0.886-0.425c0.11-0.201,0.219-0.404,0.33-0.607h0v-0.001
			c-0.791-0.187-1.58-0.372-2.372-0.56c0,0,0,0,0,0.001c-0.126,0.133-0.254,0.262-0.386,0.39c0,0.001-0.001,0.001-0.001,0.002
			c0.106,0.353,0.213,0.706,0.32,1.058C26.177,115.814,26.584,115.861,26.993,115.911z"/>
		<path fill="#F5E868" d="M30.764,91.739c-0.456,0.137-0.911,0.272-1.366,0.41v0.001c0.019,0.517-0.146,1.148,0.708,1.151
			c0.296-0.544,0.59-1.086,0.885-1.631C30.916,91.693,30.84,91.717,30.764,91.739z"/>
		<path fill="#F7F099" d="M42.722,88.303c0.624-0.261,0.566-0.842,0.25-1.379c-0.312,0.835-0.867,0.867-1.554,0.477
			C41.543,88.154,41.955,88.623,42.722,88.303z"/>
		<path fill="#FCF9D5" d="M27.879,115.486c0.828,0.282,1.658,0.632,2.648,0.007c-0.836-0.642-1.522-0.867-2.318-0.614h0
			C28.098,115.082,27.989,115.285,27.879,115.486z"/>
	</g>
	<g>
		<path fill="#EE7212" d="M131.996,24.642c0,0,0.001,0,0.002-0.001c-0.001,0-0.001,0-0.002,0c-1.656,0.94-2.112,2.937-3.52,4.095
			c-0.378,0.632-0.947,1.019-1.562,0.514c-0.758-0.621-0.503-1.313,0.206-1.868c0.86-1.733,1.503-3.525,1.538-5.49
			c-1.225-0.1-2.001-0.689-2.123-1.993c-0.677,0.276-0.499,0.891-0.602,1.429c-0.393,2.081-1.068,5.334-2.937,4.874
			c-2.022-0.498-0.004-3.294,0.151-5.09c-0.084-0.914-0.544-1.689-1.447-1.625c-1.259,0.091-0.273,1.705-1.179,2.162
			c0,0,0,0,0-0.001c-0.403,1.219,0.094,2.747-1.251,3.891c-0.421-2.35-0.793-4.469-1.168-6.586l-1.183-0.053
			c-0.043-0.089-0.115-0.15-0.198-0.199c0.066,0.067,0.132,0.133,0.198,0.2c-0.727-0.003-1.449-0.005-2.176-0.008
			c0.007,1.596,0.037,3.15,0.677,4.694c0.341,0.825,0.667,2.167-0.608,2.668c-1.272,0.502-1.936-0.336-2.637-1.429
			c-1.331-2.078-0.791-4.689-2.136-6.712c-1.003,0.633-2.104,0.784-3.255,0.66c0-0.001,0.001-0.003,0.001-0.004
			c-0.001,0.001-0.003,0.002-0.004,0.003c-0.376,2.106,1.257,3.594,1.63,5.461c0.237,1.172,0.938,2.857-0.456,3.328
			c-1.408,0.474-1.764-1.28-2.313-2.375c-1.049-2.082-0.42-4.812-2.484-6.486c-0.029,0.224-0.047,0.449-0.052,0.676
			c0.112,1.658-2.757,1.496-2.091,3.493c-0.173,1.724,0.965,3.061,1.331,4.621c0.207,0.872,0.459,1.959-0.741,2.34
			c-1.379,0.436-1.375-0.738-1.616-1.611c-0.43-1.552-0.899-3.098-1.35-4.648c-1.022,0.207-2.047,0.415-3.069,0.62
			c-0.259,1.952,1.316,3.855,0.241,5.926c-1.766-1.404-1.36-3.655-2.4-5.249c-0.779,0.728-1.463,1.66-2.74,1.371
			c-0.001,0.001-0.001,0.001-0.002,0.002c0.001,0,0.001,0,0.002,0c0.246,0.931,0.493,1.859,0.739,2.789c0,0-0.001,0-0.001,0.001
			c0.703,0.689,0.851,1.532,0.651,2.763c-1.193-0.682-1.293-1.746-1.462-2.767c-0.311-0.229-0.619-0.458-0.931-0.686
			c-1.123,0.14-1.606,1.723-2.963,1.347c3.045,9.045,7.559,12.398,16.903,12.601c2.283,0.049,4.567,0.19,6.847,0.32
			c10.597,0.596,19.778-5.121,24.243-15.103C133.236,27.095,132.746,25.742,131.996,24.642z"/>
		<path fill="#EE7212" d="M101.018,22.871c-0.07-0.126-0.128-0.252-0.188-0.378C100.881,22.614,100.94,22.739,101.018,22.871z"/>
		<path fill="#F4D763" d="M121.702,19.487c0.903-0.064,1.363,0.71,1.447,1.625c0.176-0.284,0.476-0.551,0.5-0.847
			c0.072-0.949,1.103-1.847,0.152-2.858c-0.652-0.693-1.42-0.611-2.167-0.308c-1.295,0.532-1.34,1.674-1.239,2.858
			c0.048,0.562,0.088,1.124,0.128,1.691c0,0,0,0.001,0,0.001C121.429,21.191,120.443,19.578,121.702,19.487z"/>
		<path fill="#F3D151" d="M131.998,24.641c-0.001,0.001-0.002,0.001-0.002,0.001c0.75,1.1,1.24,2.453,2.704,2.865
			c1.234-0.85,1.149-1.975,0.274-2.88C134.119,23.738,132.987,23.678,131.998,24.641z"/>
		<path fill="#F4D35D" d="M90.671,26.242c0.001-0.001,0.001-0.001,0.002-0.002c1.277,0.29,1.961-0.643,2.74-1.371
			c-1.965-1.635-2.145-1.57-3.359,1.188v0C90.26,26.123,90.462,26.185,90.671,26.242z"/>
		<path fill="#F3CE4D" d="M89.67,28.342c-0.176-0.455-0.353-0.906-0.532-1.356c-2.063-0.251-3.006,0.53-2.431,2.704
			C88.063,30.065,88.547,28.482,89.67,28.342z"/>
		<path fill="#F2CE4D" d="M110.042,18.115c-1.564-2.203-2.643-1.962-3.254,0.655c0,0.001-0.001,0.003-0.001,0.004
			C107.938,18.899,109.039,18.748,110.042,18.115z"/>
		<path fill="#F3CF4C" d="M96.507,22.162c-1.183,0.188-1.158,1.101-0.936,2.03h0.001c1.022-0.205,2.047-0.413,3.069-0.62
			C98.47,22.269,97.552,21.995,96.507,22.162z"/>
		<path fill="#F5E667" d="M103.108,19.378c-1.053,0.719-1.716,0.325-2.147-0.759c-0.774,1.302-0.731,2.591-0.131,3.874
			c0.06,0.126,0.117,0.252,0.188,0.378C100.352,20.874,103.221,21.036,103.108,19.378z"/>
		<path fill="#F3D452" d="M128.659,21.892c0.832-0.525,0.907-1.278,0.303-1.909c-0.696-0.729-1.599-0.474-2.426-0.084
			C126.658,21.202,127.435,21.792,128.659,21.892z"/>
		<path fill="#F3D052" d="M116.724,18.701c0.083,0.049,0.155,0.11,0.198,0.199l1.183,0.053c0.141-2.281-0.78-2.644-2.563-1.448
			c0,0.001,0,0.001-0.001,0.003c0.001,0,0.002,0,0.002-0.001C115.938,17.904,116.33,18.302,116.724,18.701z"/>
		<path fill="#F2CD43" d="M103.108,19.378c0.005-0.227,0.022-0.453,0.052-0.676c-0.697-1.051-1.434-1.008-2.199-0.083
			C101.393,19.703,102.056,20.097,103.108,19.378z"/>
		<path fill="#FEFCF3" d="M89.67,28.342c0.312,0.227,0.62,0.457,0.931,0.686c0.269,0.001,0.539,0.001,0.81,0.003
			c0,0,0,0,0.001,0.001c0,0,0.001,0,0.001-0.001c-0.246-0.93-0.493-1.858-0.739-2.789c-0.001,0-0.001,0-0.002,0
			c-0.209-0.057-0.411-0.119-0.617-0.185c-0.001,0-0.001,0-0.002,0c-0.305,0.31-0.611,0.62-0.914,0.929
			C89.317,27.436,89.494,27.888,89.67,28.342z"/>
		<path fill="#F5E868" d="M116.724,18.701c-0.394-0.399-0.786-0.797-1.181-1.194c0,0-0.001,0-0.002,0.001
			c-0.523,0.309-1.268,0.492-0.795,1.385c0.727,0.003,1.449,0.005,2.176,0.008C116.855,18.834,116.79,18.768,116.724,18.701z"/>
		<path fill="#F7F099" d="M126.915,29.249c0.614,0.505,1.184,0.119,1.562-0.514c-1.035,0.145-1.377-0.417-1.355-1.354
			C126.412,27.936,126.157,28.628,126.915,29.249z"/>
		<path fill="#FCF9D5" d="M90.601,29.028c0.169,1.021,0.269,2.085,1.462,2.767c0.199-1.231,0.052-2.074-0.651-2.763
			c-0.001,0-0.001,0-0.001-0.001C91.14,29.029,90.869,29.029,90.601,29.028z"/>
	</g>
</g>
<g id="Calque_4">
	<g id="Calque_2-2">
		<path fill="#C68BA4" d="M45.821,66.373c1.749-0.639,2.809-1.575,3.059-3.71c0.445-3.61,1.632-4.174,5.101-2.83
			c1.307,0.507,1.909-0.021,2.218-0.988c0.735-2.346,2.429-3.743,4.417-4.934c0.667-0.396,1.377-0.824,1.394-1.767
			c0.005-2.373,1.4-3.119,3.517-3.227c3.515-0.174,4.849-2.456,5.156-5.637c1.99-0.354,4.463,0.54,5.579-2.104
			c0.545-1.225,1.678-2.087,3.005-2.289c3.664,0.154,3.597,3.05,4.071,5.543c-1.598,1.92-3.812,3.064-5.744,4.568
			c-3.147,1.766-5.807,4.21-8.75,6.255c-0.876,0.606-1.652,1.35-2.66,1.67c-8.417,6.186-16.753,12.47-25.132,18.706
			c-0.482,0.359-1.066,0.636-1.282,1.274c-2.434-0.38-1.66-2.677-2.436-4.049C39.804,70.22,42.798,68.276,45.821,66.373z"/>
		<path fill="#E61869" d="M70.682,43.281c-0.839-0.481-1.58-1.112-2.186-1.865c-3.283-4.796-7.119-9.208-10.022-14.275
			c-0.54-0.951-1.61-2.762-2.29-2.131c-1.438,1.35-2.98,0.241-4.845,0.847c4.711,3.17,6.148,8.259,9.433,12.172
			c-1.795,0.513-2.747,0.047-3.665-1.188c-2.974-3.853-6.313-7.44-9.1-11.424c-1.655-2.338-2.969-2.927-5.214-0.877l2.801,3.762
			c-2.714-2.242-5.103-4.851-7.097-7.752c-0.506-0.778-1.193-1.859-2.253-1.144c-1.48,0.989-1.469,3.304-0.167,4.59
			c1.071,1.055,2.248,2.004,3.237,3.126c2.201,2.503,5.067,4.258,7.66,6.582c-1.295,0.481-2.021-1.183-2.949-0.2
			c-0.14,0.15,0.356,0.896,0.553,1.367c1.817,0.559,1.312,2.653,2.749,3.461l-0.559,0.417c-0.807-1.197-1.617-2.391-2.422-3.587
			c-0.027-0.013-0.046-0.031-0.075-0.042c-2.143-0.01-2.848-1.643-3.535-3.235c-0.848-1.957-1.813-3.542-4.232-1.986
			c0.127,0.788,1.125,1.173,0.855,2.283c-1.647-2.204-3.056-4.578-4.201-7.08c-0.344-0.693-1.259-1.823-1.607-1.338
			c-0.521,0.726-1.744,1.517-1.178,2.741c0.493,1.036,1.077,2.024,1.748,2.954c1.56,2.158,3.179,4.27,4.769,6.405
			c-2.617-1.623-5.023-3.564-7.162-5.779c-0.825-0.886-1.877-4.217-3.309-0.317c-0.141,0.22-0.381,0.357-0.643,0.366
			c-1.903-0.952-2.738,0.996-4.295,1.425c2.916,2.695,4.414,6.384,7.42,8.792c0.341,0.27,0.895,0.729,0.36,1.313
			c-0.291,0.315-0.689,0.652-1.112,0.218c-2.195-2.27-2.577,0.783-3.431,1.418c-1.132,0.869,0.033,2.131,0.884,2.826
			c7.265,5.98,12.921,13.498,19.39,20.237c0.317,0.279,0.744,0.406,1.164,0.342c2.241-0.286,2.96-1.819,3.344-3.819
			c0.249-1.312,0.595-3.514,2.281-2.916c3.484,1.24,5.019-0.452,6.469-3.043c0.466-0.826,1.422-1.291,2.193-1.867
			c0.701-0.541,1.628-1.031,1.784-1.886c0.487-2.678,2.375-3.306,4.665-3.85C70.286,48.526,71.12,46.937,70.682,43.281z
			 M41.674,38.771c-1.21-1.767-2.831-2.956-3.209-5.576C40.199,34.991,41.533,36.353,41.674,38.771z M27.108,33.095
			c2.452,2.607,5.47,4.396,8.23,6.483c0.37,0.282,1.621,0.573,0.497,1.316c-0.417,0.27-0.668,1.253-1.887,0.362
			C30.959,39.061,29.04,36.089,27.108,33.095z M31.955,47.067c3.896,1.222,9.206,7.588,9.043,10.776
			C37.002,54.864,34.748,50.748,31.955,47.067z M40.566,44.559c2.405,1.4,4.447,3.343,5.963,5.676
			C43.698,49.222,42.3,46.701,40.566,44.559z M46.432,29.069c1.826,1.296,3.377,2.371,4.919,3.48
			c0.406,0.229,0.566,0.732,0.368,1.154c-0.388,0.666-1.073,0.235-1.313-0.033C49.117,32.241,47.374,31.228,46.432,29.069z
			 M48.29,44.736c1.405,0.051,2.044,0.847,2.93,1.555C49.385,46.33,49.385,46.33,48.29,44.736z M55.191,43.556
			c-0.698,0.572-1.3,0.25-1.81-0.353c-1.499-1.765-2.493-3.813-3.521-6.067c2.237,1.169,3.372,3.245,5.076,4.698
			C55.491,42.311,56.011,42.893,55.191,43.556z"/>
	</g>
	<path fill="#363D37" d="M41.932,68.816c0.75,4.155,8.683,5.329,16.096,3.991c7.414-1.336,12.149-4.354,11.399-8.51
		c-0.75-4.155-3.828-6.822-11.242-5.485C50.771,60.15,41.183,64.661,41.932,68.816z"/>
	<path fill="#363D37" d="M90.222,47.895c0.75,4.155,8.683,5.328,16.096,3.991c7.413-1.336,12.148-4.354,11.399-8.51
		c-0.75-4.155-3.829-6.822-11.242-5.485C99.061,39.228,89.472,43.738,90.222,47.895z"/>
	<path fill="#555B56" d="M34.947,120.028c2.557,1.52,6.212-1.095,8.298-4.601c2.086-3.507,2.235-6.691-0.321-8.212
		c-2.556-1.521-5.184-1.473-7.269,2.034C33.568,112.756,32.39,118.507,34.947,120.028z"/>
	<path fill="#555B56" d="M129.153,42.489c0.198-2.968-3.787-5.043-7.858-5.318c-4.07-0.273-6.978,1.035-7.177,4.003
		c-0.2,2.967,1.032,5.289,5.104,5.563C123.292,47.01,128.953,45.458,129.153,42.489z"/>
	<path fill="#363D37" d="M43.269,109.863c1.864,1.107,4.113-0.101,5.222-1.964c1.108-1.864,0.934-3.708-0.93-4.816
		c-1.863-1.107-3.639-1.308-4.748,0.556C41.704,105.503,41.405,108.754,43.269,109.863z"/>
	<path fill="#555B56" d="M57.041,77.858c1.864,1.107,4.113-0.101,5.222-1.964c1.108-1.864,0.935-3.708-0.93-4.816
		c-1.863-1.107-3.639-1.308-4.748,0.556C55.477,73.498,55.177,76.749,57.041,77.858z"/>
	<path fill="#777162" d="M56.721,70.891c-2.973-2.1-7.977,1.15-11.148,5.639c-3.172,4.486-3.861,8.642-0.888,10.742
		c2.973,2.102,6.282,2.157,9.454-2.33C57.311,80.453,59.694,72.993,56.721,70.891z"/>
	<path fill="#5E5E5E" d="M76.553,49.343c-2.973-2.1-7.977,1.15-11.147,5.638c-3.173,4.486-3.861,8.642-0.889,10.743
		c2.973,2.101,6.282,2.157,9.454-2.331C77.143,58.905,79.526,51.445,76.553,49.343z"/>
	<path fill="#777162" d="M52.245,90.955c-1.862-1.316-5.471,1.393-7.928,4.87c-2.458,3.477-3.215,6.539-1.353,7.854
		c1.861,1.316,4.094,1.125,6.552-2.353C51.974,97.85,54.107,92.271,52.245,90.955z"/>
</g>
<g id="Calque_5">
	<g id="Calque_2_7_">
		<g id="Calque_3_1_">
			<path fill="#EFDF14" d="M79.178,9.321c1.112-0.799,0.986-2.263,2.169-3.263c4.935-4.169,5.571-4.109,8.33,2.167
				c-0.442,0.919,0.049,1.742,0.248,2.589c-0.008,0.44-0.085,0.875-0.227,1.292c-0.674,1.468,0.305,2.37,1.147,3.32
				c0.754,0.896,1.414,1.866,1.972,2.895c0.847,1.451,1.289,3.102,1.284,4.782c0.054,0.948,0,1.899-0.164,2.834
				c-0.366,3.083,2.97,4.953,2.379,8.288c-0.6,4.521-2.979,8.616-6.611,11.374c-0.77,0.125-1.531-0.259-1.886-0.953
				c-0.447-1.324,0.529-2.425,0.582-3.661c4.124-6.002,0.866-10.471-3.051-14.799c-1.099-1.991-0.853-4.452,0.618-6.187
				c0.569-1.94-0.71-3.603-0.843-5.438c-0.1-0.506-0.374-0.955-0.474-1.461c-0.138,0.75,0.566,1.268,0.544,1.984
				c0.129,1.431,0.922,2.73,0.831,4.214c-1.206,2.373-2.346,4.753-0.48,7.33c3.566,3.817,6.494,7.782,3.378,13.301
				c-1.265,1.519-0.849,5.793-4.796,2.926c-1.056-1.587-1.619-3.454-1.616-5.362c-0.005-0.989,0.172-1.97,0.523-2.894
				c0.331-1.04,0.494-2.045-0.559-2.834c-1.173-0.655-2.105-1.668-2.661-2.89c-0.388-1.019-0.79-2.121-1.276-3.142
				c-0.479-1.338-0.488-2.799-0.028-4.143c0.114-0.452,0.257-0.897,0.427-1.332c1.014-1.908,0.137-3.573-0.704-5.236
				C77.595,12.95,76.902,10.887,79.178,9.321z"/>
			<path fill="#EFDF14" d="M60.561,21.652c-1.18-1.869-2.633-3.86-0.646-5.882c1.104-1.116,2.897-2.291,4.021,0.301
				c0.405,0.484,0.749,1.015,1.025,1.583c0.648,1.13,1.883,1.839,1.991,3.219c0.007,1.073,0.329,2.121,0.923,3.014
				c1.436,1.562,2.706,3.266,3.794,5.085c0.312,0.355,0.604,0.734,0.906,1.092c1.748,1.987,3.278,4.137,5.026,6.123
				c0.341,0.393,0.651,0.802,0.954,1.225c1.534,2.226,1.985,4.905,2.971,7.349c0.408,1.015,0.632,2.208-0.29,2.969
				c-1.184,0.99-2.316,0.129-3.392-0.545c-2.769-1.829-3.021-5.6-5.725-7.496c-4.862-1.724-6.854-5.665-7.827-10.377
				C62.503,27.06,62.796,23.718,60.561,21.652z"/>
			<path fill="#EFDF14" d="M67.861,7.667c-0.135-0.149-0.124-0.38,0.025-0.516c0.032-0.03,0.069-0.053,0.111-0.069
				c2.285-1.95,2.904,0.522,4.099,1.523c0.659,0.726,1.192,1.556,1.579,2.458c1.145,2.587,0.143,5.608,1.666,8.11
				c0.237,0.407,0.441,0.831,0.61,1.27c1.029,2.61,1.083,5.49,2.153,8.082l0.764,1.097c0.923,1.241,2.072,2.349,2.401,3.905
				c0.034,1.297,0.389,2.566,1.034,3.692c0.398,0.859,0.422,1.846,0.066,2.724c-0.299,0.374-0.74,0.607-1.219,0.646
				c-2.024-0.608-2.474-2.883-4.055-3.907l0,0c-1.573-2.426-2.346-5.569-5.669-6.544l0,0c-1.084-2.775-2.49-5.409-3.164-8.33
				c-0.268-1.743-1.454-3.205-1.535-5.006C67.482,13.905,67.082,10.711,67.861,7.667z"/>
			<path fill="#EFDF14" d="M94.457,49.217c1.84-0.045,4.243-1.013,4.624,1.911c0.424,3.2-2.54,2.22-4.04,2.603
				c-4.453,1.12-9.019,1.779-13.491,2.857c-1.871,0.446-4.08,1.9-5.413,0.303c-1.19-1.374-0.248-3.64,0.785-5.344
				c0.611-1.038,1.605-1.795,2.769-2.112c1.693-0.41,3.698,0.103,4.903-1.722c1.064-0.987,2.138-1.986,3.755-1.834
				c1.179,0.251,2.278,0.785,3.207,1.556C92.434,48.171,93.536,48.544,94.457,49.217z"/>
			<path fill="#EFDF14" d="M73.107,11.46l-1.456-1.836c0.005-2.529-1.674-4.158-3.112-5.954c1.975-4.035,4.287-2.247,6.246-0.138
				c1.165,1.512,2.173,3.14,3.006,4.858c0.094,2.581,0.527,5.138,1.291,7.604c0.916,1.549,1.033,3.444,0.314,5.094l0,0
				c-0.971,1.79-1.43,3.566-0.161,5.505c0.267,0.713,0.361,1.478,0.275,2.234c-0.239,0.781-0.593,1.431-1.587,1.276l0,0
				c-2.078-3.103-0.932-7.171-3.115-10.244l0,0C72.29,17.466,75.261,13.936,73.107,11.46z"/>
			<path fill="#EFDF14" d="M79.66,50.34c-0.679,0.814-1.698,1.265-2.759,1.222c-4.449-5.021-11.237-7.919-13.486-14.996
				c-0.323-1.031-1.282-1.672-0.075-2.601c0.918-0.893,1.968-1.122,2.556,0.031c1.388,2.924,4.17,3.995,6.662,5.474
				C74.517,43.353,78.533,45.9,79.66,50.34z"/>
			<path fill="#EFDF14" d="M94.457,49.217c-1.299,0.518-2.663,1.312-3.424-0.715c-1.108-2.562,0.761-4.354,1.798-6.254
				c1.036-1.901,2.262-3.402,2.388-5.704c0.214-3.578,1.962-2.653,3.712-0.94c3.135,3.354,0.316,5.99-0.894,8.845
				c-0.934,0.563-1.532,1.548-1.603,2.637L94.457,49.217z"/>
			<path fill="#EFDF14" d="M94.236,8.869c1.672-0.078,1.537,1.624,2.364,2.38c-0.249,2.238,1.24,4.232,0.541,6.461l-0.876,1.113
				c-1.003,1.292-2.089,0.894-3.188,0.147c-0.925-0.978-1.031-2.511-2.2-3.331c-1.166-1.139-3.717-1.807-1.422-4.098l0,0
				C90.915,10.444,92.834,10.131,94.236,8.869z"/>
			<path fill="#7CB928" d="M98.924,35.617c-1.036,0.302-2.735-2.208-2.987,0.731c-0.399,4.577-3.508,8.025-4.912,12.167
				l-2.443-2.068c-0.022-0.665,0.567-0.89,0.917-1.276c1.058-1.587,2.288-3.111,3.273-4.663c2.217-3.524,4.085-7.374,0.582-11.477
				c-0.639-0.749-2.806-2.018-0.042-3.046c1.81,0.738,2.596,2.39,3.701,3.78c0.354,0.569,0.617,1.19,0.778,1.839L98.924,35.617z"/>
			<path fill="#7CB928" d="M72.152,39.911c-4.246-0.049-4.976-5.301-8.831-5.921l1.571-3.473c-0.359-0.191-0.489-0.407-0.39-0.645
				c0.086-0.225,0.183-0.354,0.298-0.376c1.788,3.905,3.456,7.922,8.249,9.077C73.659,39.614,73.19,39.958,72.152,39.911z"/>
			<path fill="#EFDF14" d="M97.8,31.591l-1.377-0.878c0.717-2.966-0.928-5.706-0.768-8.606c0.325-0.38,0.886-0.458,1.3-0.18
				C100.309,24.89,101.229,28.057,97.8,31.591z"/>
			<path fill="#7CB928" d="M67.861,7.667l-0.187,9.21c-0.449,0.676-1.134,1.162-1.92,1.364c-0.809,0.124-1.636-0.074-2.299-0.554
				l0.528-1.593c2.332,0.219,2.801-1.34,2.812-3.116C66.808,11.203,66.497,9.239,67.861,7.667z"/>
			<path fill="#7CB928" d="M68.545,3.702c3.158,0.855,4.868,2.478,3.112,5.954C70.14,9.232,70.233,6.489,68,7.093L68.545,3.702z"/>
			<path fill="#EFDF14" d="M96.984,21.911l-1.127,0.222c-0.968,0.64-1.898,1.47-3.16,0.624c0.727-1.588-0.553-2.802-0.831-4.214
				c0.245-0.585,0.609-0.624,1.054-0.208l3.272,0.449L96.984,21.911z"/>
			<path fill="#7CB928" d="M64.817,29.471c0.052,0.339,0.083,0.679,0.092,1.022c-2.653-2.355-3.422-5.642-4.349-8.841
				C63.327,23.525,63.503,26.862,64.817,29.471z"/>
			<path fill="#7CB928" d="M78.351,15.844c-0.203-2.478-1.842-4.847-0.613-7.442l1.44,0.919c-0.911,2.15-0.256,4.254,0.157,6.351
				c-0.145,0.305-0.51,0.436-0.814,0.29C78.457,15.933,78.399,15.893,78.351,15.844z"/>
			<path fill="#7CB928" d="M94.236,8.869c-0.908,2.161-2.926,2.307-4.831,2.639c-0.22-1.117-0.664-2.255,0.261-3.335
				C90.755,11.635,92.748,8.473,94.236,8.869z"/>
			<path fill="#7CB928" d="M97.142,17.71c-0.174-2.156-1.509-4.212-0.541-6.461C97.107,13.371,98.874,15.397,97.142,17.71z"/>
			<path fill="#7CB928" d="M96.444,47.084c-0.775-1.664-0.299-2.458,1.604-2.636C98.246,45.603,97.562,46.729,96.444,47.084z"/>
			<path fill="#7CB928" d="M92.678,22.826c1.122,0.14,1.867-1.638,3.16-0.624c1.636,2.743,3.615,5.45,0.588,8.521l-3.124-4.736
				C93.092,24.923,92.886,23.88,92.678,22.826z"/>
			<path fill="#7CB928" d="M88.483,39.909c2.726-5.551-0.32-9.504-3.73-13.363c0.248-0.574,0.596-0.643,1.054-0.208
				c6.224,6.084,6.729,8.645,2.893,14.667c-0.34-0.174-0.494-0.396-0.446-0.657C88.3,40.086,88.389,39.927,88.483,39.909z"/>
			<path fill="#7CB928" d="M77.864,30.083l0.847-1.262c0.395-0.683,1.271-0.915,1.952-0.52c0.054,0.033,0.106,0.066,0.155,0.105
				c0.139,1.647,1.832,1.74,2.714,2.66c0.209,1.053,0.416,2.107,0.624,3.162l-0.639,2.314c-0.236,0.419-0.74,0.606-1.193,0.444
				c-0.853-0.854-1.391-1.971-1.522-3.17L77.864,30.083z"/>
			<path fill="#7CB928" d="M82.459,36.729l1.055-0.208c0.415,2.107,0.831,4.214,1.236,6.269c-0.367,0.369-0.896,0.527-1.406,0.419
				c-1.231-0.698-2.123-1.552-1.35-3.126l-0.623-3.161c0.178-0.343,0.599-0.475,0.941-0.297
				C82.366,36.654,82.416,36.688,82.459,36.729z"/>
			<path fill="#EFDF14" d="M89.508,45.157l-0.919,1.276c-1.434,0.283-2.174,2.027-3.839,1.852l-0.679-0.446
				c-0.875-1.043-1.06-2.5-0.474-3.728c1.556-0.164,3.086,0.486,4.645,0.179L89.508,45.157z"/>
			<path fill="#7CB928" d="M88.246,44.312c-1.491,0.765-2.96,1.087-4.339-0.238c-0.317-0.253-0.406-0.7-0.207-1.054l1.055-0.208
				c2.927,1.185,2.501-1.917,3.735-2.925c0.073,0.369,0.144,0.727,0.207,1.053L88.246,44.312z"/>
			<path fill="#7CB928" d="M85.826,26.322l-1.054,0.208c-1.22-2.408-1.665-4.718,0.797-6.724c0.249-0.575,0.6-0.622,1.053-0.208
				C85.644,21.794,84.832,23.947,85.826,26.322z"/>
			<path fill="#7CB928" d="M78.351,15.844l1.055-0.208c2.331,1.828,1.964,3.63-0.015,5.476
				C79.01,19.348,78.676,17.597,78.351,15.844z"/>
			<path fill="#7CB928" d="M84.583,14.637c-1.58-1.681-1.618-3.26,0.708-5.011l0.315,4.82
				C85.351,14.978,85.013,15.045,84.583,14.637z"/>
			<path fill="#7CB928" d="M89.355,11.528c-0.941,2.057,0.993,2.759,1.885,4.007c-0.175,0.336-0.591,0.467-0.928,0.293
				c-0.045-0.024-0.088-0.053-0.126-0.085C87.857,14.703,86.188,13.565,89.355,11.528z"/>
			<path fill="#7CB928" d="M84.583,14.637l1.054-0.208c0.058,1.795,1.865,3.244,1.028,5.215l-1.054,0.208L84.583,14.637z"/>
			<path fill="#7CB928" d="M90.181,15.711l1.053-0.207c2.838-0.319,1.026,1.986,1.677,2.952l-1.054,0.208L90.181,15.711z"/>
			<path fill="#7CB928" d="M78.296,26.714c-0.399-2.023-1.156-4.085,1.082-5.61c-0.064,1.446-0.139,2.906-0.235,4.359
				C79.762,26.49,79.282,26.782,78.296,26.714z"/>
			<path fill="#7CB928" d="M84.109,34.269c-1.566-0.786-1.733-1.847-0.624-3.161C85.029,31.888,85.25,32.95,84.109,34.269z"/>
			<path fill="#7CB928" d="M78.296,26.714l0.845-1.262c1.355,0.542,1.387,1.817,1.678,2.953l-2.107,0.415L78.296,26.714z"/>
			<path fill="#7CB928" d="M72.152,39.911l0.914-1.362c3.588,1.93,2.737,7.724,8.142,8.815L77,36.744
				c2.028,0.4,2.811,2.205,3.994,3.591c1.15,2.619,1.751,5.5,3.557,7.825l0.204,0.146c-0.241,4.328-3.511,1.075-5.062,2.093
				C77.522,46.603,73.563,44.176,72.152,39.911z"/>
			<path fill="#7CB928" d="M69.518,20.892l1.854,9.399c-1.313-2.39-4.037-3.813-4.605-6.699
				C66.296,21.265,67.615,20.797,69.518,20.892z"/>
			<path fill="#7CB928" d="M71.375,30.256c4.595-0.183,5.077,3.203,5.669,6.544C74.516,35.133,73.268,32.412,71.375,30.256z"/>
			<path fill="#7CB928" d="M69.518,20.892l-2.746,2.731c-1.191-0.499-1.331-1.205-0.416-2.107c1.328-1.707-1.527-2.588-0.831-4.214
				l2.108-0.417L69.518,20.892z"/>
			<path fill="#7CB928" d="M65.57,17.303c0.8,1.288,2.466,2.404,0.832,4.215l-2.94-3.799L65.57,17.303z"/>
			<path fill="#EFDF14" d="M84.536,48.142c-3.434-1.588-4.094-4.436-3.558-7.826l1-0.197l1.678,2.954l0.207,1.053L84.536,48.142z"/>
			<path fill="#7CB928" d="M73.107,11.46c3.186,2.272,0.104,5.792,1.663,8.429C71.783,17.566,73.672,14.261,73.107,11.46z"/>
			<path fill="#7CB928" d="M74.746,19.817c2.82,2.87,1.936,6.875,3.114,10.244C75.049,27.179,75.935,23.184,74.746,19.817z"/>
			<path fill="#7CB928" d="M82.459,36.729l-1.053,0.208c-1.546-0.79-1.744-1.845-0.623-3.161
				C82.141,34.329,82.161,35.605,82.459,36.729z"/>
		</g>
	</g>
	<path fill="#777162" d="M100.809,54.12c-0.223-2.269-4.632-3.226-8.871-2.809c-4.237,0.417-7.048,1.848-6.824,4.117
		c0.223,2.269,1.829,3.833,6.066,3.415C95.418,58.427,101.032,56.39,100.809,54.12z"/>
</g>
<g id="Calque_2">
	<g id="Calque_2_1_">
		<g id="Calque_1-2_2_">
			<path fill="#7CB928" d="M42.016,76.831c-2.486-1.428-4.292-2.617-7.009-2.947c-3.16-0.395-6.228-0.191-9.334-0.293
				c-0.875-0.103-1.748,0.205-2.365,0.836c-0.893,0.927-2.187,1.009-3.337,1.336c-1.151,0.327-2.491,0.611-3.149-0.857
				c-0.426-0.967,1.158-3.019,2.403-3.293c2.894-0.598,5.787-1.213,8.763-1.275c0.456-0.072,0.899-0.204,1.32-0.395l0.296-0.603
				c-3.016-1.476-6.022-2.921-8.996-4.461c-1.859-0.977-1.888-1.581-0.716-3.04c0.733-0.892,1.321-0.822,2.226-0.234
				c2.316,1.505,4.695,2.889,7.068,4.325c0.272,0.163,0.693,0.367,0.907,0.266c0.417-0.202,0.266-0.681,0.214-1.081
				c-0.319-2.506-1.329-4.276-4.146-4.77c-2.604-0.486-4.963-1.849-6.688-3.858c-0.676-0.756-1.547-1.659-0.537-2.845
				c1.011-1.186,2.045-0.496,2.926-0.016c1.402,0.788,2.664,1.821,4.022,2.69c0.521,0.438,1.213,0.61,1.877,0.465
				c-1.912-2.506-3.708-4.899-5.552-7.253c-0.632-0.807-1.552-1.618-0.787-2.633c0.766-1.013,1.902-0.525,2.69,0.103
				c0.888,0.704,1.131-0.05,1.575-0.471c1.759-1.526,3.296-1.667,4.459-0.444c0.629,0.671,1.003,1.417,0.045,2.021
				c-1.237,0.889-0.636,1.919-0.338,2.916c0.369,1.349,1.208,0.209,1.801,0.283c0.89,0.107,1.764,0.159,2.454,0.759
				c0.899,0.753,1.975,1.063,3.492,1.533c-1.857-3.505-2.356-7.142-3.926-10.415c-0.375-0.737-0.883-2.006-0.059-2.063
				c1.261-0.085,2.387-2.065,3.788-0.39c0.538,0.695,0.923,1.496,1.13,2.349c1.015,3.468,2.07,6.93,3.125,10.459
				c0.693-0.567,1.212-1.317,1.499-2.165c1.25-2.998,2.975-5.741,4.685-8.479c0.966-1.55,2.83-1.872,4.541-1.477
				c1.384,0.325,1.763,1.593,1.003,2.725c-1.099,1.651-1.978,3.564-4.053,4.357c-0.442,0.177-0.801,0.514-1.006,0.944
				c-1.153,2.877-2.7,5.698-3.228,8.688c-0.527,2.989-1.103,6.363,0.692,9.366c0.266,0.445,0.226,1.16,0.884,1.234
				c0.537,0.058,0.854-0.501,1.025-0.878c0.856-2.062,3.437-2.601,4.131-4.841c0.277-0.898,0.792-1.663,0.401-2.696
				c-0.31-0.834-0.125-1.68,0.811-1.997c0.87-0.26,1.428,0.126,1.881,1.021c1.522,3.031,0.777,6.583-2.062,9.161
				c-2.64,2.393-3.229,4.99-1.779,7.242c1.338,2.067,2.511,4.245,3.911,6.268c0.872,1.255,0.312,2.007-0.574,2.747
				c-0.974,0.819-1.956,1.871-3.344,0.698c-1.229-1.027-2.421-2.1-3.626-3.159c-2.408-2.114-4.554-2.202-7.47-0.988
				c-2.694,1.123-5.548,1.537-8.13-0.6c-0.632-0.52-0.94-1.007-0.585-1.684c0.356-0.677,0.986-0.663,1.603-0.38
				c2.173,1.024,4.114,0.556,6.046-0.708C39.659,77.477,40.643,77.319,42.016,76.831z"/>
		</g>
	</g>
	<g id="Calque_2_2_">
		<g id="Calque_1-2_1_">
			<path fill="#D36713" d="M35.521,91.82c-2.861,0.18-5.023,0.183-7.473,1.404c-2.854,1.411-5.302,3.271-7.95,4.899
				c-0.787,0.396-1.346,1.134-1.513,2c-0.234,1.266-1.269,2.048-2.048,2.954c-0.781,0.908-1.743,1.883-3.101,1.021
				c-0.888-0.572-0.697-3.158,0.191-4.072c2.084-2.094,4.16-4.202,6.609-5.894c0.341-0.312,0.638-0.666,0.884-1.057l-0.085-0.665
				c-3.33,0.429-6.635,0.881-9.965,1.234c-2.089,0.209-2.447-0.279-2.272-2.144c0.12-1.146,0.648-1.413,1.728-1.422
				c2.762-0.02,5.509-0.176,8.281-0.285c0.317-0.014,0.781-0.076,0.903-0.278c0.236-0.397-0.153-0.714-0.417-1.021
				c-1.647-1.914-3.466-2.836-6.088-1.695c-2.44,1.03-5.16,1.193-7.707,0.466c-0.98-0.258-2.205-0.53-2.016-2.077
				c0.19-1.547,1.434-1.541,2.434-1.626c1.604-0.115,3.227,0.052,4.839,0.028c0.675,0.079,1.348-0.159,1.822-0.646
				c-2.976-1.038-5.794-2.045-8.63-2.994c-0.973-0.324-2.188-0.495-2.108-1.763c0.082-1.267,1.299-1.485,2.302-1.397
				c1.13,0.098,0.916-0.665,1.056-1.26c0.626-2.244,1.831-3.208,3.475-2.829c0.895,0.214,1.618,0.63,1.152,1.662
				c-0.542,1.422,0.526,1.951,1.325,2.619c1.051,0.922,1.124-0.492,1.658-0.757c0.801-0.401,1.56-0.841,2.466-0.719
				c1.166,0.133,2.233-0.201,3.759-0.646c-3.481-1.9-5.902-4.66-9.016-6.526c-0.719-0.408-1.842-1.188-1.186-1.689
				c1.005-0.766,0.854-3.038,2.946-2.412c0.832,0.282,1.595,0.738,2.237,1.336c2.758,2.335,5.546,4.642,8.373,7.006
				c0.265-0.854,0.285-1.768,0.057-2.634c-0.608-3.189-0.681-6.429-0.763-9.656c-0.048-1.825,1.33-3.121,2.975-3.733
				c1.333-0.492,2.348,0.357,2.338,1.721c-0.007,1.983,0.314,4.064-0.98,5.869c-0.271,0.392-0.386,0.87-0.319,1.342
				c0.624,3.036,0.888,6.244,2.095,9.03c1.207,2.784,2.586,5.916,5.739,7.434c0.468,0.225,0.828,0.843,1.417,0.543
				c0.48-0.248,0.437-0.889,0.372-1.297c-0.422-2.193,1.435-4.064,0.78-6.317c-0.264-0.901-0.255-1.823-1.151-2.471
				c-0.718-0.524-1.029-1.333-0.424-2.113c0.583-0.696,1.261-0.682,2.132-0.184c2.941,1.689,4.277,5.063,3.328,8.78
				c-0.884,3.451,0.056,5.942,2.507,7.022c2.255,0.988,4.435,2.159,6.718,3.075c1.419,0.567,1.365,1.503,1.035,2.609
				c-0.362,1.221-0.602,2.639-2.406,2.426c-1.592-0.18-3.177-0.418-4.767-0.639c-3.174-0.437-5.013,0.673-6.777,3.292
				c-1.629,2.423-3.783,4.34-7.115,3.98c-0.814-0.086-1.339-0.321-1.416-1.083c-0.076-0.76,0.458-1.097,1.128-1.2
				c2.377-0.343,3.739-1.804,4.654-3.923C33.91,93.657,34.645,92.985,35.521,91.82z"/>
		</g>
	</g>
	<g id="Calque_2_3_">
		<g id="Calque_1-2_3_">
			<path fill="#EE7212" d="M38.083,85.106c-2.791-0.656-4.862-1.279-7.56-0.817c-3.14,0.526-6.021,1.6-9.027,2.391
				c-0.868,0.152-1.616,0.697-2.026,1.479c-0.59,1.144-1.807,1.593-2.815,2.235c-1.009,0.644-2.212,1.299-3.263,0.079
				c-0.685-0.803,0.245-3.223,1.36-3.842c2.601-1.402,5.196-2.819,8.031-3.729c0.416-0.201,0.803-0.455,1.151-0.757l0.11-0.663
				c-3.312-0.551-6.605-1.074-9.896-1.699c-2.061-0.402-2.262-0.974-1.556-2.707c0.446-1.064,1.03-1.166,2.065-0.862
				c2.649,0.778,5.325,1.426,8.01,2.121c0.308,0.079,0.77,0.154,0.945-0.005c0.341-0.313,0.06-0.729-0.105-1.097
				c-1.023-2.31-2.498-3.718-5.337-3.383c-2.634,0.278-5.285-0.351-7.514-1.783c-0.863-0.531-1.957-1.146-1.328-2.572
				c0.629-1.426,1.817-1.06,2.799-0.854c1.569,0.354,3.075,0.984,4.625,1.428c0.624,0.27,1.337,0.237,1.931-0.093
				c-2.549-1.853-4.955-3.631-7.396-5.36c-0.836-0.592-1.95-1.105-1.506-2.297c0.443-1.189,1.672-1.047,2.607-0.672
				c1.052,0.419,1.069-0.371,1.375-0.901c1.249-1.966,2.68-2.541,4.145-1.703c0.795,0.463,1.367,1.071,0.623,1.923
				c-0.931,1.206-0.061,2.021,0.51,2.891c0.739,1.188,1.218-0.145,1.806-0.244c0.883-0.152,1.736-0.353,2.568,0.024
				c1.077,0.464,2.196,0.454,3.785,0.469c-2.783-2.825-4.302-6.168-6.744-8.854c-0.57-0.599-1.42-1.669-0.646-1.96
				c1.184-0.443,1.696-2.662,3.518-1.458c0.714,0.512,1.313,1.169,1.755,1.927c1.966,3.032,3.967,6.047,5.989,9.127
				c0.501-0.741,0.785-1.608,0.817-2.504c0.34-3.229,1.207-6.353,2.061-9.465c0.481-1.762,2.176-2.603,3.928-2.715
				c1.418-0.084,2.145,1.022,1.741,2.324c-0.581,1.897-0.875,3.982-2.636,5.335c-0.373,0.296-0.621,0.721-0.694,1.191
				c-0.281,3.086-0.955,6.234-0.605,9.249c0.351,3.016,0.765,6.413,3.344,8.776c0.382,0.352,0.549,1.047,1.2,0.93
				c0.531-0.1,0.675-0.724,0.731-1.135c0.229-2.22,2.548-3.476,2.572-5.821c0.009-0.94,0.282-1.818-0.387-2.698
				c-0.536-0.711-0.6-1.573,0.205-2.146c0.759-0.498,1.403-0.288,2.094,0.439c2.327,2.469,2.629,6.085,0.647,9.368
				c-1.844,3.05-1.666,5.706,0.368,7.448c1.875,1.6,3.622,3.349,5.542,4.887c1.195,0.952,0.873,1.832,0.236,2.796
				c-0.698,1.063-1.338,2.353-3.004,1.626c-1.472-0.632-2.921-1.317-4.379-1.988c-2.913-1.337-4.993-0.806-7.44,1.191
				c-2.26,1.849-4.876,3.062-7.961,1.753c-0.755-0.316-1.189-0.694-1.043-1.446c0.148-0.75,0.756-0.917,1.428-0.822
				c2.375,0.358,4.101-0.645,5.59-2.409C36.01,86.399,36.907,85.968,38.083,85.106z"/>
		</g>
	</g>
	<path fill="#555B56" d="M53.414,87.066c1.864,1.107,4.114-0.101,5.222-1.964c1.108-1.864,0.935-3.708-0.93-4.816
		c-1.863-1.108-3.639-1.308-4.748,0.556C51.85,82.706,51.55,85.957,53.414,87.066z"/>
	<path fill="#555B56" d="M100.268,56.01c1.863,1.108,4.113-0.1,5.221-1.963c1.109-1.865,0.935-3.708-0.929-4.817
		c-1.863-1.108-3.64-1.308-4.748,0.556C98.702,51.649,98.403,54.9,100.268,56.01z"/>
	<path fill="#363D37" d="M47.009,99.739c2.557,1.52,6.212-1.095,8.298-4.601c2.086-3.507,2.235-6.691-0.321-8.212
		c-2.556-1.521-5.184-1.473-7.269,2.034C45.63,92.467,44.452,98.218,47.009,99.739z"/>
	<path fill="#777162" d="M62.459,76.899c2.557,1.52,6.213-1.095,8.298-4.602c2.085-3.506,2.235-6.69-0.321-8.211
		c-2.556-1.521-5.184-1.473-7.27,2.033C61.081,69.627,59.902,75.378,62.459,76.899z"/>
	<path fill="#363D37" d="M74.624,62.617c1.894,2.292,6.217,1.066,9.364-1.529c3.148-2.596,4.364-5.543,2.472-7.837
		c-1.893-2.295-4.383-3.138-7.529-0.542S72.731,60.32,74.624,62.617z"/>
</g>
</svg>
