<?xml version="1.0" encoding="utf-8"?>
<!-- Generator: Adobe Illustrator 24.2.0, SVG Export Plug-In . SVG Version: 6.00 Build 0)  -->
<svg version="1.1" id="Calque_1" xmlns="http://www.w3.org/2000/svg" xmlns:xlink="http://www.w3.org/1999/xlink" x="0px" y="0px"
	 viewBox="0 0 500 500" style="enable-background:new 0 0 500 500;" xml:space="preserve">
<style type="text/css">
	.st0{fill:#9F6FDD;}
	.st1{fill:#CCC0DD;}
	.st2{fill:#572B9E;}
	.st3{fill:#FFFFFF;}
</style>
<path class="st0" d="M113.2,363.4c15.6,8.3,32.5,14.1,49.9,17.3c6.9,47,55.5,85.8,100.6,92.2c-44.5-65-46.3-125,31.4-162
	c-35.3-20.5-88.3-9.1-114.5,22.2c-4.5,6.8-42.2-9.3-52.1-10.6c-39.2-11.5-44.2-20.3-23.2-56.9c19.8-39,127.9-205.8,102.1-204.6
	c-2.4,0.1-4.1-0.5-5.5-2.4c-10.8-14.2-26.2-20.9-42.7-25c-27.1-5.1-58.8-9.9-85.3-2.9c16.5,3.5,57.5,14.2,30.7,35.4
	c-4.5,1.5-1,7-3.8,9.9c-3.2,5.8-10.6,4.9-14.9,8.5c-2.4,4.9-6.7,6.8-11.6,7.5c-7.1,1.6-7.2,12.4-16.2,12.1c-7.1-0.2-2,11.1-9.8,12.5
	c-3.7,1.2-8.3,0.4-8.2,6c-0.4,7.5-12.1,5.9-11.6,13.3c0,6.8-11.3,8.3-10,13.5c0.6,2.9-1.5,5.4-4.5,6c-11,1.2,2.8,13.1-6.1,15.9
	c-9.8,2.5,7.6,10.6-6.7,20.7c0.8,6.8,6.5,11.4,0.7,19c-3.4,5.4,3,4.9,4,9.4c-3.6,16.5,4.9,15.2,2.7,24.7c-2,6.1,8.6,6.9,7.6,19.2
	c1.7,27.8,11.2,53.2,38.4,64.7c11.1,7.4,13.3,22.7,21.7,31.7c3.8-0.7,5.2,2.2,7,4.5c14.9,15.8,31.2,33.8,51.4,41.1
	C137.8,391.4,113.2,377.7,113.2,363.4z"/>
<path class="st1" d="M259.1,163.8C141,204.1,95.4,250.1,98.5,309.7c-2.7-2.1-33.4-14.1-34.4-16.6c-1.4-3.4-23.3-22.3-24.6-25.7
	c0-191.2,182.4-174.9,193.7-174.5c2.5,0.1,42.7,25.7,74.5,40.4c12.2,5.7,36.1,10.3,37.1,10.5C400.6,156.5,261.1,161.8,259.1,163.8z"
	/>
<path class="st2" d="M58.5,288.4C19.1,174.8,131.7,94.3,235.6,97c7,2.2,44.3,35.6,92.9,39.9c72.3,6.4,182.4-8.8,169.6-24.9
	c-2.8-3.6-30.6-8.1-87.6,2.6c-12.3,2.3-45.5-1.2-59-6c-22.8-8.1-43.6-18.8-57.3-28c-24.2-16.2-42.5-17.2-44.3-17.7
	C139.8,37.1-67.9,186.2,58.5,288.4z"/>
<path class="st2" d="M50.4,329c34.8,17.5,73.4,47.1,112.8,51.7c16-6.6,15-34.1,7-42.1c-21-7.7-43.5-11.6-64.2-20.4
	c-33-11.8-69.1-34.4-90.8-61.7C15.1,270.6,18.4,312.9,50.4,329z"/>
<path d="M299.9,123.3c8-0.3,13.9-3,18.1-9.3c4.6-6.9,0-14.1-6-16.8c-6.4-2.8-12.2-1.9-17.7,2c-2.1,1.5-4.5,3-6,5
	c-4,5.2-1.6,10.6,1.2,15.2C291.8,123.1,296.5,123.1,299.9,123.3z M293.1,112.1c-0.1-4.9,5-9.4,11.1-9.7c3.3-0.2,7.6,4.1,7.3,7.4
	c0,0.8-0.3,1.6-0.8,2.3c-2.8,2.9-5.9,5.4-10.1,5.7C297.6,118,293.1,114.6,293.1,112.1z"/>
<path class="st0" d="M224,139.2c-22.9-0.3-44.5,3.8-66.7,9.6c4,1.1,7.2,2,10.4,2.9c9.4,2.5,18.2,6,25,13.6c3.6,4,3.9,3.6,8.4,0.9
	c4-2.4,7.1-6,8.8-10.3c2.3-5.4,6-10.1,10.7-13.6C221.6,141.4,222.6,140.5,224,139.2z"/>
<path class="st3" d="M293.1,112.1c0.1,2.5,4.5,5.9,7.5,5.7c4.3-0.3,7.3-2.8,10.1-5.7c0.5-0.7,0.8-1.4,0.8-2.3c0.3-3.3-4-7.6-7.3-7.4
	C298.1,102.7,292.9,107.3,293.1,112.1z M298.1,111.2c0.2-2.8,2.5-5.1,5.3-5.2c2.5,0,4,1.2,4,3.9c0,2.8-2.3,5.2-5.2,5.2h-0.1
	C299.6,115.1,298.1,113.9,298.1,111.2L298.1,111.2z"/>
<path d="M298,111.2c0.1,2.7,1.6,3.8,4.1,3.8c2.8,0,5.2-2.2,5.2-5.1v-0.1c0-2.7-1.5-3.9-4-3.9C300.6,106.1,298.3,108.4,298,111.2z"/>
<path class="st0" d="M242,69.8c-3.3,7-5.7,14.3-7.1,21.9c-0.2,1-0.4,1.9-0.5,2.8l-0.4,2.9c-0.3,1.9-0.3,3.8-0.5,5.8
	c-0.2,3.9,0,7.8,0.4,11.6c0.5,3.9,1.2,7.7,2.3,11.4l0.4,1.4c0.1,0.5,0.3,0.9,0.5,1.4l1,2.7c0.7,1.8,1.4,3.6,2.3,5.3
	c3.4,7,7.9,13.3,13.3,18.8c-4.4-6.2-8.2-12.8-11.2-19.8c-0.7-1.8-1.5-3.5-2-5.3l-0.9-2.7c-0.1-0.4-0.3-0.9-0.4-1.3l-0.3-1.4
	c-0.9-3.6-1.6-7.3-2-11c-0.8-7.5-0.8-15,0.2-22.5C238.2,84.6,239.8,77.1,242,69.8z"/>
</svg>
