<?xml version="1.0" encoding="utf-8"?>
<!-- Generator: Adobe Illustrator 24.2.0, SVG Export Plug-In . SVG Version: 6.00 Build 0)  -->
<svg version="1.1" id="Calque_1" xmlns="http://www.w3.org/2000/svg" xmlns:xlink="http://www.w3.org/1999/xlink" x="0px" y="0px"
	 viewBox="0 0 252.5 252.5" style="enable-background:new 0 0 252.5 252.5;" xml:space="preserve">
<style type="text/css">
	.st0{fill:#FFFFFF;filter:url(#Adobe_OpacityMaskFilter);}
	.st1{fill-rule:evenodd;clip-rule:evenodd;}
	
		.st2{mask:url(#_mask_58dSkvROak1xETgJApPAa8HODZEJoVEd_1_);fill:none;stroke:#2F66BF;stroke-width:4;stroke-linecap:round;stroke-linejoin:round;stroke-miterlimit:3;}
	.st3{fill:none;}
	.st4{fill:#D1D1D1;stroke:#5D5D5D;stroke-linecap:square;stroke-miterlimit:3;}
	.st5{fill:#FFFFFF;}
	.st6{fill:#2E2E2E;}
	.st7{fill:#4A86E8;}
	.st8{fill:none;stroke:#6E9CE6;stroke-width:2;stroke-linecap:round;stroke-linejoin:round;stroke-miterlimit:3;}
	.st9{fill:#2E2E2E;stroke:#2F66BF;stroke-linecap:square;stroke-miterlimit:3;}
	.st10{fill:#6E9CE6;}
	.st11{fill:none;stroke:#2F66BF;stroke-width:2;stroke-linecap:round;stroke-linejoin:round;stroke-miterlimit:3;}
</style>
<g>
	<defs>
		<filter id="Adobe_OpacityMaskFilter" filterUnits="userSpaceOnUse" x="3.3" y="38.2" width="250.2" height="186.3">
			<feColorMatrix  type="matrix" values="1 0 0 0 0  0 1 0 0 0  0 0 1 0 0  0 0 0 1 0"/>
		</filter>
	</defs>
	<mask maskUnits="userSpaceOnUse" x="3.3" y="38.2" width="250.2" height="186.3" id="_mask_58dSkvROak1xETgJApPAa8HODZEJoVEd_1_">
		<rect x="-1108.5" y="-906.1" class="st0" width="1010" height="745.4"/>
		<path class="st1" d="M119.7,111.6c5.5-8.3,15.4-13.7,29.7-16.1c-19.3-8.2-40.1-6.8-62.4,4.4c-1.5-1.2-2.7-2.1-3.3-2.6
			C73.7,88.5,70.1,79,72.9,68.5c4.1-0.5,11.7,0.9,22.8,4.3c8.7-0.7,14-8.2,10.9-23.7c-0.3-1.3-1.4-2.8-3.4-4.6
			c-31.4-6.4-61.7-5.6-90.8,2.4c-9.4,7.5-9.5,14.8-0.4,22c2.2,0.8,11.6,0.2,28.1-1.7c-8,22.2-7.8,44.7,0.3,64.4
			c-16.6,17.9-23.1,34-19.2,48.3c8.7-14.9,20.8-22.3,36.4-22.1c8.7,9,19.8,16.7,33.2,22.4c32.5,13.8,64.9,10.8,97.2-9
			c-0.1,21,11.2,38.2,34.1,51.4c-9.2-17.6-12.8-40-4.6-61.9c7.1-20.6,18.5-36.6,34-47.9c-24.8,3.2-44.4,16.9-58.9,41.3
			c-24.4,11-42.8,8.6-55.1-7.4c-4.4-5.7-9.5-11.3-14.8-16.5c7.6-4.4,17.2-6.1,28.8-5.1C143.9,117.4,133.2,113,119.7,111.6z"/>
	</mask>
	<path vector-effect="non-scaling-stroke" class="st2" d="M119.7,111.6c5.5-8.3,15.4-13.7,29.7-16.1c-19.3-8.2-40.1-6.8-62.4,4.4
		c-1.5-1.2-2.7-2.1-3.3-2.6C73.7,88.5,70.1,79,72.9,68.5c4.1-0.5,11.7,0.9,22.8,4.3c8.7-0.7,14-8.2,10.9-23.7
		c-0.3-1.3-1.4-2.8-3.4-4.6c-31.4-6.4-61.7-5.6-90.8,2.4c-9.4,7.5-9.5,14.8-0.4,22c2.2,0.8,11.6,0.2,28.1-1.7
		c-8,22.2-7.8,44.7,0.3,64.4c-16.6,17.9-23.1,34-19.2,48.3c8.7-14.9,20.8-22.3,36.4-22.1c8.7,9,19.8,16.7,33.2,22.4
		c32.5,13.8,64.9,10.8,97.2-9c-0.1,21,11.2,38.2,34.1,51.4c-9.2-17.6-12.8-40-4.6-61.9c7.1-20.6,18.5-36.6,34-47.9
		c-24.8,3.2-44.4,16.9-58.9,41.3c-24.4,11-42.8,8.6-55.1-7.4c-4.4-5.7-9.5-11.3-14.8-16.5c7.6-4.4,17.2-6.1,28.8-5.1
		C143.9,117.4,133.2,113,119.7,111.6z"/>
	<path class="st3" d="M119.7,111.6c5.5-8.3,15.4-13.7,29.7-16.1c-19.3-8.2-40.1-6.8-62.4,4.4c-1.5-1.2-2.7-2.1-3.3-2.6
		C73.7,88.5,70.1,79,72.9,68.5c4.1-0.5,11.7,0.9,22.8,4.3c8.7-0.7,14-8.2,10.9-23.7c-0.3-1.3-1.4-2.8-3.4-4.6
		c-31.4-6.4-61.7-5.6-90.8,2.4c-9.4,7.5-9.5,14.8-0.4,22c2.2,0.8,11.6,0.2,28.1-1.7c-8,22.2-7.8,44.7,0.3,64.4
		c-16.6,17.9-23.1,34-19.2,48.3c8.7-14.9,20.8-22.3,36.4-22.1c8.7,9,19.8,16.7,33.2,22.4c32.5,13.8,64.9,10.8,97.2-9
		c-0.1,21,11.2,38.2,34.1,51.4c-9.2-17.6-12.8-40-4.6-61.9c7.1-20.6,18.5-36.6,34-47.9c-24.8,3.2-44.4,16.9-58.9,41.3
		c-24.4,11-42.8,8.6-55.1-7.4c-4.4-5.7-9.5-11.3-14.8-16.5c7.6-4.4,17.2-6.1,28.8-5.1C143.9,117.4,133.2,113,119.7,111.6z"/>
	<path vector-effect="non-scaling-stroke" class="st4" d="M1.7,57.4c0.9-4.8,4.9-8.1,8.9-7.3c4,0.8,6.5,5.3,5.6,10.1
		c-0.9,4.8-4.9,8.1-8.9,7.3C3.3,66.7,0.8,62.2,1.7,57.4z"/>
	<path class="st5" d="M2.2,56.9c0.8-4.3,4.4-7.2,7.9-6.5c3.6,0.7,5.8,4.7,5,9c-0.8,4.3-4.4,7.2-7.9,6.5C3.6,65.3,1.3,61.2,2.2,56.9z
		"/>
	<path class="st6" d="M3.3,59.1c0.4,2.4,0.2,3.7-0.6,3.9c-0.9-2.5-1-4.6-0.3-6.5C3,57.5,3.2,58.4,3.3,59.1z"/>
	<path class="st7" d="M83.3,101.7c23.7-12.8,45.7-14.9,66.1-6.2c-24.2,4.2-35.9,16.7-34.9,37.6L83.3,101.7z"/>
	<path class="st7" d="M41.5,130.4c-17.4,18.3-24.1,34.8-20.2,49.4c8.8-15.1,21.2-22.5,37.1-22.1"/>
	<path class="st7" d="M12.1,68.8c-9.1-7.1-9-14.5,0.4-22c29.1-7.9,59.4-8.7,90.8-2.4c2,1.8,3.1,3.4,3.4,4.6
		c3.1,15.5-2.2,23-10.9,23.7C84.6,69.4,77,68,72.9,68.5c-2.8,10.4,0.8,20,10.7,28.6c4.7,4.1,35.5,25.5,53.9,49.4
		c12.3,16,30.6,18.4,55.1,7.4c14.5-24.3,34.1-38.1,58.9-41.3c-15.5,11.4-26.8,27.4-34,47.9c-8.2,22-4.7,44.3,4.6,61.9
		c-22.8-13.3-34.2-30.4-34.1-51.4c-32.3,19.8-64.7,22.8-97.2,9c-48.7-20.7-67.2-67.5-50.7-112.9C23.7,69,14.3,69.6,12.1,68.8z"/>
	<path vector-effect="non-scaling-stroke" class="st8" d="M98.5,45c-4,0.1-7.1,2.7-9.4,7.6c-3.6,8.3-1.7,14.6,5.1,18.8"/>
	<path vector-effect="non-scaling-stroke" class="st8" d="M12.1,49.1c20.5-7.2,49.1-8.5,85.8-4.1"/>
	<g>
		<path vector-effect="non-scaling-stroke" class="st4" d="M109.4,61.2c0.9-4.8-1.6-9.3-5.6-10.1c-4-0.8-8,2.5-8.9,7.4
			c-0.9,4.8,1.6,9.3,5.6,10.1C104.5,69.3,108.5,66,109.4,61.2z"/>
		<path class="st5" d="M109.2,60.6c0.8-4.3-1.4-8.3-5-9c-3.6-0.7-7.1,2.3-7.9,6.6c-0.8,4.3,1.4,8.3,5,9
			C104.8,67.8,108.4,64.9,109.2,60.6z"/>
		<path class="st6" d="M107.9,60.2c0.4-2.3-0.8-4.5-2.7-4.9c-1.9-0.4-3.9,1.2-4.3,3.6c-0.4,2.3,0.8,4.5,2.7,4.9
			C105.6,64.1,107.5,62.5,107.9,60.2z"/>
		<path class="st5" d="M108.3,58.1c0.2-1.2-0.4-2.3-1.4-2.4c-1-0.2-1.9,0.6-2.2,1.8c-0.2,1.2,0.4,2.3,1.4,2.4
			C107.1,60,108.1,59.2,108.3,58.1z"/>
	</g>
	<path vector-effect="non-scaling-stroke" class="st9" d="M38.5,75.8c3,8.3,7.7,12,14,11c6.3-1,11.5-4.5,15.6-10.6
		c-4,3.5-9.7,5-17.2,4.6C43.4,80.4,39.3,78.7,38.5,75.8z"/>
	<path class="st10" d="M160,162.1c14.5,2.8,29.8-3.2,34.9-6.7c8.4-5.8-15.8,17.2-40.3,13.1c-24.6-4-54.9-20.9-64.1-35.6
		c-9.2-14.6-19.2-37.6-20.2-45c-0.7-4.9,0.1-11.2,2.3-18.7c-2.2,10,0.5,18.4,8,25.1C91.9,104.7,118,125,135.2,145
		C142,152.9,150.6,160.3,160,162.1z"/>
	<path class="st7" d="M91.9,112.4c27.4-3.7,47.4,0.4,59.7,12.5c-20.4-1.6-32.9,3.8-37.5,16.3C107.6,128.8,100.2,119.2,91.9,112.4z"
		/>
	<path vector-effect="non-scaling-stroke" class="st8" d="M98.5,113.5c19.4-1.2,35.2,1.5,47.4,8"/>
	<path vector-effect="non-scaling-stroke" class="st8" d="M89.1,101.7c19.6-9.5,37.6-11.8,54.1-6.8"/>
	<path vector-effect="non-scaling-stroke" class="st8" d="M195.6,151.7c14.8-18.9,31.7-31,50.7-36.4"/>
	<path vector-effect="non-scaling-stroke" class="st8" d="M40.1,133.9c-13.8,17.7-20.1,32.3-18.7,43.5"/>
	<path vector-effect="non-scaling-stroke" class="st11" d="M61.5,162.4c-3.3-2.8-6.8-6.6-10.7-11.6"/>
	<path vector-effect="non-scaling-stroke" class="st11" d="M113.9,140.2c6.1-12.1,18.6-17.1,37.3-15.1"/>
	<line vector-effect="non-scaling-stroke" class="st11" x1="33.9" y1="68.8" x2="41.5" y2="68.2"/>
	<line vector-effect="non-scaling-stroke" class="st11" x1="69.5" y1="69.4" x2="75.7" y2="69.4"/>
</g>
</svg>
